1	Un	un	_	RI	_	2	det	_	_
2	giorno	giorno	_	S	_	7	nmod	_	_
3	la	la	_	RD	_	5	det	_	_
4	mia	mio	_	AP	_	5	det:poss	_	_
5	maestra	maestra	_	S	_	7	nsubj	_	_
6	ha	avere	_	VA	_	7	aux	_	_
7	cominciato	cominciare	_	V	_	0	root	_	_
8	ha	avere	_	VA	_	9	aux	_	_
9	parlare	parlare	_	V	_	7	xcomp	_	_
10	e	e	_	CC	_	9	cc	_	_
11	a	a	_	E	_	12	mark	_	_
12	insegnarci	insegnare	_	V+PC	_	9	conj	_	_
13	i	il	_	RD	_	14	det	_	_
14	verbi	verbo	_	S	_	12	dobj	_	_
15	.	[PUNCT]	_	FS	_	7	punct	_	_

16	Abbiamo	avere	_	VA	_	17	aux	_	_
17	parlato	parlare	_	V	_	0	root	_	_
18	di	di	_	E	_	17	xcomp	_	_
19	essere	essere	_	V	_	18	ccomp	_	_
20	e	e	_	CC	_	19	cc	_	_
21	avere	avere	_	V	_	19	conj	_	_
22	di	di	_	E	_	23	case	_	_
23	pronomi	pronome	_	S	_	21	nmod	_	_
24	ecc.	[ABL]	_	S	_	21	dobj	_	_
25	,	[PUNCT]	_	FF	_	19	punct	_	_
26	dopo	dopo	_	CS	_	28	mark	_	_
27	aver	avere	_	VA	_	28	aux	_	_
28	parlato	parlare	_	V	_	19	advcl	_	_
29	,	[PUNCT]	_	FF	_	28	punct	_	_
30	spiegato	spiegare	_	V	_	28	conj	_	_
31	e	e	_	CC	_	28	cc	_	_
32	ripetuto	ripetere	_	V	_	28	conj	_	_
33	tante	tanto	_	DI	_	34	det	_	_
34	volte	volta	_	S	_	40	nmod	_	_
35	,	[PUNCT]	_	FF	_	34	punct	_	_
36	la	la	_	RD	_	37	det	_	_
37	maestra	maestra	_	S	_	40	nsubj	_	_
38	ci	ci	_	PC	_	40	iobj	_	_
39	ha	avere	_	VA	_	40	aux	_	_
40	detto	dire	_	V	_	32	advcl	_	_
41	di	di	_	E	_	42	mark	_	_
42	studiare	studiare	_	V	_	40	xcomp	_	_
43	i	il	_	RD	_	44	det	_	_
44	verbi	verbo	_	S	_	42	dobj	_	_
45	,	[PUNCT]	_	FF	_	28	punct	_	_
46	cioè	cioè	_	CC	_	28	cc	_	_
47	essere	essere	_	V	_	28	conj	_	_
48	e	e	_	CC	_	28	cc	_	_
49	avere	avere	_	V	_	28	conj	_	_
50	.	[PUNCT]	_	FS	_	17	punct	_	_

51	Noi	noi	_	PE	_	53	nsubj	_	_
52	abbiamo	avere	_	VA	_	53	aux	_	_
53	studiato	studiare	_	V	_	0	root	_	_
54	e	e	_	CC	_	53	cc	_	_
55	anch'	anch'	_	B	_	56	advmod	_	_
56	io	io	_	PE	_	65	nsubj	_	_
57	ma	ma	_	CC	_	56	cc	_	_
58	non	non	_	BN	_	59	neg	_	_
59	abbastanza	abbastanza	_	B	_	56	conj	_	_
60	e	e	_	CC	_	56	cc	_	_
61	dopo	dopo	_	CS	_	63	mark	_	_
62	aver	avere	_	VA	_	63	aux	_	_
63	studiato	studiare	_	V	_	65	advcl	_	_
64	abbiamo	avere	_	VA	_	65	aux	_	_
65	fatto	fare	_	V	_	53	conj	_	_
66	la	la	_	RD	_	67	det	_	_
67	verifica	verifica	_	S	_	65	dobj	_	_
68	dei	del	_	E+RD	_	69	case	_	_
69	verbi	verbo	_	S	_	67	nmod	_	_
70	.	[PUNCT]	_	FS	_	53	punct	_	_

71	Non	non	_	BN	_	74	neg	_	_
72	mi	mi	_	PC	_	74	expl	_	_
73	è	essere	_	VA	_	74	aux	_	_
74	andata	andare	_	V	_	0	root	_	_
75	così	così	_	B	_	76	advmod	_	_
76	bene	bene	_	B	_	74	advmod	_	_
77	;	[PUNCT]	_	FC	_	74	punct	_	_
78	poi	poi	_	B	_	80	advmod	_	_
79	abbiamo	avere	_	VA	_	80	aux	_	_
80	cominciato	cominciare	_	V	_	74	conj	_	_
81	a	a	_	E	_	82	mark	_	_
82	parlare	parlare	_	V	_	80	xcomp	_	_
83	di	di	_	E	_	84	case	_	_
84	are	are	_	S	_	82	nmod	_	_
85	,	[PUNCT]	_	FF	_	82	punct	_	_
86	ere	era	_	V	_	82	conj	_	_
87	,	[PUNCT]	_	FF	_	82	punct	_	_
88	ire	ira	_	S	_	82	conj	_	_
89	.	[PUNCT]	_	FS	_	74	punct	_	_

90	Io	io	_	PE	_	95	nsubj	_	_
91	questa	questo	_	DD	_	92	det	_	_
92	volta	volta	_	S	_	95	nmod	_	_
93	sono	essere	_	VA	_	95	aux	_	_
94	stata	essere	_	V	_	95	cop	_	_
95	attenta	attento	_	A	_	0	root	_	_
96	e	e	_	CC	_	95	cc	_	_
97	o	o	_	CC	_	95	cc	_	_
98	capito	capire	_	V	_	95	conj	_	_
99	,	[PUNCT]	_	FF	_	95	punct	_	_
100	poi	poi	_	B	_	106	advmod	_	_
101	ancora	ancora	_	B	_	106	advmod	_	_
102	una	una	_	RI	_	103	det	_	_
103	volta	volta	_	S	_	106	nsubj	_	_
104	ci	ci	_	PC	_	106	iobj	_	_
105	ha	avere	_	VA	_	106	aux	_	_
106	detto	dire	_	V	_	95	conj	_	_
107	di	di	_	E	_	108	mark	_	_
108	studiare	studiare	_	V	_	106	xcomp	_	_
109	e	e	_	CC	_	108	cc	_	_
110	ho	avere	_	VA	_	111	aux	_	_
111	studiato	studiare	_	V	_	108	conj	_	_
112	tanto	tanto	_	PI	_	111	dobj	_	_
113	,	[PUNCT]	_	FF	_	106	punct	_	_
114	tanto	tanto	_	B	_	106	advmod	_	_
115	.	[PUNCT]	_	FS	_	95	punct	_	_

116	Ci	ci	_	PC	_	118	advmod	_	_
117	ha	avere	_	VA	_	118	aux	_	_
118	fatto	fare	_	V	_	0	root	_	_
119	la	la	_	RD	_	120	det	_	_
120	verifica	verifica	_	S	_	118	dobj	_	_
121	ma	ma	_	CC	_	118	cc	_	_
122	ad	ad	_	E	_	125	case	_	_
123	un	un	_	RI	_	125	det	_	_
124	certo	certo	_	A	_	125	amod	_	_
125	punto	punto	_	S	_	127	nmod	_	_
126	c'	c'	_	PC	_	127	expl	_	_
127	erano	essere	_	V	_	118	conj	_	_
128	anche	anche	_	B	_	130	advmod	_	_
129	i	il	_	RD	_	130	det	_	_
130	verbi	verbo	_	S	_	127	nsubj	_	_
131	di	di	_	E	_	132	mark	_	_
132	avere	avere	_	V	_	130	acl	_	_
133	e	e	_	CC	_	132	cc	_	_
134	essere	essere	_	V	_	132	conj	_	_
135	e	e	_	CC	_	118	cc	_	_
136	io	io	_	PE	_	140	nsubj	_	_
137	non	non	_	BN	_	140	neg	_	_
138	mi	mi	_	PC	_	140	iobj	_	_
139	li	li	_	PC	_	140	dobj	_	_
140	ricordavo	ricordare	_	V	_	118	conj	_	_
141	più	più	_	B	_	140	advmod	_	_
142	!	[PUNCT]	_	FS	_	118	punct	_	_

143	Perché	perché	_	CS	_	145	mark	_	_
144	avevo	avere	_	VA	_	145	aux	_	_
145	pensato	pensare	_	V	_	0	root	_	_
146	che	che	_	CS	_	149	mark	_	_
147	non	non	_	BN	_	149	neg	_	_
148	c'	c'	_	PC	_	149	expl	_	_
149	era	essere	_	V	_	145	ccomp	_	_
150	più	più	_	B	_	149	advmod	_	_
151	bisogno	bisogno	_	S	_	149	nsubj	_	_
152	di	di	_	E	_	153	mark	_	_
153	sapere	sapere	_	V	_	151	acl	_	_
154	a	a	_	E	_	155	case	_	_
155	memoria	memoria	_	S	_	153	nmod	_	_
156	,	[PUNCT]	_	FF	_	153	punct	_	_
157	“	“	_	FB	_	158	punct	_	_
158	studiare	studiare	_	V	_	153	advcl	_	_
159	”	”	_	FB	_	158	punct	_	_
160	e	e	_	CC	_	158	cc	_	_
161	poi	poi	_	B	_	162	advmod	_	_
162	basta	bastare	_	V	_	158	conj	_	_
163	!	[PUNCT]	_	FS	_	145	punct	_	_

164	Ma	ma	_	CC	_	166	cc	_	_
165	no	no	_	I	_	166	discourse	_	_
166	bisogna	bisognare	_	V	_	0	root	_	_
167	sempe	sempe	_	S	_	166	nsubj	_	_
168	studiare	studiare	_	V	_	166	ccomp	_	_
169	a	a	_	E	_	170	case	_	_
170	memoria	memoria	_	S	_	168	nmod	_	_
171	e	e	_	CC	_	168	cc	_	_
172	capire	capire	_	V	_	168	conj	_	_
173	!	[PUNCT]	_	FS	_	166	punct	_	_

174	E	e	_	CC	_	180	cc	_	_
175	anche	anche	_	B	_	180	advmod	_	_
176	questa	questo	_	DD	_	177	det	_	_
177	volta	volta	_	S	_	180	nmod	_	_
178	mi	mi	_	PC	_	180	iobj	_	_
179	é	essere	_	VA	_	180	aux	_	_
180	andato	andare	_	V	_	0	root	_	_
181	male	male	_	B	_	180	advmod	_	_
182	!	[PUNCT]	_	FS	_	180	punct	_	_

183	!	[PUNCT]	_	FS	_	0	root	_	_

184	Ero	essere	_	V	_	186	cop	_	_
185	molto	molto	_	B	_	186	advmod	_	_
186	triste	triste	_	A	_	194	xcomp	_	_
187	perché	perché	_	CS	_	188	mark	_	_
188	pensavo	pensare	_	V	_	186	advcl	_	_
189	almeno	almeno	_	B	_	188	advmod	_	_
190	questa	questo	_	DD	_	191	det	_	_
191	volta	volta	_	S	_	188	dobj	_	_
192	mi	mi	_	PC	_	194	expl	_	_
193	sarebbe	essere	_	VA	_	194	aux	_	_
194	andata	andare	_	V	_	0	root	_	_
195	bene	bene	_	B	_	194	advmod	_	_
196	,	[PUNCT]	_	FF	_	194	punct	_	_
197	ma	ma	_	CC	_	194	cc	_	_
198	invece	invece	_	B	_	199	advmod	_	_
199	no	no	_	BN	_	194	conj	_	_
200	!	[PUNCT]	_	FS	_	194	punct	_	_

201	Il	il	_	RD	_	202	det	_	_
202	giorno	giorno	_	S	_	205	nmod	_	_
203	dopo	dopo	_	B	_	202	advmod	_	_
204	siamo	essere	_	VA	_	205	aux	_	_
205	rientrati	rientrare	_	V	_	0	root	_	_
206	in	in	_	E	_	207	case	_	_
207	classe	classe	_	S	_	205	nmod	_	_
208	e	e	_	CC	_	205	cc	_	_
209	abbiamo	avere	_	VA	_	210	aux	_	_
210	cominciato	cominciare	_	V	_	205	conj	_	_
211	a	a	_	E	_	212	mark	_	_
212	parlare	parlare	_	V	_	210	xcomp	_	_
213	sempre	sempre	_	B	_	212	advmod	_	_
214	di	di	_	E	_	216	mark	_	_
215	“	“	_	FB	_	216	punct	_	_
216	sentire	sentire	_	V	_	212	ccomp	_	_
217	”	”	_	FB	_	216	punct	_	_
218	,	[PUNCT]	_	FF	_	216	punct	_	_
219	“	“	_	FB	_	220	punct	_	_
220	mangiare	mangiare	_	V	_	216	advcl	_	_
221	”	”	_	FB	_	220	punct	_	_
222	,	[PUNCT]	_	FF	_	216	punct	_	_
223	“	“	_	FB	_	224	punct	_	_
224	ridere	ridere	_	V	_	216	advcl	_	_
225	”	”	_	FB	_	224	punct	_	_
226	,	[PUNCT]	_	FF	_	216	punct	_	_
227	ma	ma	_	CC	_	216	cc	_	_
228	anche	anche	_	B	_	231	advmod	_	_
229	di	di	_	E	_	231	case	_	_
230	altri	altro	_	DI	_	231	det	_	_
231	nomi	nome	_	S	_	216	conj	_	_
232	con	con	_	E	_	234	mark	_	_
233	dentro	dentro	_	B	_	234	advmod	_	_
234	are	are	_	V	_	231	acl	_	_
235	,	[PUNCT]	_	FF	_	234	punct	_	_
236	ere	era	_	V	_	234	conj	_	_
237	,	[PUNCT]	_	FF	_	234	punct	_	_
238	ìre	ìre	_	S	_	234	conj	_	_
239	.	[PUNCT]	_	FS	_	205	punct	_	_

240	Abbiamo	avere	_	VA	_	241	aux	_	_
241	parlato	parlare	_	V	_	0	root	_	_
242	tanto	tanto	_	B	_	241	advmod	_	_
243	,	[PUNCT]	_	FF	_	241	punct	_	_
244	tanto	tanto	_	B	_	250	advmod	_	_
245	e	e	_	CC	_	244	cc	_	_
246	anche	anche	_	B	_	248	advmod	_	_
247	questa	questo	_	DD	_	248	det	_	_
248	volta	volta	_	S	_	250	nmod	_	_
249	ho	avere	_	VA	_	250	aux	_	_
250	capito	capire	_	V	_	241	advcl	_	_
251	,	[PUNCT]	_	FF	_	250	punct	_	_
252	la	la	_	RD	_	253	det	_	_
253	maestra	maestra	_	S	_	256	nsubj	_	_
254	ci	ci	_	PC	_	256	iobj	_	_
255	ha	avere	_	VA	_	256	aux	_	_
256	dato	dare	_	V	_	250	conj	_	_
257	da	da	_	E	_	258	mark	_	_
258	studiare	studiare	_	V	_	256	xcomp	_	_
259	e	e	_	CC	_	258	cc	_	_
260	io	io	_	PE	_	262	nsubj	_	_
261	ho	avere	_	VA	_	262	aux	_	_
262	studiato	studiare	_	V	_	258	conj	_	_
263	tanto	tanto	_	B	_	262	advmod	_	_
264	;	[PUNCT]	_	FC	_	250	punct	_	_
265	anche	anche	_	B	_	266	advmod	_	_
266	però	però	_	B	_	268	advmod	_	_
267	i	il	_	RD	_	268	det	_	_
268	verbi	verbo	_	S	_	250	conj	_	_
269	cioé	cioé	_	CS	_	268	acl	_	_
270	essere	essere	_	V	_	269	ccomp	_	_
271	e	e	_	CC	_	270	cc	_	_
272	avere	avere	_	V	_	270	conj	_	_
273	molto	molto	_	DI	_	274	det	_	_
274	bene	bene	_	B	_	276	advmod	_	_
275	anche	anche	_	B	_	276	advmod	_	_
276	quelli	quelli	_	PD	_	272	dobj	_	_
277	della	della	_	E+RD	_	279	case	_	_
278	scorsa	scorso	_	A	_	279	amod	_	_
279	volta	volta	_	S	_	276	nmod	_	_
280	di	di	_	E	_	281	case	_	_
281	ire	ira	_	S	_	279	nmod	_	_
282	,	[PUNCT]	_	FF	_	270	punct	_	_
283	ere	era	_	V	_	270	conj	_	_
284	,	[PUNCT]	_	FF	_	283	punct	_	_
285	are	are	_	V	_	283	conj	_	_
286	.	[PUNCT]	_	FS	_	241	punct	_	_

287	Abbiamo	avere	_	VA	_	288	aux	_	_
288	fatto	fare	_	V	_	306	advcl	_	_
289	la	la	_	RD	_	290	det	_	_
290	verifica	verifica	_	S	_	288	dobj	_	_
291	e	e	_	CC	_	288	cc	_	_
292	non	non	_	BN	_	294	neg	_	_
293	ho	avere	_	VA	_	294	aux	_	_
294	avuto	avere	_	V	_	288	conj	_	_
295	problemi	problema	_	S	_	294	dobj	_	_
296	e	e	_	CC	_	288	cc	_	_
297	mi	mi	_	PC	_	299	iobj	_	_
298	è	essere	_	VA	_	299	aux	_	_
299	andata	andare	_	V	_	288	conj	_	_
300	bene	bene	_	B	_	299	advmod	_	_
301	,	[PUNCT]	_	FF	_	288	punct	_	_
302	qualche	qualche	_	DI	_	303	det	_	_
303	errore	errore	_	S	_	306	nsubj	_	_
304	l'	l'	_	PC	_	306	dobj	_	_
305	ho	avere	_	VA	_	306	aux	_	_
306	fatto	fare	_	V	_	0	root	_	_
307	ma	ma	_	CC	_	312	cc	_	_
308	però	però	_	B	_	312	advmod	_	_
309	questa	questo	_	DD	_	310	det	_	_
310	volta	volta	_	S	_	312	nmod	_	_
311	ho	avere	_	VA	_	312	aux	_	_
312	capito	capire	_	V	_	306	ccomp	_	_
313	!	[PUNCT]	_	FS	_	306	punct	_	_

314	È	essere	_	V	_	319	cop	_	_
315	per	per	_	E	_	316	case	_	_
316	questo	questo	_	PD	_	314	nmod	_	_
317	non	non	_	BN	_	319	neg	_	_
318	si	si	_	PC	_	319	expl:impers	_	_
319	gnifica	gnifica	_	V	_	0	root	_	_
320	che	che	_	CS	_	319	advmod	_	_
321	se	se	_	CS	_	323	mark	_	_
322	ho	avere	_	VA	_	323	aux	_	_
323	studiato	studiare	_	V	_	320	advcl	_	_
324	ma	ma	_	CC	_	323	cc	_	_
325	non	non	_	BN	_	327	neg	_	_
326	ho	avere	_	VA	_	327	aux	_	_
327	ascoltato	ascoltare	_	V	_	323	conj	_	_
328	in	in	_	E	_	329	case	_	_
329	classe	classe	_	S	_	327	nmod	_	_
330	e	e	_	CC	_	323	cc	_	_
331	mi	mi	_	PC	_	323	conj	_	_
332	e	e	_	CC	_	331	cc	_	_
333	andata	andare	_	V	_	336	acl	_	_
334	bene	bene	_	B	_	333	advmod	_	_
335	la	la	_	RD	_	336	det	_	_
336	verifica	verifica	_	S	_	331	conj	_	_
337	e	e	_	CC	_	331	cc	_	_
338	dopo	dopo	_	E	_	339	mark	_	_
339	basta	bastare	_	V	_	331	conj	_	_
340	perché	perché	_	CS	_	342	mark	_	_
341	non	non	_	BN	_	342	neg	_	_
342	ho	avere	_	V	_	339	ccomp	_	_
343	bisogno	bisogno	_	S	_	342	dobj	_	_
344	più	più	_	B	_	346	advmod	_	_
345	dei	del	_	E+RD	_	346	case	_	_
346	verbi	verbo	_	S	_	343	nmod	_	_
347	!	[PUNCT]	_	FS	_	319	punct	_	_

348	Invece	invece	_	B	_	0	root	_	_
349	no	no	_	BN	_	348	nsubj	_	_
350	si	si	_	PC	_	349	advmod	_	_
351	che	che	_	PR	_	353	nsubj	_	_
352	ne	ne	_	PC	_	353	advmod	_	_
353	avrò	avere	_	V	_	350	acl:relcl	_	_
354	bisogno	bisogno	_	S	_	353	dobj	_	_
355	e	e	_	CC	_	354	cc	_	_
356	molto	molto	_	B	_	354	conj	_	_
357	!	[PUNCT]	_	FS	_	348	punct	_	_

358	E	e	_	CC	_	361	cc	_	_
359	per	per	_	E	_	360	case	_	_
360	questo	questo	_	PD	_	361	nmod	_	_
361	studiare	studiare	_	V	_	0	root	_	_
362	non	non	_	BN	_	364	neg	_	_
363	per	per	_	E	_	364	mark	_	_
364	studiare	studiare	_	V	_	361	ccomp	_	_
365	e	e	_	CC	_	364	cc	_	_
366	poi	poi	_	B	_	367	advmod	_	_
367	basta	bastare	_	V	_	364	conj	_	_
368	,	[PUNCT]	_	FF	_	364	punct	_	_
369	ma	ma	_	CC	_	364	cc	_	_
370	per	per	_	E	_	371	mark	_	_
371	imparare	imparare	_	V	_	364	conj	_	_
372	e	e	_	CC	_	371	cc	_	_
373	metterle	mettere	_	V+PC	_	371	conj	_	_
374	nella	nella	_	E+RD	_	375	case	_	_
375	zucca	zucca	_	S	_	373	nmod	_	_
376	!	[PUNCT]	_	FS	_	361	punct	_	_

377	!	[PUNCT]	_	FS	_	0	root	_	_

