1	L'	l'	_	RD	_	2	det	_	_
2	EBE	EBE	_	SP	_	46	nsubj	_	_
3	E	E	_	SP	_	2	name	_	_
4	LA	LA	_	SP	_	2	name	_	_
5	GARA	GARA	_	SP	_	24	nmod	_	_
6	Un	un	_	RI	_	7	det	_	_
7	paio	paio	_	S	_	24	nmod	_	_
8	di	di	_	E	_	9	case	_	_
9	settimane	settimana	_	S	_	7	nmod	_	_
10	fá	fá	_	S	_	9	nmod	_	_
11	,	[PUNCT]	_	FF	_	7	punct	_	_
12	il	il	_	RD	_	14	det	_	_
13	mio	mio	_	AP	_	14	det:poss	_	_
14	maestro	maestro	_	S	_	24	nsubj	_	_
15	di	di	_	E	_	16	case	_	_
16	nuoto	nuoto	_	S	_	14	nmod	_	_
17	(	[PUNCT]	_	FB	_	19	punct	_	_
18	si	si	_	PC	_	19	expl	_	_
19	chiama	chiamare	_	V	_	14	advcl	_	_
20	Dimitri	Dimitri	_	SP	_	19	xcomp	_	_
21	)	[PUNCT]	_	FB	_	19	punct	_	_
22	ci	ci	_	PC	_	24	iobj	_	_
23	ha	avere	_	VA	_	24	aux	_	_
24	dato	dare	_	V	_	2	acl	_	_
25	un	un	_	RI	_	26	det	_	_
26	foglio	foglio	_	S	_	24	dobj	_	_
27	di	di	_	E	_	28	case	_	_
28	iscrizione	iscrizione	_	S	_	26	nmod	_	_
29	per	per	_	E	_	31	case	_	_
30	una	una	_	N	_	31	nummod	_	_
31	gara	gara	_	S	_	24	nmod	_	_
32	,	[PUNCT]	_	FF	_	2	punct	_	_
33	una	una	_	RI	_	35	det	_	_
34	mia	mio	_	AP	_	35	det:poss	_	_
35	compagna	compagna	_	S	_	46	nmod	_	_
36	l'	l'	_	RD	_	37	det	_	_
37	Ebe	Ebe	_	SP	_	35	nmod	_	_
38	,	[PUNCT]	_	FF	_	37	punct	_	_
39	capelli	capello	_	S	_	37	nmod	_	_
40	lunghi	lungo	_	A	_	39	amod	_	_
41	biondi	biondo	_	A	_	39	amod	_	_
42	,	[PUNCT]	_	FF	_	41	punct	_	_
43	magra	magro	_	A	_	41	conj	_	_
44	,	[PUNCT]	_	FF	_	35	punct	_	_
45	si	si	_	PC	_	46	expl:impers	_	_
46	vanta	vantare	_	V	_	0	root	_	_
47	sempre	sempre	_	B	_	46	advmod	_	_
48	…	…	_	FF	_	46	punct	_	_
49	Continua	continuare	_	V	_	46	ccomp	_	_
50	a	a	_	E	_	51	mark	_	_
51	dire	dire	_	V	_	49	xcomp	_	_
52	:	[PUNCT]	_	FC	_	46	punct	_	_
53	–	–	_	FF	_	46	punct	_	_
54	Scommetto	Scommetto	_	SP	_	46	nmod	_	_
55	5	5	_	N	_	56	nummod	_	_
56	fr	fr	_	S	_	54	nmod	_	_
57	.	[PUNCT]	_	FS	_	46	punct	_	_

58	–	–	_	FB	_	60	punct	_	_
59	che	che	_	PR	_	60	nsubj	_	_
60	vinco	vincere	_	V	_	0	root	_	_
61	!	[PUNCT]	_	FS	_	60	punct	_	_

62	O	o	_	CC	_	63	cc	_	_
63	anche	anche	_	B	_	66	advmod	_	_
64	:	[PUNCT]	_	FC	_	63	punct	_	_
65	–	–	_	FF	_	63	punct	_	_
66	Nessuno	nessuno	_	PI	_	67	nsubj	_	_
67	riuscirebbe	riuscire	_	V	_	0	root	_	_
68	mai	mai	_	B	_	67	advmod	_	_
69	a	a	_	E	_	70	mark	_	_
70	superarmi	superare	_	V+PC	_	67	xcomp	_	_
71	!	[PUNCT]	_	FS	_	67	punct	_	_

72	Poi	poi	_	B	_	0	root	_	_
73	il	il	_	RD	_	74	det	_	_
74	giorno	giorno	_	S	_	72	nmod	_	_
75	della	della	_	E+RD	_	76	case	_	_
76	gara	gara	_	S	_	74	nmod	_	_
77	quando	quando	_	CS	_	81	mark	_	_
78	era	essere	_	V	_	81	cop	_	_
79	il	il	_	RD	_	81	det	_	_
80	suo	suo	_	AP	_	81	det:poss	_	_
81	turno	turno	_	S	_	74	advcl	_	_
82	all'	all'	_	E+RD	_	83	case	_	_
83	inizio	inizio	_	S	_	81	nmod	_	_
84	andó	andó	_	A	_	83	amod	_	_
85	come	come	_	E	_	87	case	_	_
86	un	un	_	RI	_	87	det	_	_
87	fulmine	fulmine	_	S	_	81	nmod	_	_
88	,	[PUNCT]	_	FF	_	74	punct	_	_
89	poi	poi	_	B	_	74	advmod	_	_
90	quando	quando	_	CS	_	89	mwe	_	_
91	gli	il	_	RD	_	92	det	_	_
92	mancava	mancare	_	V	_	89	conj	_	_
93	solo	solo	_	B	_	95	advmod	_	_
94	una	una	_	RI	_	95	det	_	_
95	vasca	vasca	_	S	_	92	dobj	_	_
96	,	[PUNCT]	_	FF	_	95	punct	_	_
97	rallentò	rallentare	_	V	_	95	acl	_	_
98	e	e	_	CC	_	95	cc	_	_
99	gli	il	_	RD	_	102	det	_	_
100	altri	altro	_	A	_	102	amod	_	_
101	miei	mio	_	AP	_	102	det:poss	_	_
102	compagni	compagno	_	S	_	95	conj	_	_
103	la	la	_	RD	_	104	det	_	_
104	superarono	superare	_	S	_	102	nmod	_	_
105	.	[PUNCT]	_	FS	_	72	punct	_	_

106	Perse	perdere	_	V	_	0	root	_	_
107	la	la	_	RD	_	108	det	_	_
108	gara	gara	_	S	_	106	dobj	_	_
109	.	[PUNCT]	_	FS	_	106	punct	_	_

110	Da	da	_	E	_	112	case	_	_
111	questo	questo	_	DD	_	112	det	_	_
112	episodio	episodio	_	S	_	114	nmod	_	_
113	ho	avere	_	VA	_	114	aux	_	_
114	imparato	imparare	_	V	_	0	root	_	_
115	che	che	_	CS	_	120	mark	_	_
116	non	non	_	BN	_	120	neg	_	_
117	si	si	_	PC	_	120	expl:impers	_	_
118	deve	dovere	_	VM	_	120	aux	_	_
119	solo	solo	_	B	_	120	advmod	_	_
120	dire	dire	_	V	_	114	ccomp	_	_
121	,	[PUNCT]	_	FF	_	114	punct	_	_
122	ma	ma	_	CC	_	114	cc	_	_
123	ci	ci	_	PC	_	126	dobj	_	_
124	si	si	_	PC	_	126	expl:impers	_	_
125	deve	dovere	_	VM	_	126	aux	_	_
126	impegnare	impegnare	_	V	_	114	conj	_	_
127	per	per	_	E	_	128	mark	_	_
128	realizzarlo	realizzare	_	V+PC	_	126	advcl	_	_
129	.	[PUNCT]	_	FS	_	114	punct	_	_

