1	Torneo	Torneo	_	SP	_	18	nsubj	_	_
2	di	di	_	E	_	3	case	_	_
3	Calcio	Calcio	_	SP	_	1	nmod	_	_
4	a	a	_	E	_	5	case	_	_
5	Tesserete	Tesserete	_	SP	_	1	nmod	_	_
6	Io	io	_	PE	_	5	name	_	_
7	e	e	_	CC	_	1	cc	_	_
8	la	la	_	RD	_	10	det	_	_
9	mia	mio	_	AP	_	10	det:poss	_	_
10	scuadra	scuadra	_	S	_	1	conj	_	_
11	di	di	_	E	_	12	case	_	_
12	calcio	calcio	_	S	_	10	nmod	_	_
13	che	che	_	PR	_	15	nsubj	_	_
14	si	si	_	PC	_	15	expl	_	_
15	chiama	chiamare	_	V	_	10	acl:relcl	_	_
16	Raav	Raav	_	SP	_	15	xcomp	_	_
17	siamo	essere	_	VA	_	18	aux	_	_
18	andati	andare	_	V	_	0	root	_	_
19	a	a	_	E	_	20	mark	_	_
20	fare	fare	_	V	_	18	xcomp	_	_
21	un	un	_	RI	_	22	det	_	_
22	torneo	torneo	_	S	_	20	dobj	_	_
23	di	di	_	E	_	24	case	_	_
24	calcio	calcio	_	S	_	22	nmod	_	_
25	a	a	_	E	_	26	case	_	_
26	Tesserete	Tesserete	_	SP	_	28	nmod	_	_
27	c'	c'	_	PC	_	28	expl	_	_
28	erano	essere	_	V	_	20	advcl	_	_
29	scuadre	scuadre	_	V	_	28	csubj	_	_
30	forti	forte	_	A	_	29	xcomp	_	_
31	come	come	_	CS	_	29	advcl	_	_
32	lo	il	_	RD	_	33	det	_	_
33	Stella	Stella	_	SP	_	31	dobj	_	_
34	Capriasca	Capriasca	_	SP	_	33	name	_	_
35	,	[PUNCT]	_	FF	_	33	punct	_	_
36	il	il	_	RD	_	37	det	_	_
37	San	San	_	SP	_	33	appos	_	_
38	Bernardo	Bernardo	_	SP	_	37	name	_	_
39	,	[PUNCT]	_	FF	_	33	punct	_	_
40	il	il	_	RD	_	41	det	_	_
41	rapid	rapid	_	S	_	33	conj	_	_
42	Lugano	Lugano	_	SP	_	41	nmod	_	_
43	e	e	_	CC	_	33	cc	_	_
44	il	il	_	RD	_	45	det	_	_
45	Capriate	Capriate	_	SP	_	33	conj	_	_
46	che	che	_	PR	_	45	nmod	_	_
47	é	essere	_	E	_	49	case	_	_
48	una	una	_	RI	_	49	det	_	_
49	scuadra	scuadra	_	S	_	46	nmod	_	_
50	Italiana	italiano	_	A	_	49	amod	_	_
51	e	e	_	CC	_	49	cc	_	_
52	viene	venire	_	VA	_	49	conj	_	_
53	da	da	_	E	_	54	case	_	_
54	Bergamo	Bergamo	_	SP	_	52	nmod	_	_
55	e	e	_	CC	_	54	cc	_	_
56	poi	poi	_	B	_	59	advmod	_	_
57	ce	ce	_	PC	_	59	advmod	_	_
58	il	il	_	RD	_	59	det	_	_
59	Vedeggio	Vedeggio	_	SP	_	54	conj	_	_
60	.	[PUNCT]	_	FS	_	18	punct	_	_

61	Noi	noi	_	PE	_	63	nsubj	_	_
62	abbiamo	avere	_	VA	_	63	aux	_	_
63	giocato	giocare	_	V	_	0	root	_	_
64	contro	contro	_	E	_	66	case	_	_
65	il	il	_	RD	_	66	det	_	_
66	Capriate	Capriate	_	SP	_	63	nmod	_	_
67	,	[PUNCT]	_	FF	_	66	punct	_	_
68	Stella	Stella	_	SP	_	66	conj	_	_
69	capriasca	capriasca	_	S	_	68	name	_	_
70	e	e	_	CC	_	66	cc	_	_
71	con	con	_	E	_	73	case	_	_
72	il	il	_	RD	_	73	det	_	_
73	San	San	_	SP	_	66	conj	_	_
74	Bernardo	Bernardo	_	SP	_	73	name	_	_
75	,	[PUNCT]	_	FF	_	63	punct	_	_
76	e	e	_	CC	_	63	cc	_	_
77	le	le	_	PC	_	79	iobj	_	_
78	abbiamo	avere	_	VA	_	79	aux	_	_
79	vinte	vincere	_	V	_	63	conj	_	_
80	tutte	tutte	_	PI	_	79	dobj	_	_
81	,	[PUNCT]	_	FF	_	80	punct	_	_
82	una	una	_	RI	_	86	det	_	_
83	2-1	2-1	_	NO	_	86	amod	_	_
84	un'	un'	_	RI	_	86	det	_	_
85	altra	altro	_	A	_	86	amod	_	_
86	5-0	5-0	_	S	_	80	conj	_	_
87	e	e	_	CC	_	80	cc	_	_
88	l'	l'	_	RD	_	90	det	_	_
89	ultima	ultimo	_	NO	_	90	amod	_	_
90	1-0	1-0	_	N	_	80	conj	_	_
91	.	[PUNCT]	_	FS	_	63	punct	_	_

92	Poi	poi	_	B	_	94	advmod	_	_
93	abbiamo	avere	_	VA	_	94	aux	_	_
94	giocato	giocare	_	V	_	0	root	_	_
95	contro	contro	_	E	_	97	case	_	_
96	il	il	_	RD	_	97	det	_	_
97	rapid	rapid	_	S	_	94	nmod	_	_
98	Lugano	Lugano	_	SP	_	97	nmod	_	_
99	,	[PUNCT]	_	FF	_	94	punct	_	_
100	e	e	_	CC	_	94	cc	_	_
101	secondo	secondo	_	E	_	102	case	_	_
102	mé	mé	_	SP	_	106	nmod	_	_
103	non	non	_	BN	_	106	neg	_	_
104	erano	essere	_	V	_	106	cop	_	_
105	tanto	tanto	_	B	_	106	advmod	_	_
106	contenti	contento	_	A	_	94	conj	_	_
107	di	di	_	E	_	108	mark	_	_
108	giocare	giocare	_	V	_	106	xcomp	_	_
109	contro	contro	_	E	_	111	case	_	_
110	una	una	_	RI	_	111	det	_	_
111	scuadra	scuadra	_	S	_	108	nmod	_	_
112	che	che	_	PR	_	116	nsubj	_	_
113	non	non	_	BN	_	116	neg	_	_
114	ha	avere	_	VA	_	116	aux	_	_
115	mai	mai	_	B	_	116	advmod	_	_
116	perso	perdere	_	V	_	111	acl:relcl	_	_
117	.	[PUNCT]	_	FS	_	94	punct	_	_

118	E	e	_	CC	_	122	cc	_	_
119	noi	noi	_	PE	_	122	nsubj	_	_
120	invece	invece	_	B	_	121	advmod	_	_
121	eravamo	essere	_	V	_	122	cop	_	_
122	contenti	contento	_	A	_	0	root	_	_
123	di	di	_	E	_	124	mark	_	_
124	giocare	giocare	_	V	_	122	xcomp	_	_
125	contro	contro	_	E	_	127	case	_	_
126	una	una	_	RI	_	127	det	_	_
127	scuadra	scuadra	_	S	_	124	nmod	_	_
128	che	che	_	PR	_	130	nsubj	_	_
129	ci	ci	_	PC	_	130	expl	_	_
130	sembrava	sembrare	_	V	_	127	acl:relcl	_	_
131	debole	debole	_	A	_	130	xcomp	_	_
132	e	e	_	CC	_	122	cc	_	_
133	ci	ci	_	PC	_	135	expl	_	_
134	siamo	essere	_	VA	_	135	aux	_	_
135	rilassati	rilassare	_	V	_	122	conj	_	_
136	.	[PUNCT]	_	FS	_	122	punct	_	_

137	Poi	poi	_	B	_	141	advmod	_	_
138	quando	quando	_	CS	_	141	mark	_	_
139	abbiamo	avere	_	VA	_	141	aux	_	_
140	dovuto	dovere	_	VM	_	141	aux	_	_
141	giocare	giocare	_	V	_	0	root	_	_
142	la	la	_	RD	_	143	det	_	_
143	partito	partito	_	S	_	141	dobj	_	_
144	abibiamo	abibiamo	_	V	_	143	acl	_	_
145	fatto	fare	_	V	_	143	acl	_	_
146	due	due	_	N	_	147	nummod	_	_
147	errori	errore	_	S	_	145	dobj	_	_
148	e	e	_	CC	_	141	cc	_	_
149	abbiamo	avere	_	VA	_	150	aux	_	_
150	perso	perdere	_	V	_	141	conj	_	_
151	la	la	_	RD	_	152	det	_	_
152	partita	partita	_	S	_	150	dobj	_	_
153	2-0	2-0	_	SP	_	152	nmod	_	_
154	.	[PUNCT]	_	FS	_	141	punct	_	_

155	E	e	_	CC	_	159	cc	_	_
156	da	da	_	E	_	159	mark	_	_
157	li	li	_	PC	_	159	dobj	_	_
158	ho	avere	_	VA	_	159	aux	_	_
159	imparato	imparare	_	V	_	0	root	_	_
160	a	a	_	E	_	162	mark	_	_
161	non	non	_	BN	_	162	neg	_	_
162	sottovalutare	sottovalutare	_	V	_	159	xcomp	_	_
163	gli	il	_	RD	_	164	det	_	_
164	altri	altri	_	PI	_	162	dobj	_	_
165	.	[PUNCT]	_	FS	_	159	punct	_	_

