1	Mia	Mia	_	CC	_	4	cc	_	_
2	mamma	mamma	_	S	_	4	nsubj	_	_
3	mi	mi	_	PC	_	4	dobj	_	_
4	diceva	dire	_	V	_	0	root	_	_
5	sempre	sempre	_	B	_	4	advmod	_	_
6	di	di	_	E	_	7	mark	_	_
7	pensare	pensare	_	V	_	4	xcomp	_	_
8	prima	prima	_	B	_	7	advmod	_	_
9	di	di	_	E	_	10	mark	_	_
10	agire	agire	_	V	_	7	xcomp	_	_
11	ma	ma	_	CC	_	10	cc	_	_
12	io	io	_	PE	_	15	nsubj	_	_
13	non	non	_	BN	_	15	neg	_	_
14	l'	l'	_	RD	_	15	det	_	_
15	ascoltavo	ascoltare	_	S	_	10	conj	_	_
16	mai	mai	_	B	_	15	advmod	_	_
17	.	[PUNCT]	_	FS	_	4	punct	_	_

18	Ma	ma	_	CC	_	21	cc	_	_
19	mia	mio	_	AP	_	20	det:poss	_	_
20	mamma	mamma	_	S	_	21	nsubj	_	_
21	continuava	continuare	_	V	_	0	root	_	_
22	a	a	_	E	_	23	mark	_	_
23	insistere	insistere	_	V	_	21	xcomp	_	_
24	anche	anche	_	B	_	25	advmod	_	_
25	se	se	_	CS	_	29	mark	_	_
26	io	io	_	PE	_	29	nsubj	_	_
27	non	non	_	BN	_	29	neg	_	_
28	la	la	_	PC	_	29	dobj	_	_
29	stavo	stare	_	V	_	23	advcl	_	_
30	ad'	ad'	_	CS	_	31	mark	_	_
31	ascoltare	ascoltare	_	V	_	29	advcl	_	_
32	.	[PUNCT]	_	FS	_	21	punct	_	_

33	Un	un	_	RI	_	34	det	_	_
34	giorno	giorno	_	S	_	36	nmod	_	_
35	mi	mi	_	PC	_	36	dobj	_	_
36	misi	mettere	_	V	_	0	root	_	_
37	a	a	_	E	_	38	mark	_	_
38	picchiare	picchiare	_	V	_	36	xcomp	_	_
39	un	un	_	RI	_	40	det	_	_
40	compagno	compagno	_	S	_	38	dobj	_	_
41	,	[PUNCT]	_	FF	_	36	punct	_	_
42	la	la	_	RD	_	43	det	_	_
43	maestra	maestra	_	S	_	45	nsubj	_	_
44	ci	ci	_	PC	_	45	expl	_	_
45	vidde	vidde	_	V	_	36	conj	_	_
46	e	e	_	CC	_	36	cc	_	_
47	a	a	_	E	_	49	case	_	_
48	quel	quello	_	DD	_	49	det	_	_
49	punto	punto	_	S	_	51	nmod	_	_
50	mi	mi	_	PC	_	51	expl	_	_
51	ricordai	ricordare	_	V	_	36	conj	_	_
52	di	di	_	E	_	53	case	_	_
53	quello	quello	_	PD	_	51	nmod	_	_
54	che	che	_	PR	_	58	nsubjpass	_	_
55	mi	mi	_	PC	_	58	iobj	_	_
56	era	essere	_	VA	_	58	aux	_	_
57	stato	essere	_	VA	_	58	auxpass	_	_
58	detto	dettare	_	V	_	53	acl:relcl	_	_
59	da	da	_	E	_	61	case	_	_
60	mia	mio	_	AP	_	61	det:poss	_	_
61	mamma	mamma	_	S	_	58	nmod	_	_
62	e	e	_	CC	_	58	cc	_	_
63	smisi	smettere	_	S	_	58	conj	_	_
64	di	di	_	E	_	65	mark	_	_
65	picchiarlo	picchiare	_	V+PC	_	63	acl	_	_
66	ma	ma	_	CC	_	36	cc	_	_
67	ho	avere	_	VA	_	68	aux	_	_
68	penzato	penzato	_	V	_	36	conj	_	_
69	troppo	troppo	_	B	_	68	advmod	_	_
70	tardi	tardi	_	B	_	68	advmod	_	_
71	ricordando	ricordare	_	V	_	36	advcl	_	_
72	a	a	_	E	_	73	case	_	_
73	quello	quello	_	PD	_	71	nmod	_	_
74	che	che	_	PR	_	78	nsubjpass	_	_
75	mi	mi	_	PC	_	78	iobj	_	_
76	è	essere	_	VA	_	78	aux	_	_
77	stato	essere	_	VA	_	78	auxpass	_	_
78	consigliato	consigliare	_	V	_	73	acl:relcl	_	_
79	di	di	_	E	_	80	mark	_	_
80	fare	fare	_	V	_	78	xcomp	_	_
81	.	[PUNCT]	_	FS	_	36	punct	_	_

82	Li	li	_	PC	_	84	dobj	_	_
83	mi	mi	_	PC	_	84	iobj	_	_
84	pentii	pentire	_	V	_	0	root	_	_
85	di	di	_	E	_	88	mark	_	_
86	non	non	_	BN	_	88	neg	_	_
87	aver	avere	_	VA	_	88	aux	_	_
88	ascoltato	ascoltare	_	V	_	84	advcl	_	_
89	mia	mio	_	AP	_	90	det:poss	_	_
90	mamma	mamma	_	S	_	88	dobj	_	_
91	e	e	_	CC	_	88	cc	_	_
92	di	di	_	E	_	94	case	_	_
93	non	non	_	BN	_	94	neg	_	_
94	essermene	essermene	_	VA+PC	_	88	conj	_	_
95	reso	rendere	_	V	_	94	acl	_	_
96	conto	conto	_	S	_	95	dobj	_	_
97	prima	prima	_	B	_	99	mark	_	_
98	del	del	_	E+RD	_	97	mwe	_	_
99	sigificato	sigificato	_	V	_	95	advcl	_	_
100	di	di	_	E	_	102	case	_	_
101	questa	questo	_	DD	_	102	det	_	_
102	frase	frase	_	S	_	99	nmod	_	_
103	.	[PUNCT]	_	FS	_	84	punct	_	_

104	Se	se	_	CS	_	106	mark	_	_
105	avessi	avere	_	VA	_	106	aux	_	_
106	ascoltato	ascoltare	_	V	_	115	advcl	_	_
107	fin	fin	_	B	_	106	advmod	_	_
108	dall'	dall'	_	E+RD	_	109	case	_	_
109	inizio	inizio	_	S	_	107	nmod	_	_
110	mia	mio	_	AP	_	111	det:poss	_	_
111	mamma	mamma	_	S	_	109	nmod	_	_
112	non	non	_	BN	_	115	neg	_	_
113	avrei	avere	_	VA	_	115	aux	_	_
114	dovuto	dovere	_	VM	_	115	aux	_	_
115	portare	portare	_	V	_	0	root	_	_
116	a	a	_	E	_	117	case	_	_
117	casa	casa	_	S	_	115	nmod	_	_
118	il	il	_	RD	_	119	det	_	_
119	diario	diario	_	S	_	115	dobj	_	_
120	da	da	_	E	_	121	mark	_	_
121	firmare	firmare	_	V	_	119	acl	_	_
122	,	[PUNCT]	_	FF	_	115	punct	_	_
123	non	non	_	BN	_	127	neg	_	_
124	avrei	avere	_	VA	_	127	aux	_	_
125	neanche	neanche	_	BN	_	127	neg	_	_
126	la	la	_	RD	_	127	det	_	_
127	mamma	mamma	_	S	_	115	conj	_	_
128	arrabiata	arrabiata	_	V	_	127	acl	_	_
129	con	con	_	E	_	130	case	_	_
130	me	me	_	PE	_	128	nmod	_	_
131	per	per	_	E	_	133	mark	_	_
132	non	non	_	BN	_	133	neg	_	_
133	avere	avere	_	V	_	128	advcl	_	_
134	mai	mai	_	B	_	135	advmod	_	_
135	ascoltato	ascoltare	_	V	_	133	advcl	_	_
136	quando	quando	_	CS	_	137	mark	_	_
137	cercava	cercare	_	V	_	135	advcl	_	_
138	di	di	_	E	_	139	mark	_	_
139	aiutarmi	aiutare	_	V+PC	_	137	xcomp	_	_
140	per	per	_	E	_	141	mark	_	_
141	andare	andare	_	V	_	139	advcl	_	_
142	avanti	avanti	_	B	_	141	advmod	_	_
143	bene	bene	_	B	_	141	advmod	_	_
144	con	con	_	E	_	146	case	_	_
145	la	la	_	RD	_	146	det	_	_
146	scuola	scuola	_	S	_	141	nmod	_	_
147	ed'	ed'	_	CS	_	149	mark	_	_
148	essere	essere	_	VA	_	149	auxpass	_	_
149	promosso	promuovere	_	V	_	141	advcl	_	_
150	.	[PUNCT]	_	FS	_	115	punct	_	_

151	Se	se	_	CS	_	153	mark	_	_
152	avessi	avere	_	VA	_	153	aux	_	_
153	ascoltato	ascoltare	_	V	_	0	root	_	_
154	un	un	_	RI	_	155	det	_	_
155	po'	po'	_	B	_	153	advmod	_	_
156	di	di	_	E	_	157	case	_	_
157	più	più	_	B	_	155	advmod	_	_
158	non	non	_	BN	_	159	neg	_	_
159	avrei	avere	_	VA	_	153	dobj	_	_
160	il	il	_	RD	_	161	det	_	_
161	diari	diario	_	S	_	159	nsubj	_	_
162	da	da	_	E	_	163	mark	_	_
163	firmare	firmare	_	V	_	161	acl	_	_
164	e	e	_	CC	_	161	cc	_	_
165	neanche	neanche	_	BN	_	167	neg	_	_
166	una	una	_	RI	_	167	det	_	_
167	mamma	mamma	_	S	_	161	conj	_	_
168	arrabiato	arrabiato	_	V	_	167	acl	_	_
169	con	con	_	E	_	170	case	_	_
170	me	me	_	PE	_	168	nmod	_	_
171	e	e	_	CC	_	161	cc	_	_
172	una	una	_	RI	_	173	det	_	_
173	nota	nota	_	S	_	161	conj	_	_
174	minore	minore	_	A	_	173	amod	_	_
175	nel	nel	_	E+RD	_	176	case	_	_
176	libretto	libretto	_	S	_	173	nmod	_	_
177	scolastico	scolastico	_	A	_	176	amod	_	_
178	(	[PUNCT]	_	FB	_	180	punct	_	_
179	in	in	_	E	_	180	case	_	_
180	condotta	condotta	_	S	_	161	nmod	_	_
181	)	[PUNCT]	_	FB	_	180	punct	_	_
182	.	[PUNCT]	_	FS	_	153	punct	_	_

183	Morale	morale	_	S	_	0	root	_	_
184	della	della	_	E+RD	_	185	case	_	_
185	storia	storia	_	S	_	183	nmod	_	_
186	:	[PUNCT]	_	FC	_	183	punct	_	_
187	Ascoltate	ascoltare	_	V	_	183	acl	_	_
188	sempre	sempre	_	B	_	187	advmod	_	_
189	i	il	_	RD	_	191	det	_	_
190	vostri	vostro	_	AP	_	191	det:poss	_	_
191	genitori	genitore	_	S	_	187	dobj	_	_
192	.	[PUNCT]	_	FS	_	183	punct	_	_

