1	Il	il	_	RD	_	2	det	_	_
2	canarino	canarino	_	S	_	7	nsubj	_	_
3	sparito	sparire	_	V	_	2	acl	_	_
4	Un	un	_	RI	_	5	det	_	_
5	giorno	giorno	_	S	_	6	nmod	_	_
6	stavo	stare	_	V	_	3	xcomp	_	_
7	guardando	guardare	_	V	_	0	root	_	_
8	un	un	_	RI	_	9	det	_	_
9	canarino	canarino	_	S	_	11	nsubj	_	_
10	mi	mi	_	PC	_	11	iobj	_	_
11	piaceva	piacere	_	V	_	7	advcl	_	_
12	tantissimo	tanto	_	A	_	11	xcomp	_	_
13	,	[PUNCT]	_	FF	_	11	punct	_	_
14	e	e	_	CC	_	11	cc	_	_
15	mi	mi	_	PC	_	16	expl	_	_
16	venisse	venire	_	V	_	11	conj	_	_
17	voglia	voglia	_	S	_	16	dobj	_	_
18	di	di	_	E	_	19	mark	_	_
19	aprire	aprire	_	V	_	17	acl	_	_
20	la	la	_	RD	_	21	det	_	_
21	gabbia	gabbia	_	S	_	19	dobj	_	_
22	e	e	_	CC	_	19	cc	_	_
23	di	di	_	E	_	24	mark	_	_
24	farlo	fare	_	V+PC	_	19	conj	_	_
25	volare	volare	_	V	_	24	xcomp	_	_
26	per	per	_	E	_	27	case	_	_
27	casa	casa	_	S	_	25	nmod	_	_
28	e	e	_	CC	_	25	cc	_	_
29	lo	il	_	RD	_	30	det	_	_
30	feci	fece	_	S	_	25	conj	_	_
31	volare	volare	_	V	_	30	acl	_	_
32	ma	ma	_	CC	_	11	cc	_	_
33	non	non	_	BN	_	35	neg	_	_
34	mi	mi	_	PC	_	35	iobj	_	_
35	accorsi	accorgere	_	V	_	11	conj	_	_
36	della	della	_	E+RD	_	37	case	_	_
37	finestra	finestra	_	S	_	35	nmod	_	_
38	aperta	aperto	_	A	_	37	amod	_	_
39	e	e	_	CC	_	11	cc	_	_
40	il	il	_	RD	_	41	det	_	_
41	canarino	canarino	_	S	_	11	conj	_	_
42	scappó	scappó	_	A	_	41	amod	_	_
43	,	[PUNCT]	_	FF	_	41	punct	_	_
44	io	io	_	PE	_	46	nsubj	_	_
45	lo	lo	_	PC	_	46	dobj	_	_
46	cercai	cercare	_	V	_	41	conj	_	_
47	d'	da	_	E	_	48	case	_	_
48	appertutto	appertutto	_	VA+PC	_	55	advmod	_	_
49	persino	persino	_	B	_	48	advmod	_	_
50	sotto	sotto	_	E	_	52	case	_	_
51	il	il	_	RD	_	52	det	_	_
52	divano	divano	_	V	_	55	nmod	_	_
53	poi	poi	_	B	_	52	advmod	_	_
54	mi	mi	_	PC	_	55	iobj	_	_
55	accorsi	accorgere	_	V	_	46	advcl	_	_
56	che	che	_	CS	_	60	mark	_	_
57	la	la	_	RD	_	58	det	_	_
58	finestra	finestra	_	S	_	60	nsubj	_	_
59	era	essere	_	V	_	60	cop	_	_
60	aperta	aperto	_	A	_	55	ccomp	_	_
61	e	e	_	CC	_	11	cc	_	_
62	il	il	_	RD	_	63	det	_	_
63	canarino	canarino	_	S	_	64	nsubj	_	_
64	era	essere	_	V	_	11	conj	_	_
65	sul	sul	_	E+RD	_	66	case	_	_
66	balcone	balcone	_	S	_	64	nmod	_	_
67	lo	lo	_	PC	_	68	dobj	_	_
68	presi	prendere	_	V	_	64	xcomp	_	_
69	e	e	_	CC	_	68	cc	_	_
70	lo	il	_	RD	_	71	det	_	_
71	portai	portare	_	S	_	68	conj	_	_
72	in	in	_	E	_	73	case	_	_
73	casa	casa	_	S	_	71	nmod	_	_
74	e	e	_	CC	_	68	cc	_	_
75	lo	lo	_	PC	_	76	dobj	_	_
76	messi	mettere	_	V	_	68	conj	_	_
77	nella	nella	_	E+RD	_	78	case	_	_
78	gabbia	gabbia	_	S	_	76	nmod	_	_
79	e	e	_	CC	_	68	cc	_	_
80	lo	lo	_	PC	_	81	dobj	_	_
81	continuai	continuare	_	V	_	68	conj	_	_
82	a	a	_	E	_	83	mark	_	_
83	guardare	guardare	_	V	_	81	xcomp	_	_
84	.	[PUNCT]	_	FS	_	7	punct	_	_

85	Questa	questo	_	DD	_	86	det	_	_
86	storia	storia	_	S	_	0	root	_	_
87	mi	mi	_	PC	_	89	iobj	_	_
88	a	a	_	E	_	89	mark	_	_
89	insegnato	insegnare	_	V	_	86	acl	_	_
90	che	che	_	CS	_	93	mark	_	_
91	non	non	_	BN	_	93	neg	_	_
92	devo	dovere	_	VM	_	93	punct	_	_
93	voler	volere	_	VM	_	89	ccomp	_	_
94	sempre	sempre	_	B	_	96	advmod	_	_
95	le	la	_	RD	_	96	det	_	_
96	cose	cosa	_	S	_	93	nsubj	_	_
97	o	o	_	CC	_	96	cc	_	_
98	farle	fare	_	V+PC	_	96	conj	_	_
99	ma	ma	_	CC	_	96	cc	_	_
100	basta	bastare	_	V	_	96	conj	_	_
101	anche	anche	_	B	_	103	advmod	_	_
102	solo	solo	_	B	_	103	advmod	_	_
103	stare	stare	_	V	_	100	ccomp	_	_
104	a	a	_	E	_	105	mark	_	_
105	guardare	guardare	_	V	_	103	xcomp	_	_
106	.	[PUNCT]	_	FS	_	93	punct	_	_

