1	L'	l'	_	RD	_	2	det	_	_
2	avventura	avventura	_	S	_	7	nsubj	_	_
3	sul	sul	_	E+RD	_	4	case	_	_
4	treno	treno	_	S	_	2	nmod	_	_
5	Una	una	_	RI	_	6	det	_	_
6	volta	volta	_	S	_	7	nmod	_	_
7	stavamo	stare	_	V	_	0	root	_	_
8	andando	andare	_	V	_	7	advcl	_	_
9	in	in	_	E	_	10	case	_	_
10	treno	treno	_	S	_	8	nmod	_	_
11	(	[PUNCT]	_	FB	_	14	punct	_	_
12	non	non	_	BN	_	14	neg	_	_
13	era	essere	_	V	_	14	cop	_	_
14	sporco	sporco	_	A	_	8	xcomp	_	_
15	ma	ma	_	CC	_	14	cc	_	_
16	neanche	neanche	_	BN	_	17	neg	_	_
17	pulito	pulire	_	V	_	14	conj	_	_
18	)	[PUNCT]	_	FB	_	14	punct	_	_
19	per	per	_	E	_	21	case	_	_
20	le	la	_	RD	_	21	det	_	_
21	vacanze	vacanza	_	S	_	8	nmod	_	_
22	estive	estivo	_	A	_	21	amod	_	_
23	.	[PUNCT]	_	FS	_	7	punct	_	_

24	Il	il	_	RD	_	25	det	_	_
25	mezzo	mezzo	_	S	_	27	nsubj	_	_
26	era	essere	_	V	_	27	cop	_	_
27	pieno	pieno	_	A	_	0	root	_	_
28	di	di	_	E	_	29	case	_	_
29	persone	persona	_	S	_	27	nmod	_	_
30	un	un	_	RI	_	31	det	_	_
31	po'	po'	_	B	_	32	advmod	_	_
32	strane	strano	_	A	_	27	amod	_	_
33	.	[PUNCT]	_	FS	_	27	punct	_	_

34	Sul	sul	_	E+RD	_	35	case	_	_
35	treno	treno	_	S	_	37	nmod	_	_
36	c'	c'	_	PC	_	37	expl	_	_
37	erano	essere	_	V	_	0	root	_	_
38	anche	anche	_	B	_	40	advmod	_	_
39	tante	tanto	_	DI	_	40	det	_	_
40	persone	persona	_	S	_	37	nsubj	_	_
41	anziane	anziano	_	A	_	40	amod	_	_
42	che	che	_	PR	_	43	nsubj	_	_
43	stavano	stare	_	VA	_	40	acl:relcl	_	_
44	in	in	_	E	_	45	case	_	_
45	piedi	piede	_	S	_	43	nmod	_	_
46	.	[PUNCT]	_	FS	_	43	punct	_	_

47	Noi	noi	_	PE	_	49	nsubj	_	_
48	ci	ci	_	PC	_	49	expl	_	_
49	sedemmo	sedere	_	V	_	0	root	_	_
50	educatamente	educatamente	_	B	_	49	advmod	_	_
51	al	al	_	E+RD	_	53	case	_	_
52	nostro	nostro	_	AP	_	53	det:poss	_	_
53	posto	posto	_	S	_	49	nmod	_	_
54	per	per	_	E	_	56	case	_	_
55	il	il	_	RD	_	56	det	_	_
56	lungo	lungo	_	S	_	57	nmod	_	_
57	viaggio	viaggio	_	S	_	49	nmod	_	_
58	.	[PUNCT]	_	FS	_	49	punct	_	_

59	Dopo	dopo	_	E	_	63	case	_	_
60	un	un	_	RI	_	63	det	_	_
61	po'	po'	_	B	_	63	advmod	_	_
62	mia	mio	_	AP	_	63	det:poss	_	_
63	mamma	mamma	_	S	_	64	nmod	_	_
64	chiese	chiedere	_	V	_	0	root	_	_
65	gentilmente	gentilmente	_	B	_	64	advmod	_	_
66	ad	ad	_	E	_	68	case	_	_
67	una	una	_	RI	_	68	det	_	_
68	signora	signora	_	S	_	64	nmod	_	_
69	anziana	anziano	_	A	_	68	amod	_	_
70	se	se	_	CS	_	72	mark	_	_
71	voleva	volere	_	VM	_	72	aux	_	_
72	sedersi	sedere	_	V+PC	_	64	ccomp	_	_
73	al	al	_	E+RD	_	75	case	_	_
74	suo	suo	_	AP	_	75	det:poss	_	_
75	posto	posto	_	S	_	72	nmod	_	_
76	perché	perché	_	CS	_	80	mark	_	_
77	lei	lei	_	PE	_	80	nsubj	_	_
78	poteva	potere	_	VM	_	80	aux	_	_
79	tranquillamente	tranquillamente	_	B	_	80	advmod	_	_
80	stare	stare	_	V	_	72	advcl	_	_
81	anche	anche	_	B	_	80	advmod	_	_
82	in	in	_	E	_	83	case	_	_
83	piedi	piede	_	S	_	80	nmod	_	_
84	.	[PUNCT]	_	FS	_	64	punct	_	_

85	La	la	_	RD	_	87	det	_	_
86	anziana	anziano	_	A	_	87	amod	_	_
87	signora	signora	_	S	_	89	nsubj	_	_
88	si	si	_	PC	_	89	expl	_	_
89	sedette	sedere	_	V	_	0	root	_	_
90	e	e	_	CC	_	89	cc	_	_
91	la	la	_	RD	_	94	det	_	_
92	mia	mio	_	AP	_	94	det:poss	_	_
93	gentile	gentile	_	A	_	94	amod	_	_
94	mamma	mamma	_	S	_	95	nsubj	_	_
95	trovò	trovare	_	V	_	89	conj	_	_
96	un	un	_	RI	_	98	det	_	_
97	altro	altro	_	A	_	98	amod	_	_
98	posto	posto	_	S	_	95	dobj	_	_
99	più	più	_	B	_	101	advmod	_	_
100	in	in	_	E	_	101	case	_	_
101	giù	giù	_	B	_	98	advmod	_	_
102	.	[PUNCT]	_	FS	_	89	punct	_	_

103	Quando	quando	_	CS	_	105	mark	_	_
104	siamo	essere	_	VA	_	105	aux	_	_
105	saliti	salire	_	V	_	111	advcl	_	_
106	sul	sul	_	E+RD	_	107	case	_	_
107	treno	treno	_	S	_	105	nmod	_	_
108	in	in	_	E	_	109	case	_	_
109	effetti	effetto	_	S	_	105	nmod	_	_
110	c'	c'	_	PC	_	111	expl	_	_
111	erano	essere	_	V	_	0	root	_	_
112	molte	molto	_	DI	_	113	det	_	_
113	persone	persona	_	S	_	114	nsubj	_	_
114	invadenti	invadere	_	V	_	111	ccomp	_	_
115	che	che	_	PR	_	116	nsubj	_	_
116	spingevano	spingere	_	V	_	114	ccomp	_	_
117	molto	molto	_	B	_	118	advmod	_	_
118	forte	forte	_	B	_	116	advmod	_	_
119	per	per	_	E	_	120	mark	_	_
120	prendere	prendere	_	V	_	116	advcl	_	_
121	un	un	_	RI	_	122	det	_	_
122	posto	posto	_	S	_	120	dobj	_	_
123	per	per	_	E	_	124	mark	_	_
124	sedersi	sedere	_	V+PC	_	120	advcl	_	_
125	.	[PUNCT]	_	FS	_	111	punct	_	_

126	Da	da	_	E	_	128	case	_	_
127	quel	quello	_	DD	_	128	det	_	_
128	momento	momento	_	S	_	130	nmod	_	_
129	ho	avere	_	VA	_	130	aux	_	_
130	capito	capire	_	V	_	0	root	_	_
131	che	che	_	CS	_	133	mark	_	_
132	essere	essere	_	VA	_	133	auxpass	_	_
133	invadenti	invadere	_	V	_	130	ccomp	_	_
134	e	e	_	CC	_	133	cc	_	_
135	spingere	spingere	_	V	_	137	advcl	_	_
136	non	non	_	BN	_	137	neg	_	_
137	serve	servire	_	V	_	133	conj	_	_
138	proprio	proprio	_	B	_	137	advmod	_	_
139	a	a	_	E	_	140	case	_	_
140	niente	niente	_	PI	_	137	nmod	_	_
141	!	[PUNCT]	_	FS	_	130	punct	_	_

142	Ma	ma	_	CC	_	0	root	_	_
143	essere	essere	_	V	_	144	cop	_	_
144	gentili	gentile	_	A	_	142	ccomp	_	_
145	è	essere	_	V	_	144	cop	_	_
146	molto	molto	_	B	_	147	advmod	_	_
147	meglio	meglio	_	B	_	144	advmod	_	_
148	!	[PUNCT]	_	FS	_	142	punct	_	_

149	!	[PUNCT]	_	FS	_	0	root	_	_

