1	Quando	quando	_	B	_	4	advmod	_	_
2	avevo	avere	_	VA	_	4	aux	_	_
3	sette	sette	_	N	_	4	nummod	_	_
4	anni	anno	_	S	_	0	root	_	_
5	,	[PUNCT]	_	FF	_	4	punct	_	_
6	avevo	avere	_	V	_	4	advcl	_	_
7	una	una	_	RI	_	8	det	_	_
8	amica	amica	_	S	_	6	dobj	_	_
9	,	[PUNCT]	_	FF	_	8	punct	_	_
10	Luisa	Luisa	_	SP	_	8	conj	_	_
11	:	[PUNCT]	_	FC	_	8	punct	_	_
12	comprensibile	comprensibile	_	A	_	8	amod	_	_
13	,	[PUNCT]	_	FF	_	12	punct	_	_
14	inteligente	inteligente	_	A	_	12	conj	_	_
15	,	[PUNCT]	_	FF	_	12	punct	_	_
16	amichevole	amichevole	_	S	_	12	conj	_	_
17	,	[PUNCT]	_	FF	_	12	punct	_	_
18	(	[PUNCT]	_	FB	_	19	punct	_	_
19	credo	credere	_	V	_	12	parataxis	_	_
20	niente	niente	_	PI	_	19	ccomp	_	_
21	di	di	_	E	_	22	case	_	_
22	negativo	negativo	_	A	_	20	nmod	_	_
23	)	[PUNCT]	_	FB	_	22	punct	_	_
24	.	[PUNCT]	_	FS	_	4	punct	_	_

25	Un	un	_	RI	_	26	det	_	_
26	giorno	giorno	_	S	_	30	nmod	_	_
27	in	in	_	E	_	28	case	_	_
28	estate	estate	_	S	_	26	nmod	_	_
29	abbiamo	avere	_	VA	_	30	aux	_	_
30	litigato	litigare	_	V	_	0	root	_	_
31	non	non	_	BN	_	34	neg	_	_
32	ci	ci	_	PC	_	34	expl	_	_
33	siamo	essere	_	VA	_	34	aux	_	_
34	viste	vista	_	V	_	30	ccomp	_	_
35	per	per	_	E	_	37	case	_	_
36	cinque	cinque	_	N	_	37	nummod	_	_
37	giorni	giorno	_	S	_	34	nmod	_	_
38	.	[PUNCT]	_	FS	_	30	punct	_	_

39	Dopo	dopo	_	E	_	42	case	_	_
40	questi	questo	_	DD	_	42	det	_	_
41	cinque	cinque	_	N	_	42	nummod	_	_
42	giorni	giorno	_	S	_	0	root	_	_
43	fui	essere	_	B	_	42	advmod	_	_
44	a	a	_	E	_	45	mark	_	_
45	trovarla	trovare	_	V+PC	_	42	acl	_	_
46	a	a	_	E	_	47	case	_	_
47	casa	casa	_	S	_	45	nmod	_	_
48	ma	ma	_	CC	_	45	cc	_	_
49	non	non	_	BN	_	51	neg	_	_
50	voleva	volere	_	VM	_	51	aux	_	_
51	parlare	parlare	_	V	_	45	conj	_	_
52	e	e	_	CC	_	51	cc	_	_
53	neanche	neanche	_	BN	_	54	neg	_	_
54	vedermi	vedere	_	V+PC	_	51	conj	_	_
55	.	[PUNCT]	_	FS	_	42	punct	_	_

56	Questo	questo	_	PD	_	58	nsubj	_	_
57	mi	mi	_	PC	_	58	dobj	_	_
58	faceva	fare	_	V	_	0	root	_	_
59	sentire	sentire	_	V	_	58	xcomp	_	_
60	molto	molto	_	B	_	61	advmod	_	_
61	male	male	_	B	_	59	advmod	_	_
62	.	[PUNCT]	_	FS	_	58	punct	_	_

63	Il	il	_	RD	_	64	det	_	_
64	giorno	giorno	_	S	_	78	nmod	_	_
65	dopo	dopo	_	B	_	64	advmod	_	_
66	lo	il	_	RD	_	67	det	_	_
67	vista	vista	_	S	_	78	nsubj	_	_
68	al	al	_	E+RD	_	69	case	_	_
69	parco	parco	_	S	_	67	nmod	_	_
70	sotto	sotto	_	E	_	71	case	_	_
71	casa	casa	_	S	_	67	nmod	_	_
72	mia	mio	_	AP	_	71	det:poss	_	_
73	,	[PUNCT]	_	FF	_	67	punct	_	_
74	quel	quello	_	DD	_	75	det	_	_
75	giorno	giorno	_	S	_	78	dobj	_	_
76	non	non	_	BN	_	78	neg	_	_
77	la	la	_	PC	_	78	dobj	_	_
78	vedevo	vedere	_	V	_	0	root	_	_
79	come	come	_	E	_	82	mark	_	_
80	sempre	sempre	_	B	_	82	advmod	_	_
81	era	essere	_	V	_	82	cop	_	_
82	triste	triste	_	A	_	78	advcl	_	_
83	molto	molto	_	B	_	84	advmod	_	_
84	triste	triste	_	A	_	82	amod	_	_
85	.	[PUNCT]	_	FS	_	78	punct	_	_

86	Sono	essere	_	VA	_	87	aux	_	_
87	andata	andare	_	V	_	0	root	_	_
88	al	al	_	E+RD	_	89	case	_	_
89	parco	parco	_	S	_	87	nmod	_	_
90	e	e	_	CC	_	87	cc	_	_
91	gli	il	_	RD	_	92	det	_	_
92	chiesi	chiedere	_	S	_	93	nsubj	_	_
93	scusa	scusare	_	V	_	87	conj	_	_
94	anche	anche	_	B	_	95	advmod	_	_
95	Luisa	Luisa	_	SP	_	93	dobj	_	_
96	si	si	_	PC	_	97	expl	_	_
97	scusó	scusó	_	V	_	93	nmod	_	_
98	.	[PUNCT]	_	FS	_	87	punct	_	_

99	Diventammo	diventare	_	V	_	0	root	_	_
100	dinuovo	dinuovo	_	S	_	99	dobj	_	_
101	amiche	amico	_	A	_	100	amod	_	_
102	.	[PUNCT]	_	FS	_	99	punct	_	_

103	Lei	lei	_	PE	_	105	nsubj	_	_
104	mi	mi	_	PC	_	105	iobj	_	_
105	disse	dire	_	V	_	0	root	_	_
106	:	[PUNCT]	_	FC	_	105	punct	_	_
107	Mi	mi	_	PC	_	109	expl	_	_
108	devo	dovere	_	VM	_	109	aux	_	_
109	trasferire	trasferire	_	V	_	105	conj	_	_
110	in	in	_	E	_	111	case	_	_
111	Spagna	Spagna	_	SP	_	109	nmod	_	_
112	!	[PUNCT]	_	FS	_	105	punct	_	_

113	–	–	_	FF	_	118	punct	_	_
114	Perché	perché	_	B	_	118	advmod	_	_
115	suo	suo	_	AP	_	116	det:poss	_	_
116	papà	papà	_	S	_	118	nsubj	_	_
117	aveva	avere	_	VA	_	118	aux	_	_
118	trovato	trovare	_	V	_	0	root	_	_
119	un	un	_	RI	_	120	det	_	_
120	lavoro	lavoro	_	S	_	118	dobj	_	_
121	lì	lì	_	B	_	118	advmod	_	_
122	.	[PUNCT]	_	FS	_	118	punct	_	_

123	Partiva	partire	_	V	_	0	root	_	_
124	fine	fine	_	A	_	125	amod	_	_
125	lulio	lulio	_	S	_	123	dobj	_	_
126	.	[PUNCT]	_	FS	_	123	punct	_	_

127	Mancava	mancare	_	V	_	0	root	_	_
128	poco	poco	_	B	_	127	advmod	_	_
129	la	la	_	RD	_	130	det	_	_
130	fine	fine	_	S	_	127	dobj	_	_
131	di	di	_	E	_	132	case	_	_
132	lulio	lulio	_	S	_	130	nmod	_	_
133	.	[PUNCT]	_	FS	_	127	punct	_	_

134	Quando	quando	_	CS	_	136	mark	_	_
135	era	essere	_	VA	_	136	aux	_	_
136	partita	partire	_	V	_	138	advcl	_	_
137	ho	avere	_	VA	_	138	aux	_	_
138	pensato	pensare	_	V	_	0	root	_	_
139	a	a	_	E	_	142	case	_	_
140	tutte	tutto	_	T	_	142	det:predet	_	_
141	le	la	_	RD	_	142	det	_	_
142	cose	cosa	_	S	_	138	nmod	_	_
143	belle	bello	_	A	_	142	amod	_	_
144	che	che	_	PR	_	146	nsubj	_	_
145	abbiamo	avere	_	VA	_	146	aux	_	_
146	fatto	fare	_	V	_	142	acl:relcl	_	_
147	insieme	insieme	_	S	_	146	dobj	_	_
148	tipo	tipo	_	E	_	146	advcl	_	_
149	:	[PUNCT]	_	FC	_	138	punct	_	_
150	quando	quando	_	CS	_	151	mark	_	_
151	andavamo	andare	_	VA	_	138	advcl	_	_
152	sull'	sull'	_	E+RD	_	153	case	_	_
153	altalena	altalena	_	S	_	151	nmod	_	_
154	,	[PUNCT]	_	FF	_	151	punct	_	_
155	quando	quando	_	CS	_	156	mark	_	_
156	facevamo	fare	_	V	_	167	advcl	_	_
157	i	il	_	RD	_	158	det	_	_
158	castelli	castello	_	S	_	156	dobj	_	_
159	di	di	_	E	_	160	case	_	_
160	sabbia	sabbia	_	S	_	158	nmod	_	_
161	in	in	_	E	_	162	case	_	_
162	spiaggia	spiaggia	_	S	_	156	nmod	_	_
163	,	[PUNCT]	_	FF	_	156	punct	_	_
164	…	…	_	FF	_	156	punct	_	_
165	Ancora	ancora	_	B	_	166	advmod	_	_
166	oggi	oggi	_	B	_	167	advmod	_	_
167	penso	pensare	_	V	_	151	parataxis	_	_
168	sará	sará	_	S	_	167	nsubj	_	_
169	piú	più	_	A	_	168	amod	_	_
170	alta	alto	_	A	_	168	amod	_	_
171	di	di	_	E	_	172	case	_	_
172	me	me	_	PE	_	168	nmod	_	_
173	o	o	_	CC	_	172	cc	_	_
174	piú	più	_	S	_	172	conj	_	_
175	bassa	basso	_	A	_	174	amod	_	_
176	.	[PUNCT]	_	FS	_	151	punct	_	_

177	Non	non	_	BN	_	179	neg	_	_
178	ho	avere	_	VA	_	179	aux	_	_
179	sentito	sentire	_	V	_	0	root	_	_
180	piú	più	_	A	_	181	amod	_	_
181	niente	niente	_	PI	_	179	dobj	_	_
182	di	di	_	E	_	183	case	_	_
183	lei	lei	_	PE	_	181	nmod	_	_
184	da	da	_	E	_	185	case	_	_
185	quando	quando	_	CS	_	187	mark	_	_
186	era	essere	_	VA	_	187	aux	_	_
187	partita	partire	_	V	_	179	advcl	_	_
188	.	[PUNCT]	_	FS	_	179	punct	_	_

189	É	essere	_	V	_	190	cop	_	_
190	vero	vero	_	A	_	0	root	_	_
191	che	che	_	PR	_	193	nsubj	_	_
192	ti	ti	_	PC	_	193	expl	_	_
193	accorggi	accorggi	_	V	_	190	csubj	_	_
194	quanto	quanto	_	B	_	193	advmod	_	_
195	una	una	_	RI	_	196	det	_	_
196	persona	persona	_	S	_	201	nsubj	_	_
197	o	o	_	CC	_	196	cc	_	_
198	una	una	_	RI	_	199	det	_	_
199	cosa	cosa	_	S	_	196	conj	_	_
200	è	essere	_	V	_	201	cop	_	_
201	importante	importante	_	A	_	193	conj	_	_
202	quando	quando	_	CS	_	205	mark	_	_
203	non	non	_	BN	_	205	neg	_	_
204	c'	c'	_	PC	_	205	expl	_	_
205	é	essere	_	V	_	201	advcl	_	_
206	l'	l'	_	RD	_	208	det	_	_
207	ai	al	_	E+RD	_	208	case	_	_
208	piú	più	_	S	_	205	nmod	_	_
209	.	[PUNCT]	_	FS	_	190	punct	_	_

