1	Sono	essere	_	V	_	2	cop	_	_
2	sincera	sincero	_	A	_	0	root	_	_
3	:	[PUNCT]	_	FC	_	2	punct	_	_
4	non	non	_	BN	_	5	neg	_	_
5	sono	essere	_	VA	_	2	conj	_	_
6	ben	ben	_	B	_	8	advmod	_	_
7	in	in	_	E	_	8	case	_	_
8	chiaro	chiaro	_	A	_	5	nmod	_	_
9	su	su	_	E	_	10	case	_	_
10	cosa	cosa	_	PQ	_	11	nmod	_	_
11	scrivere	scrivere	_	V	_	8	ccomp	_	_
12	!	[PUNCT]	_	FS	_	2	punct	_	_

13	!	[PUNCT]	_	FS	_	0	root	_	_

14	!	[PUNCT]	_	FS	_	0	root	_	_

15	Però	però	_	CC	_	22	cc	_	_
16	ora	ora	_	B	_	22	advmod	_	_
17	che	che	_	CS	_	19	mark	_	_
18	ci	ci	_	PC	_	19	iobj	_	_
19	penso	pensare	_	V	_	22	advcl	_	_
20	mi	mi	_	PC	_	22	iobj	_	_
21	è	essere	_	VA	_	22	aux	_	_
22	venuta	venire	_	V	_	0	root	_	_
23	un'	un'	_	RI	_	24	det	_	_
24	idea	idea	_	S	_	22	nsubj	_	_
25	…	…	_	FF	_	22	punct	_	_
26	Vi	vi	_	PC	_	27	iobj	_	_
27	piace	piacere	_	V	_	22	parataxis	_	_
28	pattinare	pattinare	_	V	_	27	xcomp	_	_
29	?	[PUNCT]	_	FS	_	22	punct	_	_

30	Se	se	_	CS	_	32	mark	_	_
31	si	si	_	PC	_	32	expl	_	_
32	continuate	continuare	_	V	_	0	root	_	_
33	a	a	_	E	_	34	mark	_	_
34	leggere	leggere	_	V	_	32	xcomp	_	_
35	se	se	_	CS	_	38	mark	_	_
36	è	essere	_	VA	_	38	auxpass	_	_
37	no	no	_	BN	_	38	neg	_	_
38	leggetelo	leggere	_	S	_	32	nmod	_	_
39	lo	il	_	RD	_	40	det	_	_
40	stesso	stesso	_	PD	_	38	nsubjpass	_	_
41	!	[PUNCT]	_	FS	_	32	punct	_	_

42	!	[PUNCT]	_	FS	_	0	root	_	_

43	!	[PUNCT]	_	FS	_	0	root	_	_

44	Ecco	ecco	_	B	_	46	advmod	_	_
45	l'	l'	_	RD	_	46	det	_	_
46	insegnamento	insegnamento	_	S	_	0	root	_	_
47	:	[PUNCT]	_	FC	_	46	punct	_	_
48	due	due	_	N	_	49	nummod	_	_
49	anni	anno	_	S	_	46	nmod	_	_
50	fa	fa	_	B	_	49	advmod	_	_
51	a	a	_	E	_	53	case	_	_
52	una	una	_	RI	_	53	det	_	_
53	gara	gara	_	S	_	49	nmod	_	_
54	di	di	_	E	_	55	case	_	_
55	pattinaggio	pattinaggio	_	S	_	53	nmod	_	_
56	con	con	_	E	_	59	case	_	_
57	il	il	_	RD	_	59	det	_	_
58	mio	mio	_	AP	_	59	det:poss	_	_
59	disco	disco	_	S	_	53	nmod	_	_
60	(	[PUNCT]	_	FB	_	61	punct	_	_
61	balletto	balletto	_	S	_	59	appos	_	_
62	,	[PUNCT]	_	FF	_	61	punct	_	_
63	ecc.	[ABL]	_	B	_	69	advmod	_	_
64	insomma	insomma	_	B	_	63	advmod	_	_
65	la	la	_	RD	_	66	det	_	_
66	gara	gara	_	S	_	69	nsubj	_	_
67	)	[PUNCT]	_	FB	_	69	punct	_	_
68	Sono	essere	_	VA	_	69	aux	_	_
69	riuscita	riuscire	_	V	_	61	conj	_	_
70	a	a	_	E	_	71	mark	_	_
71	salire	salire	_	V	_	69	xcomp	_	_
72	sul	sul	_	E+RD	_	73	case	_	_
73	gradino	gradino	_	S	_	71	nmod	_	_
74	più	più	_	B	_	75	advmod	_	_
75	alto	alto	_	A	_	73	amod	_	_
76	del	del	_	E+RD	_	77	case	_	_
77	podio	podio	_	S	_	73	nmod	_	_
78	!	[PUNCT]	_	FS	_	46	punct	_	_

79	!	[PUNCT]	_	FS	_	0	root	_	_

80	!	[PUNCT]	_	FS	_	0	root	_	_

81	io	io	_	PE	_	83	nsubj	_	_
82	ne	ne	_	PC	_	83	expl	_	_
83	ero	essere	_	V	_	0	root	_	_
84	entusiasta	entusiasta	_	A	_	83	amod	_	_
85	ma	ma	_	CC	_	84	cc	_	_
86	da	da	_	E	_	88	case	_	_
87	quel	quello	_	DD	_	88	det	_	_
88	momento	momento	_	S	_	89	nmod	_	_
89	diventai	diventare	_	V	_	84	conj	_	_
90	troppo	troppo	_	B	_	91	advmod	_	_
91	fiduciosa	fiducioso	_	A	_	89	xcomp	_	_
92	in	in	_	E	_	93	case	_	_
93	me	me	_	PE	_	91	nmod	_	_
94	e	e	_	CC	_	83	cc	_	_
95	pensavo	pensare	_	V	_	83	conj	_	_
96	di	di	_	E	_	99	mark	_	_
97	essere	essere	_	V	_	99	cop	_	_
98	la	la	_	RD	_	99	det	_	_
99	migliore	migliore	_	A	_	95	ccomp	_	_
100	della	della	_	E+RD	_	102	case	_	_
101	mia	mio	_	AP	_	102	det:poss	_	_
102	categoria	categoria	_	S	_	99	nmod	_	_
103	!	[PUNCT]	_	FS	_	83	punct	_	_

104	!	[PUNCT]	_	FS	_	0	root	_	_

105	!	[PUNCT]	_	FS	_	0	root	_	_

106	Evidentemente	evidentemente	_	B	_	108	advmod	_	_
107	mi	mi	_	PC	_	108	expl	_	_
108	sbagliavo	sbagliare	_	V	_	0	root	_	_
109	,	[PUNCT]	_	FF	_	108	punct	_	_
110	infatti	infatti	_	B	_	112	advmod	_	_
111	la	la	_	RD	_	112	det	_	_
112	gara	gara	_	S	_	108	nmod	_	_
113	seguente	seguente	_	A	_	112	amod	_	_
114	arrivai	arrivare	_	V	_	112	acl	_	_
115	penultima	penultimo	_	A	_	114	amod	_	_
116	e	e	_	CC	_	114	cc	_	_
117	mi	mi	_	PC	_	118	expl	_	_
118	sentii	sentire	_	V	_	114	conj	_	_
119	umiliata	umiliare	_	A	_	118	amod	_	_
120	.	[PUNCT]	_	FS	_	108	punct	_	_

121	da	da	_	E	_	123	case	_	_
122	quel	quello	_	DD	_	123	det	_	_
123	momento	momento	_	S	_	0	root	_	_
124	nonostante	nonostante	_	E	_	126	case	_	_
125	la	la	_	RD	_	126	det	_	_
126	tristezza	tristezza	_	S	_	123	nmod	_	_
127	capi	capo	_	S	_	126	compound	_	_
128	che	che	_	PR	_	130	nsubj	_	_
129	non	non	_	BN	_	130	neg	_	_
130	bisogna	bisognare	_	V	_	126	acl:relcl	_	_
131	essere	essere	_	V	_	132	cop	_	_
132	certi	certo	_	A	_	130	ccomp	_	_
133	che	che	_	CS	_	136	mark	_	_
134	una	una	_	RI	_	135	det	_	_
135	cosa	cosa	_	S	_	136	nsubj	_	_
136	vada	andare	_	V	_	132	ccomp	_	_
137	come	come	_	E	_	139	mark	_	_
138	ti	ti	_	PC	_	139	expl	_	_
139	aspetti	aspettare	_	V	_	136	advcl	_	_
140	senò	senò	_	V	_	139	xcomp	_	_
141	la	la	_	RD	_	143	det	_	_
142	tua	tuo	_	AP	_	143	det:poss	_	_
143	vita	vita	_	S	_	140	dobj	_	_
144	sarà	essere	_	V	_	145	cop	_	_
145	piena	pieno	_	A	_	136	advcl	_	_
146	di	di	_	E	_	147	case	_	_
147	aspettative	aspettativa	_	S	_	145	nmod	_	_
148	che	che	_	PR	_	150	nsubj	_	_
149	non	non	_	BN	_	150	neg	_	_
150	funzioneranno	funzionare	_	V	_	147	acl:relcl	_	_
151	!	[PUNCT]	_	FS	_	123	punct	_	_

