1	Un	un	_	RI	_	2	det	_	_
2	giorno	giorno	_	S	_	3	nmod	_	_
3	ero	essere	_	V	_	0	root	_	_
4	a	a	_	E	_	5	case	_	_
5	scuola	scuola	_	S	_	3	nmod	_	_
6	e	e	_	CC	_	3	cc	_	_
7	c'	c'	_	PC	_	8	expl	_	_
8	era	essere	_	V	_	10	cop	_	_
9	un	un	_	RI	_	10	det	_	_
10	maestro	maestro	_	S	_	3	conj	_	_
11	che	che	_	PR	_	13	dobj	_	_
12	tutti	tutti	_	PI	_	13	nsubj	_	_
13	dicevano	dire	_	V	_	10	acl:relcl	_	_
14	che	che	_	CS	_	17	mark	_	_
15	era	essere	_	V	_	17	cop	_	_
16	molto	molto	_	B	_	17	advmod	_	_
17	cattivo	cattivo	_	A	_	13	ccomp	_	_
18	.	[PUNCT]	_	FS	_	3	punct	_	_

19	Tutti	tutti	_	PI	_	22	nsubj	_	_
20	non	non	_	BN	_	22	neg	_	_
21	lo	lo	_	PC	_	22	dobj	_	_
22	volevano	volere	_	V	_	0	root	_	_
23	,	[PUNCT]	_	FF	_	22	punct	_	_
24	quando	quando	_	CS	_	25	mark	_	_
25	arrivava	arrivare	_	V	_	30	advcl	_	_
26	nelle	nella	_	E+RD	_	27	case	_	_
27	classi	classe	_	S	_	25	nmod	_	_
28	nessuno	nessuno	_	PI	_	30	nsubj	_	_
29	lo	lo	_	PC	_	30	dobj	_	_
30	voleva	volere	_	V	_	22	parataxis	_	_
31	,	[PUNCT]	_	FF	_	30	punct	_	_
32	chidevano	chidevano	_	V	_	30	conj	_	_
33	tutti	tutti	_	PI	_	32	dobj	_	_
34	di	di	_	E	_	35	mark	_	_
35	andare	andare	_	V	_	33	ccomp	_	_
36	in	in	_	E	_	37	case	_	_
37	bagno	bagno	_	S	_	35	nmod	_	_
38	per	per	_	E	_	40	mark	_	_
39	non	non	_	BN	_	40	neg	_	_
40	stare	stare	_	V	_	35	advcl	_	_
41	con	con	_	E	_	42	case	_	_
42	lui	lui	_	PE	_	40	nmod	_	_
43	,	[PUNCT]	_	FF	_	30	punct	_	_
44	certi	certo	_	A	_	30	conj	_	_
45	avevano	avere	_	V	_	44	parataxis	_	_
46	perfino	perfino	_	B	_	47	advmod	_	_
47	paura	paura	_	S	_	45	dobj	_	_
48	di	di	_	E	_	49	case	_	_
49	lui	lui	_	PE	_	47	nmod	_	_
50	.	[PUNCT]	_	FS	_	22	punct	_	_

51	Un	un	_	RI	_	52	det	_	_
52	giorno	giorno	_	S	_	53	nmod	_	_
53	andò	andare	_	V	_	0	root	_	_
54	in	in	_	E	_	56	case	_	_
55	una	una	_	RI	_	56	det	_	_
56	classe	classe	_	S	_	53	nmod	_	_
57	dove	dove	_	B	_	59	advmod	_	_
58	c'	c'	_	PC	_	59	expl	_	_
59	era	essere	_	V	_	56	acl:relcl	_	_
60	un	un	_	RI	_	61	det	_	_
61	bambino	bambino	_	S	_	59	nsubj	_	_
62	,	[PUNCT]	_	FF	_	61	punct	_	_
63	che	che	_	PR	_	65	nsubj	_	_
64	ero	essere	_	V	_	65	cop	_	_
65	io	io	_	PE	_	61	acl:relcl	_	_
66	,	[PUNCT]	_	FF	_	65	punct	_	_
67	e	e	_	CC	_	65	cc	_	_
68	faceva	fare	_	V	_	65	conj	_	_
69	lezione	lezione	_	S	_	68	dobj	_	_
70	con	con	_	E	_	71	case	_	_
71	me	me	_	PE	_	68	nmod	_	_
72	con	con	_	E	_	75	case	_	_
73	la	la	_	RD	_	75	det	_	_
74	mia	mio	_	AP	_	75	det:poss	_	_
75	classe	classe	_	S	_	68	nmod	_	_
76	.	[PUNCT]	_	FS	_	53	punct	_	_

77	Quando	quando	_	CS	_	78	mark	_	_
78	faceva	fare	_	V	_	81	advcl	_	_
79	lezione	lezione	_	S	_	78	dobj	_	_
80	non	non	_	BN	_	81	neg	_	_
81	sembrava	sembrare	_	V	_	0	root	_	_
82	molto	molto	_	B	_	83	advmod	_	_
83	cattivo	cattivo	_	A	_	81	xcomp	_	_
84	,	[PUNCT]	_	FF	_	81	punct	_	_
85	anzi	anzi	_	B	_	81	advmod	_	_
86	,	[PUNCT]	_	FF	_	81	punct	_	_
87	il	il	_	RD	_	88	det	_	_
88	contrario	contrario	_	S	_	81	nsubj	_	_
89	.	[PUNCT]	_	FS	_	81	punct	_	_

90	Quando	quando	_	CS	_	92	mark	_	_
91	era	essere	_	VA	_	92	aux	_	_
92	andato	andare	_	V	_	99	advcl	_	_
93	in	in	_	E	_	96	case	_	_
94	un'	un'	_	RI	_	96	det	_	_
95	altra	altro	_	A	_	96	amod	_	_
96	classe	classe	_	S	_	92	nmod	_	_
97	ne	ne	_	PC	_	99	advmod	_	_
98	ho	avere	_	VA	_	99	aux	_	_
99	parlato	parlare	_	V	_	0	root	_	_
100	con	con	_	E	_	103	case	_	_
101	le	la	_	RD	_	103	det	_	_
102	mie	mio	_	AP	_	103	det:poss	_	_
103	amiche	amico	_	A	_	99	nmod	_	_
104	e	e	_	CC	_	103	cc	_	_
105	io	io	_	PE	_	103	conj	_	_
106	dicevo	dire	_	V	_	99	xcomp	_	_
107	che	che	_	CS	_	110	mark	_	_
108	non	non	_	BN	_	110	neg	_	_
109	era	essere	_	V	_	110	cop	_	_
110	cattivo	cattivo	_	A	_	106	ccomp	_	_
111	come	come	_	CS	_	112	mark	_	_
112	dicevano	dire	_	V	_	110	advcl	_	_
113	gli	il	_	RD	_	114	det	_	_
114	altri	altri	_	PI	_	112	nsubj	_	_
115	.	[PUNCT]	_	FS	_	99	punct	_	_

116	È	essere	_	V	_	118	cop	_	_
117	meglio	meglio	_	B	_	118	advmod	_	_
118	vedere	vedere	_	V	_	0	root	_	_
119	e	e	_	CC	_	118	cc	_	_
120	non	non	_	BN	_	121	neg	_	_
121	ascoltare	ascoltare	_	V	_	118	conj	_	_
122	quello	quello	_	PD	_	121	dobj	_	_
123	che	che	_	PR	_	124	nsubj	_	_
124	dicono	dire	_	V	_	122	acl:relcl	_	_
125	gli	il	_	RD	_	126	det	_	_
126	altri	altri	_	PI	_	124	dobj	_	_
127	.	[PUNCT]	_	FS	_	118	punct	_	_

