1	I	il	_	RD	_	3	det	_	_
2	nuovi	nuovo	_	A	_	3	amod	_	_
3	maestri	maestro	_	S	_	6	nsubj	_	_
4	del	del	_	E+RD	_	5	case	_	_
5	calcio	calcio	_	S	_	3	nmod	_	_
6	Siamo	essere	_	V	_	20	parataxis	_	_
7	negli	nel	_	E+RD	_	8	case	_	_
8	anni	anno	_	S	_	6	nmod	_	_
9	50	50	_	N	_	8	nummod	_	_
10	‘	‘	_	FB	_	6	punct	_	_
11	,	[PUNCT]	_	FF	_	6	punct	_	_
12	l'	l'	_	RD	_	13	det	_	_
13	Inghilterra	Inghilterra	_	SP	_	20	nsubj	_	_
14	a	a	_	E	_	16	case	_	_
15	quel	quello	_	DD	_	16	det	_	_
16	tempo	tempo	_	S	_	13	nmod	_	_
17	era	essere	_	V	_	20	cop	_	_
18	la	la	_	RD	_	20	det	_	_
19	miglior	miglior	_	A	_	20	amod	_	_
20	squadra	squadra	_	S	_	0	root	_	_
21	al	al	_	E+RD	_	22	case	_	_
22	mondo	mondo	_	S	_	20	nmod	_	_
23	di	di	_	E	_	24	case	_	_
24	calcio	calcio	_	S	_	22	nmod	_	_
25	,	[PUNCT]	_	FF	_	20	punct	_	_
26	anche	anche	_	B	_	30	advmod	_	_
27	se	se	_	CS	_	30	mark	_	_
28	era	essere	_	VA	_	30	aux	_	_
29	stato	essere	_	VA	_	30	auxpass	_	_
30	messo	mettere	_	V	_	20	advcl	_	_
31	in	in	_	E	_	32	case	_	_
32	dubbio	dubbio	_	S	_	30	nmod	_	_
33	il	il	_	RD	_	35	det	_	_
34	suo	suo	_	AP	_	35	det:poss	_	_
35	valore	valore	_	S	_	30	dobj	_	_
36	da	da	_	E	_	38	case	_	_
37	un'	un'	_	RI	_	38	det	_	_
38	uscita	uscita	_	S	_	35	nmod	_	_
39	dai	dal	_	E+RD	_	40	case	_	_
40	mondiali	mondiale	_	S	_	38	nmod	_	_
41	e	e	_	CC	_	38	cc	_	_
42	da	da	_	E	_	44	case	_	_
43	un	un	_	RI	_	44	det	_	_
44	partita	partita	_	S	_	38	conj	_	_
45	persa	perso	_	V	_	44	acl	_	_
46	contro	contro	_	E	_	47	case	_	_
47	una	una	_	PI	_	45	nmod	_	_
48	delle	della	_	E+RD	_	49	case	_	_
49	squadre	squadra	_	S	_	47	nmod	_	_
50	più	più	_	B	_	51	advmod	_	_
51	deboli	debole	_	A	_	49	amod	_	_
52	,	[PUNCT]	_	FF	_	35	punct	_	_
53	l'	l'	_	RD	_	54	det	_	_
54	Ungheria	Ungheria	_	SP	_	56	nsubj	_	_
55	era	essere	_	V	_	56	cop	_	_
56	una	una	_	PI	_	35	conj	_	_
57	di	di	_	E	_	58	case	_	_
58	queste	queste	_	PD	_	56	nmod	_	_
59	,	[PUNCT]	_	FF	_	56	punct	_	_
60	ma	ma	_	CC	_	56	cc	_	_
61	stava	stare	_	VA	_	62	aux	_	_
62	crescendo	crescere	_	V	_	56	conj	_	_
63	sempre	sempre	_	B	_	65	advmod	_	_
64	di	di	_	E	_	65	case	_	_
65	più	più	_	B	_	62	advmod	_	_
66	.	[PUNCT]	_	FS	_	20	punct	_	_

67	Quel	quello	_	DD	_	68	det	_	_
68	giorno	giorno	_	S	_	74	nsubj	_	_
69	lo	il	_	RD	_	70	det	_	_
70	stadio	stadio	_	S	_	74	nsubj	_	_
71	Wembley	Wembley	_	SP	_	70	nmod	_	_
72	era	essere	_	V	_	74	cop	_	_
73	tutto	tutto	_	PI	_	74	nsubj	_	_
74	esaurito	esaurire	_	V	_	0	root	_	_
75	(	[PUNCT]	_	FB	_	77	punct	_	_
76	100.000	100.000	_	N	_	77	nummod	_	_
77	posti	posto	_	S	_	90	parataxis	_	_
78	)	[PUNCT]	_	FB	_	77	punct	_	_
79	,	[PUNCT]	_	FF	_	77	punct	_	_
80	l'	l'	_	RD	_	81	det	_	_
81	arbitro	arbitro	_	S	_	90	nsubj	_	_
82	che	che	_	PR	_	84	nsubj	_	_
83	avrebbe	avere	_	VA	_	84	aux	_	_
84	diretto	dirigere	_	V	_	81	acl:relcl	_	_
85	la	la	_	RD	_	86	det	_	_
86	gara	gara	_	S	_	84	dobj	_	_
87	era	essere	_	V	_	90	cop	_	_
88	l'	l'	_	RD	_	90	det	_	_
89	olandese	olandese	_	A	_	90	amod	_	_
90	Leo	Leo	_	SP	_	74	dobj	_	_
91	Horn	Horn	_	SP	_	90	name	_	_
92	.	[PUNCT]	_	FS	_	74	punct	_	_

93	Gli	il	_	RD	_	94	det	_	_
94	inglesi	inglese	_	A	_	96	nsubj	_	_
95	si	si	_	PC	_	96	expl	_	_
96	schieravano	schierare	_	V	_	0	root	_	_
97	con	con	_	E	_	100	case	_	_
98	il	il	_	RD	_	100	det	_	_
99	classico	classico	_	A	_	100	amod	_	_
100	2-3	2-3	_	N	_	96	nummod	_	_
101	-	-	_	FF	_	100	punct	_	_
102	5	5	_	N	_	100	compound	_	_
103	,	[PUNCT]	_	FF	_	100	punct	_	_
104	mentre	mentre	_	CS	_	100	advcl	_	_
105	l'	l'	_	RD	_	106	det	_	_
106	Ungheria	Ungheria	_	SP	_	104	dobj	_	_
107	con	con	_	E	_	110	case	_	_
108	uno	un	_	RI	_	110	det	_	_
109	strano	strano	_	A	_	110	amod	_	_
110	4-2	4-2	_	SP	_	106	nmod	_	_
111	-	-	_	FF	_	110	punct	_	_
112	4	4	_	N	_	110	nummod	_	_
113	.	[PUNCT]	_	FS	_	96	punct	_	_

114	I	il	_	RD	_	116	det	_	_
115	due	due	_	N	_	116	nummod	_	_
116	capitani	capitano	_	S	_	117	nsubj	_	_
117	andarono	andare	_	V	_	0	root	_	_
118	al	al	_	E+RD	_	119	case	_	_
119	centro	centro	_	S	_	117	nmod	_	_
120	per	per	_	E	_	122	case	_	_
121	il	il	_	RD	_	122	det	_	_
122	lancio	lancio	_	S	_	117	nmod	_	_
123	della	della	_	E+RD	_	124	case	_	_
124	monetina	monetina	_	S	_	122	nmod	_	_
125	,	[PUNCT]	_	FF	_	117	punct	_	_
126	avrebbe	avere	_	VA	_	127	aux	_	_
127	battuto	battere	_	V	_	144	advcl	_	_
128	il	il	_	RD	_	129	det	_	_
129	calcio	calcio	_	S	_	127	dobj	_	_
130	d'	da	_	E	_	131	case	_	_
131	inizio	inizio	_	S	_	129	nmod	_	_
132	l'	l'	_	RD	_	133	det	_	_
133	Ungheria	Ungheria	_	SP	_	127	nsubj	_	_
134	,	[PUNCT]	_	FF	_	127	punct	_	_
135	quando	quando	_	CS	_	137	mark	_	_
136	si	si	_	PC	_	137	expl	_	_
137	strinsero	stringere	_	V	_	144	advcl	_	_
138	la	la	_	RD	_	139	det	_	_
139	mano	mano	_	S	_	137	nsubj	_	_
140	il	il	_	RD	_	141	det	_	_
141	centrocampista	centrocampista	_	S	_	144	nsubj	_	_
142	inglese	inglese	_	A	_	141	amod	_	_
143	Wricht	Wricht	_	SP	_	141	nmod	_	_
144	notò	notare	_	V	_	117	advcl	_	_
145	che	che	_	CS	_	150	mark	_	_
146	i	il	_	RD	_	147	det	_	_
147	giocatori	giocatore	_	S	_	150	nsubj	_	_
148	dell'	dell'	_	E+RD	_	149	case	_	_
149	Ungheria	Ungheria	_	SP	_	147	nmod	_	_
150	indossavano	indossare	_	V	_	144	ccomp	_	_
151	quelle	quello	_	DD	_	152	det	_	_
152	scarpe	scarpa	_	S	_	150	dobj	_	_
153	ultra	ultra	_	A	_	152	amod	_	_
154	leggere	leggere	_	V	_	150	xcomp	_	_
155	,	[PUNCT]	_	FF	_	150	punct	_	_
156	si	si	_	PC	_	157	expl	_	_
157	voltò	voltare	_	V	_	150	nmod	_	_
158	verso	verso	_	E	_	160	case	_	_
159	l'	l'	_	RD	_	160	det	_	_
160	allenatore	allenatore	_	S	_	157	nmod	_	_
161	e	e	_	CC	_	157	cc	_	_
162	gli	gli	_	PC	_	163	iobj	_	_
163	disse	dire	_	V	_	157	conj	_	_
164	“	“	_	FB	_	168	punct	_	_
165	Con	con	_	E	_	166	case	_	_
166	questi	questi	_	PD	_	168	nmod	_	_
167	è	essere	_	V	_	168	cop	_	_
168	facile	facile	_	A	_	150	xcomp	_	_
169	,	[PUNCT]	_	FF	_	168	punct	_	_
170	indossano	indossare	_	V	_	168	conj	_	_
171	perfino	perfino	_	B	_	170	advmod	_	_
172	le	la	_	RD	_	173	det	_	_
173	scarpe	scarpa	_	S	_	170	dobj	_	_
174	sbagliate	sbagliato	_	A	_	173	amod	_	_
175	”	”	_	FB	_	168	punct	_	_
176	.	[PUNCT]	_	FS	_	117	punct	_	_

177	L'	l'	_	RD	_	178	det	_	_
178	Ungheria	Ungheria	_	SP	_	179	nsubj	_	_
179	partì	partire	_	V	_	0	root	_	_
180	forte	forte	_	A	_	179	xcomp	_	_
181	e	e	_	CC	_	180	cc	_	_
182	la	la	_	RD	_	184	det	_	_
183	strana	strano	_	A	_	184	amod	_	_
184	posizione	posizione	_	S	_	180	conj	_	_
185	del	del	_	E+RD	_	186	case	_	_
186	centravanti	centravanti	_	S	_	184	nmod	_	_
187	ungherese	ungherese	_	A	_	186	amod	_	_
188	,	[PUNCT]	_	FF	_	184	punct	_	_
189	che	che	_	PR	_	190	nsubj	_	_
190	giocava	giocare	_	V	_	184	acl:relcl	_	_
191	più	più	_	B	_	192	advmod	_	_
192	arretrato	arretrato	_	A	_	190	xcomp	_	_
193	,	[PUNCT]	_	FF	_	179	punct	_	_
194	mise	mettere	_	V	_	179	advcl	_	_
195	in	in	_	E	_	196	case	_	_
196	difficolta	difficolta	_	S	_	194	nmod	_	_
197	gli	il	_	RD	_	198	det	_	_
198	inglesi	inglese	_	S	_	194	dobj	_	_
199	e	e	_	CC	_	194	cc	_	_
200	dopo	dopo	_	E	_	202	case	_	_
201	una	una	_	RI	_	202	det	_	_
202	serie	serie	_	S	_	205	nmod	_	_
203	di	di	_	E	_	204	case	_	_
204	triangoli	triangolo	_	S	_	202	nmod	_	_
205	portò	portare	_	V	_	194	conj	_	_
206	in	in	_	E	_	207	case	_	_
207	vantaggio	vantaggio	_	S	_	205	nmod	_	_
208	la	la	_	RD	_	210	det	_	_
209	sua	suo	_	AP	_	210	det:poss	_	_
210	squadra	squadra	_	S	_	205	nsubj	_	_
211	(	[PUNCT]	_	FB	_	215	punct	_	_
212	dopo	dopo	_	E	_	215	case	_	_
213	solo	solo	_	B	_	214	advmod	_	_
214	2	2	_	N	_	215	nummod	_	_
215	minuti	minuto	_	S	_	205	nmod	_	_
216	)	[PUNCT]	_	FB	_	215	punct	_	_
217	.	[PUNCT]	_	FS	_	179	punct	_	_

218	Sette	sette	_	N	_	219	nummod	_	_
219	minuti	minuto	_	S	_	224	nmod	_	_
220	più	più	_	B	_	221	advmod	_	_
221	tardi	tardi	_	B	_	219	advmod	_	_
222	gli	il	_	RD	_	223	det	_	_
223	inglesi	inglese	_	S	_	224	nsubj	_	_
224	agguantarono	agguantare	_	V	_	0	root	_	_
225	il	il	_	RD	_	226	det	_	_
226	pareggio	pareggio	_	S	_	224	dobj	_	_
227	.	[PUNCT]	_	FS	_	224	punct	_	_

228	lo	il	_	RD	_	229	det	_	_
229	stadio	stadio	_	S	_	230	nsubj	_	_
230	esplose	esplodere	_	V	_	0	root	_	_
231	in	in	_	E	_	233	case	_	_
232	un	un	_	RI	_	233	det	_	_
233	boato	boato	_	S	_	230	nmod	_	_
234	terrificante	terrificare	_	A	_	233	amod	_	_
235	,	[PUNCT]	_	FF	_	233	punct	_	_
236	che	che	_	PR	_	237	nsubj	_	_
237	duró	duró	_	V	_	233	acl:relcl	_	_
238	solo	solo	_	B	_	240	advmod	_	_
239	7	7	_	N	_	240	nummod	_	_
240	minuti	minuto	_	S	_	237	nmod	_	_
241	,	[PUNCT]	_	FF	_	237	punct	_	_
242	infatti	infatti	_	CC	_	237	cc	_	_
243	dopo	dopo	_	B	_	245	advmod	_	_
244	20	20	_	N	_	245	nummod	_	_
245	min.	minuto	_	S	_	237	conj	_	_
246	di	di	_	E	_	247	case	_	_
247	gioco	gioco	_	S	_	245	nmod	_	_
248	l'	l'	_	RD	_	249	det	_	_
249	ungheria	ungheria	_	S	_	251	nsubj	_	_
250	si	si	_	PC	_	251	expl	_	_
251	portó	portó	_	V	_	245	acl	_	_
252	sul	sul	_	E+RD	_	253	case	_	_
253	1	1	_	N	_	251	nummod	_	_
254	:	[PUNCT]	_	FF	_	251	punct	_	_
255	2	2	_	N	_	251	nummod	_	_
256	.	[PUNCT]	_	FS	_	230	punct	_	_

257	Passano	passare	_	V	_	0	root	_	_
258	7	7	_	N	_	259	nummod	_	_
259	minuti	minuto	_	S	_	257	nmod	_	_
260	e	e	_	CC	_	257	cc	_	_
261	l'	l'	_	RD	_	262	det	_	_
262	Ungheria	Ungheria	_	SP	_	263	nsubj	_	_
263	è	essere	_	V	_	257	conj	_	_
264	sul	sul	_	E+RD	_	265	case	_	_
265	1	1	_	SP	_	263	nmod	_	_
266	:	[PUNCT]	_	FC	_	257	punct	_	_
267	4	4	_	N	_	257	nummod	_	_
268	,	[PUNCT]	_	FF	_	267	punct	_	_
269	dapprima	dapprima	_	B	_	267	conj	_	_
270	con	con	_	E	_	272	case	_	_
271	l'	l'	_	RD	_	272	det	_	_
272	attaccante	attaccante	_	S	_	269	nmod	_	_
273	arretrato	arretrato	_	A	_	272	amod	_	_
274	che	che	_	PR	_	275	nsubj	_	_
275	segna	segnare	_	V	_	272	acl:relcl	_	_
276	uno	un	_	RI	_	277	det	_	_
277	doppietta	doppietta	_	A	_	275	xcomp	_	_
278	,	[PUNCT]	_	FF	_	277	punct	_	_
279	e	e	_	CC	_	277	cc	_	_
280	poi	poi	_	B	_	288	advmod	_	_
281	,	[PUNCT]	_	FF	_	280	punct	_	_
282	dopo	dopo	_	E	_	284	case	_	_
283	una	una	_	RI	_	284	det	_	_
284	serie	serie	_	S	_	288	nmod	_	_
285	di	di	_	E	_	286	case	_	_
286	rimpalli	rimpallo	_	S	_	284	nmod	_	_
287	,	[PUNCT]	_	FF	_	284	punct	_	_
288	arriva	arrivare	_	V	_	277	conj	_	_
289	il	il	_	RD	_	291	det	_	_
290	quarto	quarto	_	NO	_	291	amod	_	_
291	gol	gol	_	S	_	288	nsubj	_	_
292	.	[PUNCT]	_	FS	_	257	punct	_	_

293	L'	l'	_	RD	_	294	det	_	_
294	Inghilterra	Inghilterra	_	SP	_	299	nsubj	_	_
295	non	non	_	BN	_	299	neg	_	_
296	si	si	_	PC	_	299	expl	_	_
297	da	da	_	E	_	299	mark	_	_
298	per	per	_	E	_	297	mwe	_	_
299	vinta	vincere	_	V	_	0	root	_	_
300	e	e	_	CC	_	299	cc	_	_
301	dimezza	dimezzare	_	V	_	299	conj	_	_
302	le	la	_	RD	_	303	det	_	_
303	distanze	distanza	_	S	_	301	dobj	_	_
304	al	al	_	E+RD	_	305	case	_	_
305	trentottesimo	trentottesimo	_	S	_	301	nmod	_	_
306	.	[PUNCT]	_	FS	_	299	punct	_	_

307	Dopo	dopo	_	E	_	310	case	_	_
308	soli	solo	_	A	_	310	amod	_	_
309	6	6	_	N	_	310	nummod	_	_
310	minuti	minuto	_	S	_	311	nmod	_	_
311	arrivano	arrivare	_	V	_	322	advcl	_	_
312	due	due	_	N	_	313	nummod	_	_
313	gol	gol	_	S	_	311	nsubj	_	_
314	tutti	tutti	_	PI	_	313	advmod	_	_
315	dell'	dell'	_	E+RD	_	316	case	_	_
316	Ungheria	Ungheria	_	SP	_	314	nmod	_	_
317	,	[PUNCT]	_	FF	_	311	punct	_	_
318	al	al	_	E+RD	_	319	case	_	_
319	cinquantesimo	cinquantesimo	_	NO	_	311	nmod	_	_
320	il	il	_	RD	_	321	det	_	_
321	centravanti	centravanti	_	S	_	322	nsubj	_	_
322	segna	segnare	_	V	_	0	root	_	_
323	la	la	_	RD	_	325	det	_	_
324	sua	suo	_	AP	_	325	det:poss	_	_
325	tripletta	tripletta	_	S	_	322	dobj	_	_
326	,	[PUNCT]	_	FF	_	322	punct	_	_
327	e	e	_	CC	_	322	cc	_	_
328	poi	poi	_	B	_	329	advmod	_	_
329	serve	servire	_	V	_	322	conj	_	_
330	l'	l'	_	RD	_	331	det	_	_
331	assist	assist	_	S	_	329	nsubj	_	_
332	al	al	_	E+RD	_	334	case	_	_
333	suo	suo	_	AP	_	334	det:poss	_	_
334	trequartista	trequartista	_	A	_	331	nmod	_	_
335	che	che	_	E	_	338	case	_	_
336	gonfia	gonfio	_	A	_	338	amod	_	_
337	la	la	_	RD	_	338	det	_	_
338	rete	rete	_	S	_	334	nmod	_	_
339	,	[PUNCT]	_	FF	_	331	punct	_	_
340	il	il	_	RD	_	341	det	_	_
341	Wembley	Wembley	_	SP	_	343	nsubj	_	_
342	stadium	stadium	_	S	_	341	name	_	_
343	rimasse	rimare	_	V	_	331	conj	_	_
344	in	in	_	E	_	345	case	_	_
345	silenzio	silenzio	_	S	_	343	nmod	_	_
346	,	[PUNCT]	_	FF	_	331	punct	_	_
347	2	2	_	N	_	331	conj	_	_
348	:	[PUNCT]	_	FC	_	331	punct	_	_
349	6	6	_	N	_	331	nummod	_	_
350	.	[PUNCT]	_	FS	_	322	punct	_	_

351	L'	l'	_	RD	_	352	det	_	_
352	Inghilterra	Inghilterra	_	SP	_	353	nsubj	_	_
353	trovó	trovó	_	V	_	0	root	_	_
354	il	il	_	RD	_	356	det	_	_
355	definitivo	definitivo	_	A	_	356	amod	_	_
356	3	3	_	N	_	353	dobj	_	_
357	:	[PUNCT]	_	FC	_	353	punct	_	_
358	6	6	_	N	_	368	nummod	_	_
359	su	su	_	E	_	360	case	_	_
360	punizione	punizione	_	S	_	358	nmod	_	_
361	,	[PUNCT]	_	FF	_	358	punct	_	_
362	a	a	_	E	_	363	case	_	_
363	fine	fine	_	S	_	358	nmod	_	_
364	partita	partita	_	S	_	363	compound	_	_
365	il	il	_	RD	_	366	det	_	_
366	Wembley	Wembley	_	SP	_	368	nsubj	_	_
367	stadium	stadium	_	S	_	366	name	_	_
368	applaude	applaudire	_	V	_	353	parataxis	_	_
369	i	il	_	RD	_	371	det	_	_
370	nuovi	nuovo	_	A	_	371	amod	_	_
371	maestri	maestro	_	S	_	368	dobj	_	_
372	del	del	_	E+RD	_	373	case	_	_
373	calcio	calcio	_	S	_	371	nmod	_	_
374	.	[PUNCT]	_	FS	_	353	punct	_	_

375	Questo	questo	_	DD	_	376	det	_	_
376	fatto	fatto	_	S	_	378	nsubj	_	_
377	ci	ci	_	PC	_	378	iobj	_	_
378	insegna	insegnare	_	V	_	0	root	_	_
379	di	di	_	E	_	381	mark	_	_
380	non	non	_	BN	_	381	neg	_	_
381	dire	dire	_	V	_	378	xcomp	_	_
382	di	di	_	E	_	385	mark	_	_
383	essere	essere	_	V	_	385	cop	_	_
384	più	più	_	B	_	385	advmod	_	_
385	forte	forte	_	A	_	381	xcomp	_	_
386	di	di	_	E	_	387	case	_	_
387	qualcuno	qualcuno	_	PI	_	385	nmod	_	_
388	se	se	_	CS	_	393	mark	_	_
389	prima	prima	_	B	_	393	advmod	_	_
390	non	non	_	BN	_	393	neg	_	_
391	si	si	_	PC	_	393	expl	_	_
392	è	essere	_	VA	_	393	aux	_	_
393	gareggiato	gareggiare	_	V	_	381	advcl	_	_
394	.	[PUNCT]	_	FS	_	378	punct	_	_

