1	La	la	_	RD	_	2	det	_	_
2	partita	partita	_	S	_	0	root	_	_
3	di	di	_	E	_	4	case	_	_
4	calcio	calcio	_	S	_	2	nmod	_	_
5	Ero	essere	_	V	_	2	acl	_	_
6	all'	all'	_	E+RD	_	8	case	_	_
7	ultima	ultimo	_	A	_	8	amod	_	_
8	partita	partita	_	S	_	5	nmod	_	_
9	di	di	_	E	_	10	case	_	_
10	calcio	calcio	_	S	_	8	nmod	_	_
11	del	del	_	E+RD	_	12	case	_	_
12	torneo	torneo	_	S	_	8	nmod	_	_
13	di	di	_	E	_	14	case	_	_
14	Pasqua	Pasqua	_	SP	_	12	nmod	_	_
15	per	per	_	E	_	17	case	_	_
16	il	il	_	RD	_	17	det	_	_
17	9	9	_	N	_	2	nummod	_	_
18	°	°	_	S	_	17	nmod	_	_
19	-	-	_	FB	_	25	punct	_	_
20	10	10	_	N	_	21	nummod	_	_
21	°	°	_	S	_	25	nmod	_	_
22	posto	posto	_	S	_	21	compound	_	_
23	,	[PUNCT]	_	FF	_	21	punct	_	_
24	eravamo	essere	_	VA	_	25	aux	_	_
25	andati	andare	_	V	_	17	acl	_	_
26	malissimo	malo	_	B	_	25	advmod	_	_
27	,	[PUNCT]	_	FF	_	25	punct	_	_
28	eppure	eppure	_	CC	_	25	cc	_	_
29	giocavamo	giocare	_	V	_	25	conj	_	_
30	in	in	_	E	_	31	case	_	_
31	casa	casa	_	S	_	29	nmod	_	_
32	,	[PUNCT]	_	FF	_	25	punct	_	_
33	a	a	_	E	_	34	case	_	_
34	Tesserete	Tesserete	_	SP	_	25	conj	_	_
35	.	[PUNCT]	_	FS	_	2	punct	_	_

36	Quel	quello	_	DD	_	38	det	_	_
37	fatale	fatale	_	A	_	38	amod	_	_
38	lunedí	lunedí	_	S	_	46	nsubj	_	_
39	delle	della	_	E+RD	_	40	case	_	_
40	vacanze	vacanza	_	S	_	38	nmod	_	_
41	di	di	_	E	_	42	case	_	_
42	Pasqua	Pasqua	_	SP	_	40	nmod	_	_
43	,	[PUNCT]	_	FF	_	38	punct	_	_
44	pur	pur	_	B	_	46	advmod	_	_
45	avendo	avere	_	VA	_	46	aux	_	_
46	perso	perdere	_	V	_	0	root	_	_
47	tutte	tutto	_	T	_	49	det:predet	_	_
48	le	la	_	RD	_	49	det	_	_
49	partite	partita	_	S	_	46	dobj	_	_
50	e	e	_	CC	_	49	cc	_	_
51	una	una	_	RI	_	52	det	_	_
52	pareggiata	pareggiata	_	S	_	49	conj	_	_
53	,	[PUNCT]	_	FF	_	46	punct	_	_
54	eravamo	essere	_	V	_	55	cop	_	_
55	convinti	convinto	_	A	_	46	conj	_	_
56	di	di	_	E	_	57	mark	_	_
57	vincere	vincere	_	V	_	55	ccomp	_	_
58	contro	contro	_	B	_	57	advmod	_	_
59	dei	del	_	E+RD	_	60	case	_	_
60	piú	più	_	S	_	57	nmod	_	_
61	piccoli	piccolo	_	A	_	60	amod	_	_
62	.	[PUNCT]	_	FS	_	46	punct	_	_

63	Ma	ma	_	CC	_	66	cc	_	_
64	non	non	_	BN	_	66	neg	_	_
65	ci	ci	_	PC	_	66	expl	_	_
66	aspettavamo	aspettare	_	V	_	0	root	_	_
67	cosa	cosa	_	PQ	_	69	nsubj	_	_
68	sarebbe	essere	_	VA	_	69	aux	_	_
69	successo	succedere	_	V	_	66	ccomp	_	_
70	.	[PUNCT]	_	FS	_	66	punct	_	_

71	Inizió	Inizió	_	V	_	77	advcl	_	_
72	la	la	_	RD	_	73	det	_	_
73	partita	partita	_	S	_	71	dobj	_	_
74	,	[PUNCT]	_	FF	_	71	punct	_	_
75	eravamo	essere	_	V	_	77	cop	_	_
76	molto	molto	_	B	_	77	advmod	_	_
77	convinti	convinto	_	A	_	0	root	_	_
78	di	di	_	E	_	79	mark	_	_
79	vincere	vincere	_	V	_	77	ccomp	_	_
80	,	[PUNCT]	_	FF	_	79	punct	_	_
81	dopo	dopo	_	E	_	83	case	_	_
82	un	un	_	RI	_	83	det	_	_
83	paio	paio	_	S	_	79	nmod	_	_
84	di	di	_	E	_	85	case	_	_
85	minuti	minuto	_	S	_	83	nmod	_	_
86	segnamo	segnamo	_	A	_	85	amod	_	_
87	e	e	_	CC	_	83	cc	_	_
88	li	li	_	PC	_	89	expl	_	_
89	pensiamo	pensare	_	V	_	83	conj	_	_
90	gia	gia	_	S	_	89	nsubj	_	_
91	di	di	_	E	_	93	mark	_	_
92	aver	avere	_	VA	_	93	aux	_	_
93	vinto	vincere	_	V	_	90	acl	_	_
94	e	e	_	CC	_	93	cc	_	_
95	invece	invece	_	B	_	99	advmod	_	_
96	l'	l'	_	RD	_	98	det	_	_
97	altra	altro	_	A	_	98	amod	_	_
98	squadra	squadra	_	S	_	99	nsubj	_	_
99	segna	segnare	_	V	_	93	conj	_	_
100	il	il	_	RD	_	101	det	_	_
101	pareggio	pareggio	_	S	_	93	dobj	_	_
102	,	[PUNCT]	_	FF	_	101	punct	_	_
103	continuamo	continuamo	_	V	_	101	acl	_	_
104	a	a	_	E	_	105	mark	_	_
105	attaccare	attaccare	_	V	_	103	xcomp	_	_
106	ma	ma	_	CC	_	79	cc	_	_
107	fu	essere	_	VA	_	109	aux	_	_
108	tutto	tutto	_	PI	_	109	nmod	_	_
109	inutile	inutile	_	A	_	112	aux	_	_
110	la	la	_	RD	_	111	det	_	_
111	partita	partita	_	S	_	112	nsubj	_	_
112	finisce	finire	_	V	_	79	conj	_	_
113	1-1	1-1	_	N	_	112	dobj	_	_
114	,	[PUNCT]	_	FF	_	79	punct	_	_
115	si	si	_	PC	_	116	dobj	_	_
116	andrá	andrá	_	V	_	79	conj	_	_
117	ai	al	_	E+RD	_	118	case	_	_
118	calci	calcio	_	S	_	116	nmod	_	_
119	di	di	_	E	_	120	case	_	_
120	rigore	rigore	_	S	_	118	nmod	_	_
121	,	[PUNCT]	_	FF	_	116	punct	_	_
122	tre	tre	_	N	_	123	nummod	_	_
123	calci	calcio	_	S	_	116	nsubj	_	_
124	di	di	_	E	_	125	case	_	_
125	rigore	rigore	_	S	_	123	nmod	_	_
126	per	per	_	E	_	127	case	_	_
127	squadra	squadra	_	S	_	123	nmod	_	_
128	,	[PUNCT]	_	FF	_	116	punct	_	_
129	da	da	_	E	_	130	case	_	_
130	noi	noi	_	PE	_	132	nmod	_	_
131	hanno	avere	_	VA	_	132	aux	_	_
132	tirato	tirare	_	V	_	116	conj	_	_
133	:	[PUNCT]	_	FC	_	116	punct	_	_
134	Nicola	Nicola	_	SP	_	116	nsubj	_	_
135	L	L	_	SP	_	134	name	_	_
136	.	[PUNCT]	_	FS	_	77	punct	_	_

137	,	[PUNCT]	_	FF	_	0	root	_	_
138	Marco	Marco	_	SP	_	137	nmod	_	_
139	e	e	_	CC	_	138	cc	_	_
140	Paolo	Paolo	_	SP	_	138	conj	_	_
141	.	[PUNCT]	_	FS	_	137	punct	_	_

142	Primo	primo	_	NO	_	143	amod	_	_
143	rigore	rigore	_	S	_	158	nsubj	_	_
144	per	per	_	E	_	147	case	_	_
145	l'	l'	_	RD	_	147	det	_	_
146	altra	altro	_	A	_	147	amod	_	_
147	squadra	squadra	_	S	_	143	nmod	_	_
148	,	[PUNCT]	_	FF	_	143	punct	_	_
149	goal	goal	_	S	_	143	conj	_	_
150	e	e	_	CC	_	143	cc	_	_
151	così	così	_	B	_	153	advmod	_	_
152	si	si	_	PC	_	153	expl:impers	_	_
153	va	andare	_	V	_	143	conj	_	_
154	avanti	avanti	_	B	_	153	advmod	_	_
155	,	[PUNCT]	_	FF	_	143	punct	_	_
156	alla	alla	_	E+RD	_	157	case	_	_
157	fine	fine	_	S	_	143	nmod	_	_
158	abbiamo	avere	_	V	_	0	root	_	_
159	per	per	_	E	_	160	mark	_	_
160	so	sapere	_	V	_	158	advcl	_	_
161	2	2	_	N	_	160	nummod	_	_
162	a	a	_	E	_	163	case	_	_
163	1	1	_	N	_	161	nummod	_	_
164	ai	al	_	E+RD	_	165	case	_	_
165	rigori	rigore	_	S	_	161	nmod	_	_
166	e	e	_	CC	_	161	cc	_	_
167	così	così	_	B	_	169	advmod	_	_
168	siamo	essere	_	VA	_	169	aux	_	_
169	arrivati	arrivare	_	V	_	161	conj	_	_
170	decimi	decimo	_	S	_	169	nsubj	_	_
171	contro	contro	_	E	_	172	case	_	_
172	avversari	avversario	_	S	_	170	nmod	_	_
173	deboli	debole	_	A	_	172	amod	_	_
174	.	[PUNCT]	_	FS	_	158	punct	_	_

175	Da	da	_	E	_	176	case	_	_
176	qui	qui	_	B	_	0	root	_	_
177	io	io	_	PE	_	176	nsubj	_	_
178	e	e	_	CC	_	177	cc	_	_
179	tutto	tutto	_	PI	_	184	advmod	_	_
180	la	la	_	RD	_	182	det	_	_
181	mia	mio	_	AP	_	182	det:poss	_	_
182	squadra	squadra	_	S	_	184	nsubj	_	_
183	abbiamo	avere	_	VA	_	184	aux	_	_
184	imparato	imparare	_	V	_	177	conj	_	_
185	di	di	_	E	_	187	mark	_	_
186	non	non	_	BN	_	187	neg	_	_
187	sottovalutare	sottovalutare	_	V	_	184	xcomp	_	_
188	l'	l'	_	RD	_	189	det	_	_
189	avversario	avversario	_	S	_	187	dobj	_	_
190	.	[PUNCT]	_	FS	_	176	punct	_	_

