1	Un	un	_	RI	_	2	det	_	_
2	giorno	giorno	_	S	_	8	nmod	_	_
3	la	la	_	RD	_	5	det	_	_
4	nostra	nostro	_	AP	_	5	det:poss	_	_
5	maestra	maestra	_	S	_	8	nsubj	_	_
6	ci	ci	_	PC	_	8	iobj	_	_
7	ha	avere	_	VA	_	8	aux	_	_
8	letto	leggere	_	V	_	0	root	_	_
9	la	la	_	RD	_	10	det	_	_
10	storia	storia	_	S	_	8	dobj	_	_
11	della	della	_	E+RD	_	12	case	_	_
12	lepre	lepre	_	S	_	10	nmod	_	_
13	e	e	_	CC	_	12	cc	_	_
14	la	la	_	RD	_	15	det	_	_
15	tartaruga	tartaruga	_	S	_	12	conj	_	_
16	e	e	_	CC	_	8	cc	_	_
17	ci	ci	_	PC	_	19	iobj	_	_
18	ha	avere	_	VA	_	19	aux	_	_
19	chiesto	chiedere	_	V	_	8	conj	_	_
20	di	di	_	E	_	21	mark	_	_
21	pensare	pensare	_	V	_	19	ccomp	_	_
22	a	a	_	E	_	24	case	_	_
23	un	un	_	RI	_	24	det	_	_
24	momento	momento	_	S	_	21	nmod	_	_
25	dove	dove	_	CS	_	27	mark	_	_
26	abbiamo	avere	_	VA	_	27	aux	_	_
27	avuto	avere	_	V	_	21	advcl	_	_
28	un	un	_	RI	_	29	det	_	_
29	insegnamento	insegnamento	_	S	_	27	dobj	_	_
30	,	[PUNCT]	_	FF	_	27	punct	_	_
31	a	a	_	E	_	32	case	_	_
32	me	me	_	PE	_	27	nmod	_	_
33	e	e	_	CC	_	32	cc	_	_
34	venuto	venire	_	V	_	32	conj	_	_
35	in	in	_	E	_	36	case	_	_
36	mente	mente	_	S	_	34	nmod	_	_
37	che	che	_	PR	_	42	nsubj	_	_
38	proprio	proprio	_	B	_	42	advmod	_	_
39	quel	quello	_	DD	_	40	det	_	_
40	giorno	giorno	_	S	_	42	nmod	_	_
41	ero	essere	_	VA	_	42	aux	_	_
42	seduta	sedere	_	V	_	36	acl:relcl	_	_
43	su	su	_	E	_	45	case	_	_
44	un	un	_	RI	_	45	det	_	_
45	sasso	sasso	_	S	_	42	nmod	_	_
46	e	e	_	CC	_	42	cc	_	_
47	sono	essere	_	VA	_	48	aux	_	_
48	arrivati	arrivare	_	V	_	42	conj	_	_
49	li	li	_	PC	_	48	nsubj	_	_
50	vicino	vicino	_	A	_	49	amod	_	_
51	dei	del	_	E+RD	_	52	case	_	_
52	bambini	bambino	_	S	_	50	nmod	_	_
53	tre	tre	_	N	_	52	nummod	_	_
54	di	di	_	E	_	55	case	_	_
55	prima	prima	_	B	_	53	advmod	_	_
56	e	e	_	CC	_	55	cc	_	_
57	uno	uno	_	PI	_	55	conj	_	_
58	di	di	_	E	_	59	case	_	_
59	seconda	secondo	_	NO	_	57	nmod	_	_
60	,	[PUNCT]	_	FF	_	49	punct	_	_
61	quello	quello	_	PD	_	49	nmod	_	_
62	di	di	_	E	_	63	case	_	_
63	seconda	seconda	_	S	_	61	nmod	_	_
64	e	e	_	CC	_	61	cc	_	_
65	altri	altro	_	DI	_	66	det	_	_
66	due	due	_	N	_	69	nsubj	_	_
67	di	di	_	E	_	68	case	_	_
68	prima	prima	_	B	_	69	advmod	_	_
69	picchiavano	picchiare	_	V	_	61	conj	_	_
70	l'	l'	_	RD	_	71	det	_	_
71	altro	altro	_	PI	_	77	nsubj	_	_
72	di	di	_	E	_	73	case	_	_
73	prima	prima	_	B	_	77	advmod	_	_
74	io	io	_	PE	_	77	nsubj	_	_
75	mi	mi	_	PC	_	77	expl	_	_
76	sono	essere	_	VA	_	77	aux	_	_
77	messa	mettere	_	V	_	69	ccomp	_	_
78	in	in	_	E	_	79	case	_	_
79	mezzo	mezzo	_	S	_	77	nmod	_	_
80	dicendo	dire	_	V	_	77	advcl	_	_
81	di	di	_	E	_	82	mark	_	_
82	smetterla	smettere	_	V+PC	_	80	xcomp	_	_
83	ma	ma	_	CC	_	82	cc	_	_
84	quello	quello	_	PD	_	87	nsubj	_	_
85	di	di	_	E	_	86	case	_	_
86	seconda	secondo	_	NO	_	84	nmod	_	_
87	continuava	continuare	_	V	_	82	conj	_	_
88	a	a	_	E	_	89	mark	_	_
89	dire	dire	_	V	_	87	xcomp	_	_
90	che	che	_	CS	_	92	mark	_	_
91	deve	dovere	_	VM	_	92	aux	_	_
92	esserci	essere	_	V+PC	_	89	ccomp	_	_
93	rispetto	rispetto	_	B	_	97	advmod	_	_
94	per	per	_	E	_	97	case	_	_
95	i	il	_	RD	_	97	det	_	_
96	più	più	_	B	_	97	advmod	_	_
97	grandi	grande	_	A	_	92	nmod	_	_
98	ma	ma	_	CC	_	92	cc	_	_
99	non	non	_	BN	_	100	neg	_	_
100	capivo	capire	_	V	_	92	conj	_	_
101	perché	perché	_	CS	_	103	mark	_	_
102	lo	lo	_	PC	_	103	dobj	_	_
103	dicesse	dire	_	V	_	100	advcl	_	_
104	dopo	dopo	_	B	_	103	advmod	_	_
105	mi	mi	_	PC	_	107	iobj	_	_
106	hanno	avere	_	VA	_	107	aux	_	_
107	spiegato	spiegare	_	V	_	103	conj	_	_
108	che	che	_	DQ	_	109	det	_	_
109	cosa	cosa	_	PQ	_	111	nsubj	_	_
110	era	essere	_	VA	_	111	aux	_	_
111	successo	succedere	_	V	_	107	ccomp	_	_
112	alla	alla	_	E+RD	_	113	case	_	_
113	fine	fine	_	S	_	111	nmod	_	_
114	era	essere	_	VA	_	115	aux	_	_
115	successo	succedere	_	V	_	111	advcl	_	_
116	che	che	_	CS	_	122	mark	_	_
117	il	il	_	RD	_	118	det	_	_
118	bambino	bambino	_	S	_	122	nsubj	_	_
119	di	di	_	E	_	120	case	_	_
120	prima	primo	_	NO	_	118	nmod	_	_
121	aveva	avere	_	VA	_	122	aux	_	_
122	picchiato	picchiare	_	V	_	115	advcl	_	_
123	la	la	_	RD	_	124	det	_	_
124	sorella	sorella	_	S	_	122	dobj	_	_
125	del	del	_	E+RD	_	126	case	_	_
126	bambino	bambino	_	S	_	124	nmod	_	_
127	di	di	_	E	_	128	case	_	_
128	seconda	secondo	_	NO	_	126	nmod	_	_
129	allora	allora	_	B	_	122	advmod	_	_
130	ho	avere	_	VA	_	132	aux	_	_
131	voluto	volere	_	VM	_	132	aux	_	_
132	difenderla	difendere	_	V+PC	_	122	advcl	_	_
133	anche	anche	_	B	_	132	advmod	_	_
134	se	se	_	CS	_	139	mark	_	_
135	la	la	_	RD	_	136	det	_	_
136	sorella	sorella	_	S	_	139	nsubj	_	_
137	era	essere	_	V	_	139	cop	_	_
138	più	più	_	B	_	139	advmod	_	_
139	grande	grande	_	A	_	145	advcl	_	_
140	invece	invece	_	E	_	141	case	_	_
141	quelli	quelli	_	PD	_	139	nmod	_	_
142	diprima	diprima	_	V	_	141	acl	_	_
143	uno	un	_	RI	_	145	det	_	_
144	ha	avere	_	VA	_	145	aux	_	_
145	detto	dire	_	V	_	132	xcomp	_	_
146	che	che	_	CS	_	150	mark	_	_
147	non	non	_	BN	_	150	neg	_	_
148	gli	gli	_	PC	_	150	iobj	_	_
149	ha	avere	_	VA	_	150	aux	_	_
150	fatto	fare	_	V	_	145	ccomp	_	_
151	gnente	gnente	_	B	_	150	advmod	_	_
152	mentre	mentre	_	CS	_	156	mark	_	_
153	l'	l'	_	RD	_	154	det	_	_
154	altro	altro	_	PI	_	156	nsubj	_	_
155	ha	avere	_	VA	_	156	aux	_	_
156	detto	dire	_	V	_	172	advcl	_	_
157	che	che	_	CS	_	164	mark	_	_
158	mentre	mentre	_	CS	_	159	mark	_	_
159	giocava	giocare	_	V	_	164	advcl	_	_
160	a	a	_	E	_	161	case	_	_
161	calcio	calcio	_	S	_	159	nmod	_	_
162	gli	gli	_	PC	_	164	iobj	_	_
163	ha	avere	_	VA	_	164	aux	_	_
164	tirato	tirare	_	V	_	156	ccomp	_	_
165	una	una	_	RI	_	166	det	_	_
166	pallonata	pallonata	_	S	_	164	dobj	_	_
167	dopo	dopo	_	E	_	168	case	_	_
168	quello	quello	_	PD	_	166	nmod	_	_
169	di	di	_	E	_	170	case	_	_
170	seconda	secondo	_	NO	_	168	nmod	_	_
171	ha	avere	_	VA	_	172	aux	_	_
172	detto	dire	_	V	_	150	ccomp	_	_
173	ancora	ancora	_	B	_	172	advmod	_	_
174	che	che	_	CS	_	176	mark	_	_
175	c'	c'	_	PC	_	176	expl	_	_
176	è	essere	_	V	_	173	ccomp	_	_
177	bisogno	bisogno	_	S	_	176	nsubj	_	_
178	di	di	_	E	_	179	case	_	_
179	rispetto	rispetto	_	B	_	177	advmod	_	_
180	per	per	_	E	_	182	case	_	_
181	i	il	_	RD	_	182	det	_	_
182	piu	più	_	S	_	179	nmod	_	_
183	grandi	grande	_	A	_	182	amod	_	_
184	dopo	dopo	_	E	_	187	mark	_	_
185	gli	gli	_	PC	_	187	iobj	_	_
186	ho	avere	_	VA	_	187	aux	_	_
187	detto	dire	_	V	_	183	acl	_	_
188	che	che	_	CS	_	187	xcomp	_	_
189	se	se	_	CS	_	192	mark	_	_
190	vuole	volere	_	VM	_	192	aux	_	_
191	essere	essere	_	VA	_	192	auxpass	_	_
192	considerat	considerat	_	V	_	188	advcl	_	_
193	grande	grande	_	A	_	192	xcomp	_	_
194	di	di	_	E	_	195	mark	_	_
195	comportarsi	comportare	_	V+PC	_	193	ccomp	_	_
196	come	come	_	E	_	197	case	_	_
197	tale	tale	_	PD	_	195	nmod	_	_
198	,	[PUNCT]	_	FF	_	195	punct	_	_
199	in	in	_	E	_	202	case	_	_
200	un	un	_	RI	_	202	det	_	_
201	certo	certo	_	A	_	202	amod	_	_
202	senso	senso	_	S	_	195	nmod	_	_
203	o	o	_	CC	_	202	cc	_	_
204	difeso	difendere	_	V	_	202	conj	_	_
205	il	il	_	RD	_	206	det	_	_
206	bambino	bambino	_	S	_	204	dobj	_	_
207	che	che	_	PR	_	210	nsubjpass	_	_
208	è	essere	_	VA	_	210	aux	_	_
209	stato	essere	_	VA	_	210	auxpass	_	_
210	attacato	attacato	_	V	_	206	acl:relcl	_	_
211	quindi	quindi	_	B	_	210	advmod	_	_
212	gli	il	_	RD	_	213	det	_	_
213	altri	altri	_	PI	_	218	dobj	_	_
214	tre	tre	_	N	_	218	nsubj	_	_
215	se	se	_	PC	_	218	expl	_	_
216	la	la	_	PC	_	218	dobj	_	_
217	son	essere	_	VA	_	218	aux	_	_
218	presi	prendere	_	V	_	210	advcl	_	_
219	con	con	_	E	_	220	case	_	_
220	me.	me.	_	S	_	218	nmod	_	_
221	INSEGNAMENTO	INSEGNAMENTO	_	SP	_	220	nmod	_	_
222	Ho	avere	_	VA	_	223	aux	_	_
223	imparato	imparare	_	V	_	218	advcl	_	_
224	che	che	_	CS	_	231	mark	_	_
225	in	in	_	E	_	227	case	_	_
226	certe	certo	_	DI	_	227	det	_	_
227	faccende	faccenda	_	S	_	231	nmod	_	_
228	é	essere	_	E	_	229	case	_	_
229	meglio	meglio	_	S	_	227	nmod	_	_
230	non	non	_	BN	_	231	neg	_	_
231	intromettersi	intromettere	_	V+PC	_	242	advcl	_	_
232	perché	perché	_	B	_	231	advmod	_	_
233	se	se	_	CS	_	236	mark	_	_
234	no	no	_	BN	_	236	neg	_	_
235	si	si	_	PC	_	236	expl:impers	_	_
236	paga	pagare	_	V	_	242	advcl	_	_
237	come	come	_	B	_	236	advmod	_	_
238	nel	nel	_	E+RD	_	240	case	_	_
239	mio	mio	_	AP	_	240	det:poss	_	_
240	esempio	esempio	_	S	_	242	nmod	_	_
241	tutti	tutti	_	PI	_	242	nsubj	_	_
242	eano	eano	_	V	_	223	ccomp	_	_
243	contro	contro	_	E	_	245	case	_	_
244	di	di	_	E	_	243	mwe	_	_
245	me.	me.	_	S	_	242	nmod	_	_

