1	La	la	_	RD	_	2	det	_	_
2	partita	partita	_	S	_	0	root	_	_
3	di	di	_	E	_	4	case	_	_
4	calcio	calcio	_	S	_	2	nmod	_	_
5	–	–	_	FB	_	7	punct	_	_
6	Un	un	_	RI	_	7	det	_	_
7	sabato	sabato	_	S	_	2	nmod	_	_
8	mattina	mattina	_	S	_	7	compound	_	_
9	del	del	_	E+RD	_	10	case	_	_
10	12	12	_	N	_	7	nummod	_	_
11	aprile	aprile	_	S	_	10	nmod	_	_
12	la	la	_	RD	_	14	det	_	_
13	mia	mio	_	AP	_	14	det:poss	_	_
14	squadra	squadra	_	S	_	7	nmod	_	_
15	di	di	_	E	_	16	case	_	_
16	calcio	calcio	_	S	_	14	nmod	_	_
17	,	[PUNCT]	_	FF	_	14	punct	_	_
18	avevamo	avere	_	VA	_	20	aux	_	_
19	una	una	_	RI	_	20	det	_	_
20	partita	partita	_	S	_	14	appos	_	_
21	di	di	_	E	_	22	case	_	_
22	calcio	calcio	_	S	_	20	nmod	_	_
23	,	[PUNCT]	_	FF	_	14	punct	_	_
24	il	il	_	RD	_	25	det	_	_
25	ritrovo	ritrovo	_	S	_	26	nsubj	_	_
26	era	essere	_	V	_	14	conj	_	_
27	alla	alla	_	E+RD	_	28	case	_	_
28	chiesa	chiesa	_	S	_	26	nmod	_	_
29	di	di	_	E	_	30	case	_	_
30	Gerra	Gerra	_	SP	_	28	nmod	_	_
31	Piano	Piano	_	SP	_	30	name	_	_
32	,	[PUNCT]	_	FF	_	14	punct	_	_
33	solo	solo	_	B	_	36	advmod	_	_
34	che	che	_	CS	_	36	mark	_	_
35	c'	c'	_	PC	_	36	expl	_	_
36	erano	essere	_	V	_	14	advcl	_	_
37	poche	poco	_	DI	_	38	det	_	_
38	macchine	macchina	_	S	_	36	nsubj	_	_
39	anzi	anzi	_	B	_	45	advmod	_	_
40	non	non	_	BN	_	45	neg	_	_
41	erano	essere	_	V	_	45	cop	_	_
42	abbastanza	abbastanza	_	B	_	43	advmod	_	_
43	quindi	quindi	_	B	_	45	advmod	_	_
44	siamo	essere	_	VA	_	45	aux	_	_
45	andati	andare	_	V	_	36	advcl	_	_
46	in	in	_	E	_	47	case	_	_
47	bus	bus	_	S	_	45	nmod	_	_
48	.	[PUNCT]	_	FS	_	2	punct	_	_

49	Il	il	_	RD	_	50	det	_	_
50	bus	bus	_	S	_	53	nsubj	_	_
51	era	essere	_	V	_	53	cop	_	_
52	troppo	troppo	_	B	_	53	advmod	_	_
53	presto	presto	_	B	_	0	root	_	_
54	e	e	_	CC	_	53	cc	_	_
55	quindi	quindi	_	B	_	57	advmod	_	_
56	siamo	essere	_	VA	_	57	aux	_	_
57	arrivati	arrivare	_	V	_	53	conj	_	_
58	prima	prima	_	B	_	57	advmod	_	_
59	.	[PUNCT]	_	FS	_	53	punct	_	_

60	Quando	quando	_	B	_	62	advmod	_	_
61	sono	essere	_	VA	_	62	aux	_	_
62	arrivati	arrivare	_	V	_	0	root	_	_
63	gli	il	_	RD	_	64	det	_	_
64	altri	altri	_	PI	_	62	nsubj	_	_
65	,	[PUNCT]	_	FF	_	62	punct	_	_
66	l'	l'	_	RD	_	68	det	_	_
67	altra	altro	_	A	_	68	amod	_	_
68	squadra	squadra	_	S	_	62	nsubj	_	_
69	tutti	tutto	_	DI	_	70	det	_	_
70	noi	noi	_	PE	_	73	nsubj	_	_
71	ci	ci	_	PC	_	73	expl	_	_
72	siamo	essere	_	VA	_	73	aux	_	_
73	messi	mettere	_	V	_	68	acl	_	_
74	a	a	_	E	_	75	mark	_	_
75	ridere	ridere	_	V	_	73	xcomp	_	_
76	AH	AH	_	SP	_	75	dobj	_	_
77	AH	AH	_	SP	_	76	name	_	_
78	AH	AH	_	SP	_	76	name	_	_
79	AH	AH	_	SP	_	76	name	_	_
80	AH	AH	_	SP	_	76	name	_	_
81	AH	AH	_	SP	_	76	name	_	_
82	AH	AH	_	SP	_	76	name	_	_
83	.	[PUNCT]	_	FS	_	62	punct	_	_

84	Ops	Ops	_	SP	_	85	nsubj	_	_
85	scusate	scusare	_	V	_	0	root	_	_
86	non	non	_	BN	_	89	neg	_	_
87	mi	mi	_	PC	_	89	expl	_	_
88	sono	essere	_	VA	_	89	auxpass	_	_
89	presentato	presentare	_	V	_	102	advcl	_	_
90	io	io	_	PE	_	102	nsubj	_	_
91	sono	essere	_	VA	_	102	aux	_	_
92	Litbgu	Litbgu	_	SP	_	102	nmod	_	_
93	un	un	_	RI	_	94	det	_	_
94	nome	nome	_	S	_	102	nsubj	_	_
95	bellissimo	bello	_	A	_	94	amod	_	_
96	io	io	_	PE	_	97	nsubj	_	_
97	gioco	gioco	_	S	_	94	compound	_	_
98	nel	nel	_	E+RD	_	99	case	_	_
99	A.C.	A.C.	_	SP	_	94	nmod	_	_
100	BELLINZONA	BELLINZONA	_	SP	_	99	name	_	_
101	oggi	oggi	_	B	_	102	advmod	_	_
102	giochiamo	giocare	_	V	_	85	advcl	_	_
103	contro	contro	_	E	_	105	case	_	_
104	il	il	_	RD	_	105	det	_	_
105	SASSARIENTE	SASSARIENTE	_	SP	_	102	nmod	_	_
106	.	[PUNCT]	_	FS	_	85	punct	_	_

107	Sará	Sará	_	SP	_	0	root	_	_
108	una	una	_	RI	_	109	det	_	_
109	partita	partita	_	S	_	107	nmod	_	_
110	facilisssssssssima	facilisssssssssima	_	A	_	109	amod	_	_
111	finceremo	finceremo	_	V	_	109	acl	_	_
112	sicuramente	sicuramente	_	B	_	114	advmod	_	_
113	100	100	_	N	_	114	nummod	_	_
114	%	[SYMBOL]	_	X	_	111	dobj	_	_
115	–	–	_	FF	_	109	punct	_	_
116	.	[PUNCT]	_	FS	_	109	punct	_	_

117	Ragazzi	ragazzo	_	S	_	118	nmod	_	_
118	vincere	vincere	_	V	_	124	advcl	_	_
119	vincere	vincere	_	V	_	118	ccomp	_	_
120	vincere	vincere	_	V	_	119	ccomp	_	_
121	vincere	vincere	_	V	_	120	ccomp	_	_
122	vincere	vincere	_	V	_	121	ccomp	_	_
123	dobbiamo	dovere	_	VM	_	124	aux	_	_
124	vincere	vincere	_	V	_	0	root	_	_
125	disse	dire	_	V	_	124	ccomp	_	_
126	l'	l'	_	RD	_	127	det	_	_
127	allenatore	allenatore	_	S	_	125	nsubj	_	_
128	del	del	_	E+RD	_	129	case	_	_
129	A.C.	A.C.	_	SP	_	127	nmod	_	_
130	BELLINZONA	BELLINZONA	_	SP	_	129	name	_	_
131	in	in	_	E	_	132	case	_	_
132	spogliatoio	spogliatoio	_	S	_	125	nmod	_	_
133	.	[PUNCT]	_	FS	_	124	punct	_	_

134	Oggi	oggi	_	B	_	135	advmod	_	_
135	commenterà	commentare	_	V	_	144	parataxis	_	_
136	la	la	_	RD	_	137	det	_	_
137	partita	partita	_	S	_	135	dobj	_	_
138	:	[PUNCT]	_	FC	_	135	punct	_	_
139	Beppe	Beppe	_	SP	_	144	nsubj	_	_
140	Bergomi	Bergomi	_	SP	_	139	name	_	_
141	,	[PUNCT]	_	FF	_	139	punct	_	_
142	sarà	essere	_	V	_	144	cop	_	_
143	una	una	_	RI	_	144	det	_	_
144	partita	partita	_	S	_	150	nmod	_	_
145	piena	pieno	_	A	_	144	amod	_	_
146	di	di	_	E	_	147	case	_	_
147	goal	goal	_	S	_	144	nmod	_	_
148	,	[PUNCT]	_	FF	_	144	punct	_	_
149	si	si	_	PC	_	150	expl	_	_
150	inizia	iniziare	_	V	_	0	root	_	_
151	tra	tra	_	E	_	152	case	_	_
152	:	[PUNCT]	_	FC	_	150	punct	_	_
153	tre	tre	_	N	_	152	nummod	_	_
154	,	[PUNCT]	_	FF	_	153	punct	_	_
155	due	due	_	N	_	153	compound	_	_
156	,	[PUNCT]	_	FF	_	153	punct	_	_
157	uno	uno	_	PI	_	153	parataxis	_	_
158	viaaaa	viaaaa	_	A	_	157	amod	_	_
159	é	é	_	SP	_	157	nmod	_	_
160	cominciata	cominciare	_	V	_	159	acl	_	_
161	!	[PUNCT]	_	FS	_	150	punct	_	_

162	dieci	dieci	_	N	_	163	nummod	_	_
163	minuti	minuto	_	S	_	167	nmod	_	_
164	dopo	dopo	_	B	_	163	advmod	_	_
165	non	non	_	BN	_	167	neg	_	_
166	sta	stare	_	VA	_	167	aux	_	_
167	andando	andare	_	V	_	0	root	_	_
168	come	come	_	CS	_	170	mark	_	_
169	dovrebbe	dovere	_	VM	_	170	aux	_	_
170	andare	andare	_	V	_	167	advcl	_	_
171	disse	dire	_	V	_	170	advcl	_	_
172	l'	l'	_	RD	_	173	det	_	_
173	allenatore	allenatore	_	S	_	171	dobj	_	_
174	del	del	_	E+RD	_	175	case	_	_
175	Belli	Belli	_	SP	_	173	nmod	_	_
176	stiamo	stare	_	V	_	173	acl	_	_
177	perdento	perdento	_	A	_	178	amod	_	_
178	3-0	3-0	_	N	_	179	nummod	_	_
179	disse	dire	_	V	_	176	ccomp	_	_
180	ancora	ancora	_	B	_	179	advmod	_	_
181	.	[PUNCT]	_	FS	_	167	punct	_	_

182	Un	un	_	RI	_	183	det	_	_
183	ora	ora	_	S	_	0	root	_	_
184	dopo	dopo	_	CS	_	189	mark	_	_
185	,	[PUNCT]	_	FF	_	189	punct	_	_
186	la	la	_	RD	_	187	det	_	_
187	partita	partita	_	S	_	189	nsubj	_	_
188	é	essere	_	VA	_	189	aux	_	_
189	finita	finire	_	V	_	183	acl	_	_
190	–	–	_	FB	_	191	punct	_	_
191	Sono	Sono	_	SP	_	189	nmod	_	_
192	Beppe	Beppe	_	SP	_	191	name	_	_
193	.	[PUNCT]	_	FS	_	183	punct	_	_

194	B	B	_	SP	_	198	nsubj	_	_
195	é	essere	_	VA	_	198	aux	_	_
196	stata	essere	_	V	_	198	cop	_	_
197	una	una	_	RI	_	198	det	_	_
198	partita	partita	_	S	_	212	nmod	_	_
199	ultra	ultra	_	A	_	198	amod	_	_
200	bella	bello	_	A	_	198	amod	_	_
201	il	il	_	RD	_	202	det	_	_
202	risultato	risultato	_	S	_	212	nsubj	_	_
203	finale	finale	_	A	_	202	amod	_	_
204	4-1	4-1	_	N	_	202	nummod	_	_
205	per	per	_	E	_	210	case	_	_
206	il	il	_	RD	_	210	det	_	_
207	,	[PUNCT]	_	FF	_	206	punct	_	_
208	un	un	_	RI	_	210	det	_	_
209	po'	po'	_	B	_	210	advmod	_	_
210	suspence	suspence	_	S	_	202	nmod	_	_
211	ha	avere	_	VA	_	212	aux	_	_
212	vinto	vincere	_	V	_	0	root	_	_
213	il	il	_	RD	_	214	det	_	_
214	Sassariente	Sassariente	_	SP	_	212	dobj	_	_
215	YEA	YEA	_	S	_	214	name	_	_
216	.	[PUNCT]	_	FS	_	212	punct	_	_

217	Ragazzi	ragazzo	_	S	_	220	nsubj	_	_
218	vi	vi	_	PC	_	220	iobj	_	_
219	ho	avere	_	VA	_	220	aux	_	_
220	detto	dire	_	V	_	0	root	_	_
221	di	di	_	E	_	223	mark	_	_
222	non	non	_	BN	_	223	neg	_	_
223	sottuvalutare	sottuvalutare	_	V	_	220	advcl	_	_
224	mai	mai	_	B	_	223	advmod	_	_
225	l'	l'	_	RD	_	226	det	_	_
226	avversario	avversario	_	S	_	223	dobj	_	_
227	disse	dire	_	V	_	223	advcl	_	_
228	urlando	urlare	_	V	_	227	ccomp	_	_
229	l'	l'	_	RD	_	230	det	_	_
230	allenatore	allenatore	_	S	_	228	dobj	_	_
231	del	del	_	E+RD	_	232	case	_	_
232	Belli	Belli	_	SP	_	230	nmod	_	_
233	.	[PUNCT]	_	FS	_	220	punct	_	_

234	–	–	_	FB	_	239	punct	_	_
235	Qui	qui	_	B	_	239	advmod	_	_
236	in	in	_	E	_	237	case	_	_
237	linea	linea	_	S	_	239	nmod	_	_
238	c'	c'	_	PC	_	239	expl	_	_
239	é	essere	_	V	_	0	root	_	_
240	Beppe	Beppe	_	SP	_	239	nsubj	_	_
241	.	[PUNCT]	_	FS	_	239	punct	_	_

242	B	B	_	SP	_	247	nsubj	_	_
243	oltre	oltre	_	B	_	247	advmod	_	_
244	che	che	_	CS	_	243	mwe	_	_
245	pioveva	piovere	_	V	_	247	nsubj	_	_
246	hanno	avere	_	VA	_	247	aux	_	_
247	giocato	giocare	_	V	_	0	root	_	_
248	alla	alla	_	E+RD	_	250	case	_	_
249	prossima	prossimo	_	A	_	250	amod	_	_
250	ciao	ciao	_	S	_	247	nmod	_	_
251	!	[PUNCT]	_	FS	_	247	punct	_	_

