1	Lugano-San	Lugano-San	_	SP	_	3	nsubj	_	_
2	Gallo	Gallo	_	SP	_	1	name	_	_
3	Ero	essere	_	V	_	20	nsubj	_	_
4	a	a	_	E	_	5	case	_	_
5	Lugano	Lugano	_	SP	_	3	nmod	_	_
6	con	con	_	E	_	8	case	_	_
7	mio	mio	_	AP	_	8	det:poss	_	_
8	nonno	nonno	_	S	_	3	nmod	_	_
9	per	per	_	E	_	10	mark	_	_
10	vedere	vedere	_	V	_	20	advcl	_	_
11	la	la	_	RD	_	12	det	_	_
12	partita	partita	_	S	_	10	dobj	_	_
13	di	di	_	E	_	14	case	_	_
14	calcio	calcio	_	S	_	12	nmod	_	_
15	Lugano-San	Lugano-San	_	SP	_	14	nmod	_	_
16	Gallo	Gallo	_	SP	_	15	name	_	_
17	,	[PUNCT]	_	FF	_	10	punct	_	_
18	erano	essere	_	V	_	20	cop	_	_
19	le	la	_	RD	_	20	det	_	_
20	20	20	_	N	_	0	root	_	_
21	:	[PUNCT]	_	FC	_	20	punct	_	_
22	00	00	_	N	_	24	nummod	_	_
23	,	[PUNCT]	_	FF	_	22	punct	_	_
24	scendo	scendere	_	V	_	20	acl:relcl	_	_
25	dall'	dall'	_	E+RD	_	26	case	_	_
26	auto	auto	_	S	_	24	nmod	_	_
27	per	per	_	E	_	28	mark	_	_
28	dirigermi	dirigere	_	V+PC	_	24	advcl	_	_
29	allo	al	_	E+RD	_	30	case	_	_
30	stadio	stadio	_	S	_	28	nmod	_	_
31	.	[PUNCT]	_	FS	_	20	punct	_	_

32	Presi	prendere	_	V	_	36	dobj	_	_
33	i	il	_	RD	_	34	det	_	_
34	biglietti	biglietto	_	S	_	36	nsubj	_	_
35	siamo	essere	_	V	_	36	cop	_	_
36	entrati	entrare	_	V	_	0	root	_	_
37	nello	nel	_	E+RD	_	38	case	_	_
38	stadio	stadio	_	S	_	36	nmod	_	_
39	,	[PUNCT]	_	FF	_	36	punct	_	_
40	poi	poi	_	B	_	43	advmod	_	_
41	ci	ci	_	PC	_	43	expl	_	_
42	siamo	essere	_	VA	_	43	aux	_	_
43	diretti	dirigere	_	V	_	36	advcl	_	_
44	alle	alla	_	E+RD	_	45	case	_	_
45	sedie	sedia	_	S	_	43	nmod	_	_
46	della	della	_	E+RD	_	47	case	_	_
47	curva	curva	_	S	_	45	nmod	_	_
48	ovest	ovest	_	S	_	47	compound	_	_
49	,	[PUNCT]	_	FF	_	43	punct	_	_
50	soppranome	soppranome	_	CS	_	43	conj	_	_
51	monte	monte	_	S	_	50	nmod	_	_
52	San	San	_	SP	_	51	nmod	_	_
53	Giorgio	Giorgio	_	SP	_	52	name	_	_
54	.	[PUNCT]	_	FS	_	36	punct	_	_

55	Alle	alla	_	E+RD	_	56	case	_	_
56	21	21	_	N	_	61	nummod	_	_
57	:	[PUNCT]	_	FC	_	56	punct	_	_
58	00	00	_	N	_	61	nummod	_	_
59	l'	l'	_	RD	_	60	det	_	_
60	arbitro	arbitro	_	S	_	61	nsubj	_	_
61	fischia	fischiare	_	V	_	69	advcl	_	_
62	il	il	_	RD	_	63	det	_	_
63	calcio	calcio	_	S	_	61	dobj	_	_
64	d'	da	_	E	_	65	case	_	_
65	inizio	inizio	_	S	_	63	nmod	_	_
66	,	[PUNCT]	_	FF	_	61	punct	_	_
67	la	la	_	RD	_	68	det	_	_
68	partita	partita	_	S	_	69	nsubj	_	_
69	continuava	continuare	_	V	_	0	root	_	_
70	sempre	sempre	_	B	_	69	advmod	_	_
71	con	con	_	E	_	72	case	_	_
72	tiri	tiro	_	S	_	69	nmod	_	_
73	in	in	_	E	_	74	case	_	_
74	porta	porta	_	S	_	72	nmod	_	_
75	ma	ma	_	CC	_	69	cc	_	_
76	non	non	_	BN	_	78	neg	_	_
77	ne	ne	_	PC	_	78	advmod	_	_
78	entrava	entrare	_	V	_	69	conj	_	_
79	nessuno	nessuno	_	PI	_	78	dobj	_	_
80	.	[PUNCT]	_	FS	_	69	punct	_	_

81	Piiiip	Piiiip	_	S	_	0	root	_	_
82	fischio	fischio	_	S	_	81	compound	_	_
83	di	di	_	E	_	84	case	_	_
84	fine	fine	_	S	_	81	nmod	_	_
85	primo	primo	_	A	_	86	amod	_	_
86	tempo	tempo	_	S	_	84	nmod	_	_
87	.	[PUNCT]	_	FS	_	81	punct	_	_

88	Piiip	Piiip	_	S	_	110	nsubj	_	_
89	fischio	fischio	_	S	_	88	compound	_	_
90	di	di	_	E	_	91	case	_	_
91	calcio	calcio	_	S	_	88	nmod	_	_
92	d'	da	_	E	_	93	case	_	_
93	inizio	inizio	_	S	_	91	nmod	_	_
94	secondo	secondo	_	E	_	95	case	_	_
95	tempo	tempo	_	S	_	88	nmod	_	_
96	,	[PUNCT]	_	FF	_	88	punct	_	_
97	ad	ad	_	E	_	100	case	_	_
98	un	un	_	RI	_	100	det	_	_
99	certo	certo	_	A	_	100	amod	_	_
100	punto	punto	_	S	_	110	nmod	_	_
101	il	il	_	RD	_	102	det	_	_
102	giocatore	giocatore	_	S	_	110	nsubj	_	_
103	con	con	_	E	_	105	case	_	_
104	la	la	_	RD	_	105	det	_	_
105	maglia	maglia	_	S	_	102	nmod	_	_
106	numero	numero	_	S	_	105	compound	_	_
107	11	11	_	N	_	106	nummod	_	_
108	del	del	_	E+RD	_	109	case	_	_
109	Lugano	Lugano	_	SP	_	105	nmod	_	_
110	segna	segnare	_	V	_	0	root	_	_
111	.	[PUNCT]	_	FS	_	110	punct	_	_

112	I	il	_	RD	_	113	det	_	_
113	tifosi	tifoso	_	S	_	142	nsubj	_	_
114	del	del	_	E+RD	_	115	case	_	_
115	Lugano	Lugano	_	SP	_	113	nmod	_	_
116	inziano	inziano	_	A	_	115	amod	_	_
117	ad	ad	_	E	_	118	mark	_	_
118	urlare	urlare	_	V	_	113	acl	_	_
119	di	di	_	E	_	120	case	_	_
120	felicità	felicità	_	S	_	118	nmod	_	_
121	,	[PUNCT]	_	FF	_	113	punct	_	_
122	e	e	_	CC	_	113	cc	_	_
123	lí	lí	_	B	_	124	advmod	_	_
124	scoppia	scoppiare	_	V	_	113	conj	_	_
125	la	la	_	RD	_	126	det	_	_
126	scintilla	scintilla	_	S	_	124	nsubj	_	_
127	,	[PUNCT]	_	FF	_	113	punct	_	_
128	gli	il	_	RD	_	129	det	_	_
129	ultras	ultras	_	S	_	142	nsubj	_	_
130	del	del	_	E+RD	_	131	case	_	_
131	San	San	_	SP	_	129	nmod	_	_
132	gallo	gallo	_	S	_	131	name	_	_
133	(	[PUNCT]	_	FB	_	134	punct	_	_
134	ultras	ultras	_	S	_	129	appos	_	_
135	:	[PUNCT]	_	FC	_	134	punct	_	_
136	tifosi	tifoso	_	S	_	134	conj	_	_
137	maleducati	maleducato	_	A	_	136	amod	_	_
138	di	di	_	E	_	140	case	_	_
139	una	una	_	RI	_	140	det	_	_
140	squadra	squadra	_	S	_	136	nmod	_	_
141	)	[PUNCT]	_	FB	_	134	punct	_	_
142	iniziano	iniziare	_	V	_	0	root	_	_
143	a	a	_	E	_	144	mark	_	_
144	dire	dire	_	V	_	142	xcomp	_	_
145	parole	parola	_	S	_	144	dobj	_	_
146	volgari	volgare	_	S	_	145	compound	_	_
147	al	al	_	E+RD	_	148	case	_	_
148	Lugano	Lugano	_	SP	_	152	nmod	_	_
149	io	io	_	PE	_	148	name	_	_
150	subito	subito	_	B	_	152	advmod	_	_
151	mi	mi	_	PC	_	152	dobj	_	_
152	metto	mettere	_	V	_	144	xcomp	_	_
153	a	a	_	E	_	154	mark	_	_
154	pensare	pensare	_	V	_	152	xcomp	_	_
155	ad	ad	_	E	_	157	case	_	_
156	una	una	_	RI	_	157	det	_	_
157	frase	frase	_	S	_	154	nmod	_	_
158	che	che	_	PR	_	160	nsubj	_	_
159	non	non	_	BN	_	160	neg	_	_
160	sia	essere	_	V	_	157	acl:relcl	_	_
161	volgare	volgare	_	V	_	160	xcomp	_	_
162	,	[PUNCT]	_	FF	_	142	punct	_	_
163	penso	pensare	_	V	_	142	advcl	_	_
164	penso	pensare	_	V	_	163	ccomp	_	_
165	penso	pensare	_	V	_	164	ccomp	_	_
166	…	…	_	FF	_	165	punct	_	_
167	niente	niente	_	PI	_	165	nsubj	_	_
168	allora	allora	_	B	_	169	advmod	_	_
169	continuo	continuo	_	A	_	167	amod	_	_
170	a	a	_	E	_	171	mark	_	_
171	seguire	seguire	_	V	_	169	acl	_	_
172	la	la	_	RD	_	173	det	_	_
173	partita	partita	_	S	_	171	dobj	_	_
174	,	[PUNCT]	_	FF	_	171	punct	_	_
175	dopo	dopo	_	E	_	177	case	_	_
176	un	un	_	RI	_	177	det	_	_
177	po'	po'	_	S	_	171	nmod	_	_
178	di	di	_	E	_	179	case	_	_
179	minuti	minuto	_	S	_	177	nmod	_	_
180	goal	goal	_	A	_	179	amod	_	_
181	e	e	_	CC	_	177	cc	_	_
182	gli	il	_	RD	_	183	det	_	_
183	ultras	ultras	_	S	_	177	conj	_	_
184	riniziano	riniziano	_	A	_	183	amod	_	_
185	bla	bla	_	V	_	183	acl	_	_
186	bla	bla	_	S	_	187	nsubj	_	_
187	bla	bla	_	V	_	185	xcomp	_	_
188	sempre	sempre	_	B	_	187	advmod	_	_
189	le	la	_	RD	_	191	det	_	_
190	solite	solito	_	A	_	191	amod	_	_
191	cose	cosa	_	S	_	187	dobj	_	_
192	,	[PUNCT]	_	FF	_	187	punct	_	_
193	e	e	_	CC	_	187	cc	_	_
194	dopo	dopo	_	B	_	196	advmod	_	_
195	ancora	ancora	_	B	_	196	advmod	_	_
196	goal	goal	_	A	_	187	conj	_	_
197	da	da	_	E	_	198	case	_	_
198	parte	parte	_	S	_	196	nmod	_	_
199	del	del	_	E+RD	_	200	case	_	_
200	Lugano	Lugano	_	SP	_	198	nmod	_	_
201	e	e	_	CC	_	177	cc	_	_
202	che	che	_	CS	_	203	mark	_	_
203	bello	bello	_	S	_	177	conj	_	_
204	3	3	_	N	_	203	nummod	_	_
205	a	a	_	E	_	206	case	_	_
206	0	0	_	N	_	203	nummod	_	_
207	per	per	_	E	_	209	case	_	_
208	il	il	_	RD	_	209	det	_	_
209	Lugano	Lugano	_	SP	_	203	nmod	_	_
210	che	che	_	PR	_	212	dobj	_	_
211	io	io	_	PE	_	212	nsubj	_	_
212	pensavo	pensare	_	V	_	209	acl:relcl	_	_
213	che	che	_	CS	_	215	mark	_	_
214	era	essere	_	V	_	215	cop	_	_
215	impossibile	impossibile	_	A	_	232	advcl	_	_
216	batterli	battere	_	V+PC	_	232	advcl	_	_
217	perché	perché	_	CS	_	221	mark	_	_
218	il	il	_	RD	_	219	det	_	_
219	San	San	_	SP	_	221	nsubj	_	_
220	Gallo	Gallo	_	SP	_	219	name	_	_
221	è	essere	_	V	_	232	advcl	_	_
222	in	in	_	E	_	223	case	_	_
223	classifica	classifica	_	S	_	221	nmod	_	_
224	al	al	_	E+RD	_	226	case	_	_
225	primo	primo	_	NO	_	226	amod	_	_
226	posto	posto	_	S	_	232	nmod	_	_
227	bom	bom	_	SW	_	232	nsubj	_	_
228	dopo	dopo	_	E	_	230	case	_	_
229	il	il	_	RD	_	230	det	_	_
230	San	San	_	SP	_	232	nmod	_	_
231	Gallo	Gallo	_	SP	_	230	name	_	_
232	fa	fare	_	V	_	212	ccomp	_	_
233	il	il	_	RD	_	235	det	_	_
234	primo	primo	_	NO	_	235	amod	_	_
235	goal	goal	_	S	_	232	dobj	_	_
236	e	e	_	CC	_	212	cc	_	_
237	adesso	adesso	_	B	_	239	advmod	_	_
238	mi	mi	_	PC	_	239	iobj	_	_
239	viene	venire	_	V	_	212	conj	_	_
240	in	in	_	E	_	241	case	_	_
241	mente	mente	_	S	_	239	nmod	_	_
242	una	una	_	RI	_	243	det	_	_
243	frase	frase	_	S	_	239	nsubj	_	_
244	:	[PUNCT]	_	FC	_	142	punct	_	_
245	voi	voi	_	PE	_	247	nsubj	_	_
246	siete	essere	_	V	_	247	cop	_	_
247	forti	forte	_	A	_	142	advcl	_	_
248	nelle	nella	_	E+RD	_	249	case	_	_
249	parole	parola	_	S	_	247	nmod	_	_
250	e	e	_	CC	_	249	cc	_	_
251	vi	vi	_	PC	_	252	iobj	_	_
252	vantate	vantare	_	V	_	249	conj	_	_
253	che	che	_	CS	_	256	mark	_	_
254	nessuno	nessuno	_	PI	_	256	nsubj	_	_
255	vi	vi	_	PC	_	256	advmod	_	_
256	batte	battere	_	V	_	247	advcl	_	_
257	ma	ma	_	CC	_	256	cc	_	_
258	poi	poi	_	B	_	260	advmod	_	_
259	dovete	dovere	_	VM	_	260	aux	_	_
260	dimostrarlo	dimostrare	_	V+PC	_	256	conj	_	_
261	,	[PUNCT]	_	FF	_	256	punct	_	_
262	e	e	_	CC	_	256	cc	_	_
263	dopo	dopo	_	CS	_	267	mark	_	_
264	alla	alla	_	E+RD	_	265	case	_	_
265	fine	fine	_	S	_	267	nmod	_	_
266	si	si	_	PC	_	267	expl:impers	_	_
267	viene	venire	_	V	_	256	conj	_	_
268	a	a	_	E	_	269	mark	_	_
269	sapere	sapere	_	V	_	267	xcomp	_	_
270	tutta	tutto	_	T	_	272	det:predet	_	_
271	la	la	_	RD	_	272	det	_	_
272	veritá	veritá	_	S	_	269	dobj	_	_
273	.	[PUNCT]	_	FS	_	142	punct	_	_

274	Questa	questo	_	DD	_	275	det	_	_
275	scena	scena	_	S	_	277	nsubj	_	_
276	mi	mi	_	PC	_	277	iobj	_	_
277	fa	fare	_	V	_	0	root	_	_
278	pensare	pensare	_	V	_	277	ccomp	_	_
279	che	che	_	CS	_	282	mark	_	_
280	non	non	_	BN	_	282	neg	_	_
281	si	si	_	PC	_	282	expl:impers	_	_
282	puó	puó	_	V	_	278	ccomp	_	_
283	vantarsi	vantare	_	V+PC	_	282	advcl	_	_
284	e	e	_	CC	_	283	cc	_	_
285	basta	bastare	_	V	_	283	conj	_	_
286	ma	ma	_	CC	_	283	cc	_	_
287	bisogna	bisognare	_	V	_	283	conj	_	_
288	anche	anche	_	B	_	289	advmod	_	_
289	dimostrarlo	dimostrare	_	V+PC	_	287	ccomp	_	_
290	in	in	_	E	_	291	case	_	_
291	campo	campo	_	S	_	289	nmod	_	_
292	.	[PUNCT]	_	FS	_	277	punct	_	_

