1	Gara	gara	_	S	_	9	nsubj	_	_
2	d'	da	_	E	_	3	case	_	_
3	atletica	atletico	_	S	_	1	nmod	_	_
4	a	a	_	E	_	5	case	_	_
5	Bellinzona	Bellinzona	_	SP	_	1	nmod	_	_
6	Sabato	sabato	_	S	_	5	name	_	_
7	scorso	scorso	_	A	_	5	amod	_	_
8	c'	c'	_	PC	_	9	expl	_	_
9	era	essere	_	V	_	0	root	_	_
10	una	una	_	RI	_	11	det	_	_
11	gara	gara	_	S	_	9	dobj	_	_
12	d'	da	_	E	_	13	case	_	_
13	atletica	atletico	_	S	_	11	nmod	_	_
14	a	a	_	E	_	15	case	_	_
15	Bellinzona	Bellinzona	_	SP	_	11	nmod	_	_
16	.	[PUNCT]	_	FS	_	9	punct	_	_

17	Io	io	_	PE	_	21	nsubj	_	_
18	e	e	_	CC	_	17	cc	_	_
19	Mirco	Mirco	_	SP	_	17	conj	_	_
20	abbiamo	avere	_	VA	_	21	aux	_	_
21	partecipato	partecipare	_	V	_	0	root	_	_
22	.	[PUNCT]	_	FS	_	21	punct	_	_

23	Eravamo	essere	_	V	_	0	root	_	_
24	in	in	_	E	_	25	case	_	_
25	17	17	_	N	_	23	nummod	_	_
26	e	e	_	CC	_	23	cc	_	_
27	io	io	_	PE	_	29	nsubj	_	_
28	non	non	_	BN	_	29	neg	_	_
29	credevo	credere	_	V	_	23	conj	_	_
30	neanche	neanche	_	BN	_	29	dobj	_	_
31	di	di	_	E	_	32	case	_	_
32	essere	essere	_	V	_	30	nmod	_	_
33	nei	nel	_	E+RD	_	36	case	_	_
34	primi	primo	_	NO	_	36	amod	_	_
35	10	10	_	N	_	36	nummod	_	_
36	posti	posto	_	S	_	32	nmod	_	_
37	.	[PUNCT]	_	FS	_	23	punct	_	_

38	Alle	alla	_	E+RD	_	39	case	_	_
39	10.00	10.00	_	N	_	41	nummod	_	_
40	è	essere	_	VA	_	41	aux	_	_
41	cominciato	cominciare	_	V	_	0	root	_	_
42	il	il	_	RD	_	43	det	_	_
43	salto	salto	_	S	_	41	nsubjpass	_	_
44	in	in	_	E	_	45	case	_	_
45	lungo	lungo	_	S	_	43	nmod	_	_
46	.	[PUNCT]	_	FS	_	41	punct	_	_

47	Io	io	_	PE	_	49	nsubj	_	_
48	ho	avere	_	VA	_	49	aux	_	_
49	saltato	saltare	_	V	_	0	root	_	_
50	3	3	_	N	_	51	nummod	_	_
51	m	m	_	S	_	49	dobj	_	_
52	e	e	_	CC	_	51	cc	_	_
53	02	02	_	N	_	51	conj	_	_
54	.	[PUNCT]	_	FS	_	49	punct	_	_

55	Lo	il	_	RD	_	56	det	_	_
56	spicher	spicher	_	S	_	58	nsubj	_	_
57	ha	avere	_	VA	_	58	aux	_	_
58	annunciato	annunciare	_	V	_	0	root	_	_
59	che	che	_	CS	_	60	mark	_	_
60	ero	essere	_	VA	_	58	ccomp	_	_
61	al	al	_	E+RD	_	63	case	_	_
62	5	5	_	N	_	63	nummod	_	_
63	°	°	_	S	_	60	nmod	_	_
64	posto	posto	_	S	_	63	compound	_	_
65	.	[PUNCT]	_	FS	_	60	punct	_	_

66	A	a	_	E	_	68	case	_	_
67	quel	quello	_	DD	_	68	det	_	_
68	punto	punto	_	S	_	70	nmod	_	_
69	ho	avere	_	VA	_	70	aux	_	_
70	pensato	pensare	_	V	_	0	root	_	_
71	che	che	_	CS	_	73	mark	_	_
72	avevo	avere	_	VA	_	73	aux	_	_
73	cominciato	cominciare	_	V	_	70	ccomp	_	_
74	bene	bene	_	B	_	73	advmod	_	_
75	.	[PUNCT]	_	FS	_	70	punct	_	_

76	alle	alla	_	E+RD	_	77	case	_	_
77	11.00	11.00	_	N	_	0	root	_	_
78	la	la	_	RD	_	79	det	_	_
79	pallina	pallina	_	S	_	77	nsubj	_	_
80	,	[PUNCT]	_	FF	_	79	punct	_	_
81	la	la	_	RD	_	83	det	_	_
82	mia	mio	_	AP	_	83	det:poss	_	_
83	preferita	preferita	_	S	_	79	conj	_	_
84	.	[PUNCT]	_	FS	_	77	punct	_	_

85	Dovevo	dovere	_	VM	_	86	aux	_	_
86	tirare	tirare	_	V	_	0	root	_	_
87	quasi	quasi	_	B	_	89	advmod	_	_
88	per	per	_	E	_	89	case	_	_
89	ultimo	ultimo	_	S	_	86	nmod	_	_
90	,	[PUNCT]	_	FF	_	86	punct	_	_
91	invece	invece	_	B	_	92	advmod	_	_
92	Mirco	Mirco	_	SP	_	86	dobj	_	_
93	quasi	quasi	_	B	_	95	advmod	_	_
94	per	per	_	E	_	95	case	_	_
95	primo	primo	_	NO	_	92	nmod	_	_
96	.	[PUNCT]	_	FS	_	86	punct	_	_

97	Il	il	_	RD	_	99	det	_	_
98	primo	primo	_	NO	_	99	amod	_	_
99	tiro	tiro	_	S	_	100	nsubj	_	_
100	era	essere	_	V	_	0	root	_	_
101	attorno	attorno	_	B	_	104	case	_	_
102	ai	al	_	E+RD	_	101	mwe	_	_
103	26	26	_	N	_	104	nummod	_	_
104	metri	metro	_	S	_	100	nmod	_	_
105	,	[PUNCT]	_	FF	_	100	punct	_	_
106	il	il	_	RD	_	110	det	_	_
107	secondo	secondo	_	NO	_	110	amod	_	_
108	circa	circa	_	B	_	109	advmod	_	_
109	27	27	_	N	_	110	nummod	_	_
110	metri	metro	_	S	_	100	nmod	_	_
111	e	e	_	CC	_	110	cc	_	_
112	il	il	_	RD	_	116	det	_	_
113	terzo	terzo	_	NO	_	116	amod	_	_
114	addirittura	addirittura	_	B	_	115	advmod	_	_
115	28	28	_	N	_	116	nummod	_	_
116	metri	metro	_	S	_	110	conj	_	_
117	e	e	_	CC	_	110	cc	_	_
118	80	80	_	N	_	119	nummod	_	_
119	cm	cm	_	S	_	110	conj	_	_
120	.	[PUNCT]	_	FS	_	100	punct	_	_

121	Lo	il	_	RD	_	122	det	_	_
122	spicher	spicher	_	S	_	124	nsubj	_	_
123	ha	avere	_	VA	_	124	aux	_	_
124	annunciato	annunciare	_	V	_	0	root	_	_
125	che	che	_	CS	_	129	mark	_	_
126	con	con	_	E	_	128	case	_	_
127	questo	questo	_	DD	_	128	det	_	_
128	tiro	tiro	_	S	_	129	nmod	_	_
129	ero	essere	_	V	_	124	ccomp	_	_
130	al	al	_	E+RD	_	132	case	_	_
131	primo	primo	_	NO	_	132	amod	_	_
132	posto	posto	_	S	_	129	nmod	_	_
133	.	[PUNCT]	_	FS	_	124	punct	_	_

134	Prima	prima	_	B	_	136	case	_	_
135	della	della	_	E+RD	_	134	mwe	_	_
136	corsa	corsa	_	S	_	138	nmod	_	_
137	ho	avere	_	VA	_	138	aux	_	_
138	fatto	fare	_	V	_	0	root	_	_
139	pranzo	pranzo	_	S	_	138	dobj	_	_
140	.	[PUNCT]	_	FS	_	138	punct	_	_

141	Alle	alla	_	E+RD	_	142	case	_	_
142	11.45	11.45	_	N	_	145	nummod	_	_
143	la	la	_	RD	_	145	det	_	_
144	prima	primo	_	NO	_	145	amod	_	_
145	batteria	batteria	_	S	_	0	root	_	_
146	da	da	_	E	_	147	case	_	_
147	6	6	_	N	_	145	nummod	_	_
148	con	con	_	E	_	150	case	_	_
149	il	il	_	RD	_	150	det	_	_
150	Mirco	Mirco	_	SP	_	145	nmod	_	_
151	.	[PUNCT]	_	FS	_	145	punct	_	_

152	Nella	nella	_	E+RD	_	154	case	_	_
153	seconda	secondo	_	NO	_	154	amod	_	_
154	batteria	batteria	_	S	_	158	nmod	_	_
155	da	da	_	E	_	156	case	_	_
156	6	6	_	N	_	154	nummod	_	_
157	c'	c'	_	PC	_	158	expl	_	_
158	ero	essere	_	V	_	0	root	_	_
159	io	io	_	PE	_	158	nsubj	_	_
160	.	[PUNCT]	_	FS	_	158	punct	_	_

161	Nella	nella	_	E+RD	_	162	case	_	_
162	batteria	batteria	_	S	_	164	nmod	_	_
163	sono	essere	_	VA	_	164	aux	_	_
164	arrivato	arrivare	_	V	_	0	root	_	_
165	secondo	secondo	_	E	_	168	case	_	_
166	con	con	_	E	_	165	mwe	_	_
167	un	un	_	RI	_	168	det	_	_
168	tempo	tempo	_	S	_	164	nmod	_	_
169	di	di	_	E	_	170	case	_	_
170	10	10	_	N	_	168	nummod	_	_
171	,	[PUNCT]	_	FF	_	164	punct	_	_
172	48	48	_	N	_	173	nummod	_	_
173	secondi	secondo	_	S	_	164	nmod	_	_
174	.	[PUNCT]	_	FS	_	164	punct	_	_

175	Poi	poi	_	B	_	179	advmod	_	_
176	la	la	_	RD	_	178	det	_	_
177	terza	terzo	_	NO	_	178	amod	_	_
178	batteria	batteria	_	S	_	179	nsubj	_	_
179	era	essere	_	V	_	0	root	_	_
180	di	di	_	E	_	181	case	_	_
181	5	5	_	N	_	179	nmod	_	_
182	perchè	perché	_	CS	_	183	mark	_	_
183	eravamo	essere	_	V	_	179	advcl	_	_
184	in	in	_	E	_	185	case	_	_
185	17	17	_	N	_	183	nummod	_	_
186	.	[PUNCT]	_	FS	_	179	punct	_	_

187	Lo	il	_	RD	_	188	det	_	_
188	spicher	spicher	_	S	_	190	nsubj	_	_
189	ha	avere	_	VA	_	190	aux	_	_
190	annunciato	annunciare	_	V	_	0	root	_	_
191	che	che	_	CS	_	196	mark	_	_
192	in	in	_	E	_	193	case	_	_
193	tutto	tutto	_	PI	_	196	nmod	_	_
194	ero	essere	_	VA	_	196	cop	_	_
195	3	3	_	N	_	196	nummod	_	_
196	°	°	_	S	_	190	ccomp	_	_
197	.	[PUNCT]	_	FS	_	190	punct	_	_

198	Poi	poi	_	B	_	0	root	_	_
199	,	[PUNCT]	_	FF	_	198	punct	_	_
200	quando	quando	_	CS	_	203	mark	_	_
201	tutti	tutti	_	PI	_	203	nsubj	_	_
202	avevano	avere	_	VA	_	203	aux	_	_
203	finito	finire	_	V	_	198	advcl	_	_
204	di	di	_	E	_	205	mark	_	_
205	gareggiare	gareggiare	_	V	_	203	xcomp	_	_
206	,	[PUNCT]	_	FF	_	203	punct	_	_
207	la	la	_	RD	_	208	det	_	_
208	premiazione	premiazione	_	S	_	203	dobj	_	_
209	.	[PUNCT]	_	FS	_	198	punct	_	_

210	Hanno	avere	_	VA	_	211	aux	_	_
211	cominciato	cominciare	_	V	_	0	root	_	_
212	con	con	_	E	_	215	case	_	_
213	i	il	_	RD	_	215	det	_	_
214	più	più	_	B	_	215	advmod	_	_
215	piccoli	piccolo	_	A	_	222	amod	_	_
216	,	[PUNCT]	_	FF	_	215	punct	_	_
217	U8W	U8W	_	SP	_	215	conj	_	_
218	poi	poi	_	B	_	219	advmod	_	_
219	U8M	U8M	_	SP	_	217	name	_	_
220	e	e	_	CC	_	215	cc	_	_
221	cosi	così	_	A	_	215	conj	_	_
222	via	via	_	S	_	211	nsubj	_	_
223	.	[PUNCT]	_	FS	_	211	punct	_	_

224	Finalmente	finalmente	_	B	_	226	advmod	_	_
225	era	essere	_	VA	_	226	aux	_	_
226	arrivata	arrivare	_	V	_	0	root	_	_
227	la	la	_	RD	_	229	det	_	_
228	mia	mio	_	AP	_	229	det:poss	_	_
229	categoria	categoria	_	S	_	226	nsubj	_	_
230	.	[PUNCT]	_	FS	_	226	punct	_	_

231	Lo	il	_	RD	_	232	det	_	_
232	spicher	spicher	_	S	_	234	nsubj	_	_
233	ha	avere	_	VA	_	234	aux	_	_
234	cominciato	cominciare	_	V	_	0	root	_	_
235	dal	dal	_	E+RD	_	237	case	_	_
236	3	3	_	N	_	237	nummod	_	_
237	°	°	_	S	_	234	nmod	_	_
238	posto	porre	_	V	_	237	acl	_	_
239	.	[PUNCT]	_	FS	_	234	punct	_	_

240	Appunto	appunto	_	B	_	245	advmod	_	_
241	al	al	_	E+RD	_	243	case	_	_
242	terzo	terzo	_	NO	_	243	amod	_	_
243	posto	posto	_	S	_	245	nmod	_	_
244	è	essere	_	VA	_	245	aux	_	_
245	arrivato	arrivare	_	V	_	0	root	_	_
246	un	un	_	RI	_	247	det	_	_
247	ragazzo	ragazzo	_	S	_	245	nsubj	_	_
248	del	del	_	E+RD	_	249	case	_	_
249	Bellinzona	Bellinzona	_	SP	_	247	nmod	_	_
250	,	[PUNCT]	_	FF	_	245	punct	_	_
251	al	al	_	E+RD	_	252	case	_	_
252	secondo	secondo	_	E	_	254	case	_	_
253	un	un	_	RI	_	254	det	_	_
254	altro	altro	_	S	_	245	nmod	_	_
255	del	del	_	E+RD	_	256	case	_	_
256	Bellinzona	Bellinzona	_	SP	_	254	nmod	_	_
257	e	e	_	CC	_	256	cc	_	_
258	al	al	_	E+RD	_	259	case	_	_
259	primo	primo	_	NO	_	256	conj	_	_
260	io	io	_	PE	_	259	nmod	_	_
261	!	[PUNCT]	_	FS	_	245	punct	_	_

262	Questa	questo	_	DD	_	263	det	_	_
263	faccenda	faccenda	_	S	_	266	nsubj	_	_
264	mi	mi	_	PC	_	266	iobj	_	_
265	ha	avere	_	VA	_	266	aux	_	_
266	spiegato	spiegare	_	V	_	0	root	_	_
267	non	non	_	BN	_	271	neg	_	_
268	si	si	_	PC	_	271	expl:impers	_	_
269	deve	dovere	_	VM	_	271	aux	_	_
270	mai	mai	_	B	_	271	advmod	_	_
271	sottovalutare	sottovalutare	_	V	_	266	advcl	_	_
272	le	la	_	RD	_	274	det	_	_
273	proprie	proprio	_	AP	_	274	det:poss	_	_
274	capacità	capacità	_	S	_	271	dobj	_	_
275	.	[PUNCT]	_	FS	_	266	punct	_	_

