1	A	a	_	E	_	2	mark	_	_
2	pescare	pescare	_	V	_	0	root	_	_
3	col	col	_	E+RD	_	4	case	_	_
4	nonno	nonno	_	S	_	2	nmod	_	_
5	Un	un	_	RI	_	7	det	_	_
6	bel	bel	_	A	_	7	amod	_	_
7	giorno	giorno	_	S	_	4	nmod	_	_
8	decisi	deciso	_	A	_	7	amod	_	_
9	di	di	_	E	_	10	mark	_	_
10	andare	andare	_	V	_	7	acl	_	_
11	a	a	_	E	_	12	mark	_	_
12	pescare	pescare	_	V	_	10	xcomp	_	_
13	e	e	_	CC	_	10	cc	_	_
14	chiesi	chiedere	_	V	_	10	conj	_	_
15	a	a	_	E	_	17	case	_	_
16	mio	mio	_	AP	_	17	det:poss	_	_
17	nonno	nonno	_	S	_	14	nmod	_	_
18	se	se	_	CS	_	19	mark	_	_
19	veniva	venire	_	V	_	14	advcl	_	_
20	anche	anche	_	B	_	21	advmod	_	_
21	lui	lui	_	PE	_	19	nsubj	_	_
22	.	[PUNCT]	_	FS	_	2	punct	_	_

23	Accettó	Accettó	_	SP	_	0	root	_	_
24	e	e	_	CC	_	23	cc	_	_
25	andammo	andare	_	V	_	23	conj	_	_
26	al	al	_	E+RD	_	27	case	_	_
27	lago	lago	_	S	_	25	nmod	_	_
28	.	[PUNCT]	_	FS	_	23	punct	_	_

29	Quando	quando	_	B	_	30	advmod	_	_
30	arrivammo	arrivare	_	V	_	32	advcl	_	_
31	mi	mi	_	PC	_	32	expl	_	_
32	aiutó	aiutó	_	V	_	0	root	_	_
33	a	a	_	E	_	34	mark	_	_
34	preparare	preparare	_	V	_	32	xcomp	_	_
35	la	la	_	RD	_	36	det	_	_
36	canna	canna	_	S	_	34	dobj	_	_
37	da	da	_	E	_	38	case	_	_
38	pesca	pesca	_	S	_	34	nmod	_	_
39	e	e	_	CC	_	32	cc	_	_
40	cominciammo	cominciare	_	V	_	32	conj	_	_
41	a	a	_	E	_	42	mark	_	_
42	pescare	pescare	_	V	_	40	xcomp	_	_
43	.	[PUNCT]	_	FS	_	32	punct	_	_

44	Io	io	_	PE	_	49	nsubj	_	_
45	,	[PUNCT]	_	FF	_	44	punct	_	_
46	senza	senza	_	E	_	47	case	_	_
47	esperienza	esperienza	_	S	_	49	nmod	_	_
48	,	[PUNCT]	_	FF	_	47	punct	_	_
49	tiravo	tirare	_	V	_	0	root	_	_
50	svelto	svelto	_	S	_	49	dobj	_	_
51	il	il	_	RD	_	52	det	_	_
52	filo	filo	_	S	_	50	nmod	_	_
53	dopo	dopo	_	E	_	55	case	_	_
54	un	un	_	RI	_	55	det	_	_
55	lancio	lancio	_	S	_	52	nmod	_	_
56	e	e	_	CC	_	49	cc	_	_
57	non	non	_	BN	_	58	neg	_	_
58	pescavo	pescare	_	V	_	49	conj	_	_
59	nulla	nulla	_	PI	_	58	dobj	_	_
60	.	[PUNCT]	_	FS	_	49	punct	_	_

61	Mio	mio	_	AP	_	62	det:poss	_	_
62	nonno	nonno	_	S	_	67	nsubj	_	_
63	invece	invece	_	B	_	62	advmod	_	_
64	dopo	dopo	_	E	_	66	case	_	_
65	un	un	_	RI	_	66	det	_	_
66	lancio	lancio	_	S	_	67	nmod	_	_
67	aspettava	aspettare	_	V	_	0	root	_	_
68	anche	anche	_	B	_	69	advmod	_	_
69	3-4	3-4	_	N	_	70	nummod	_	_
70	minuti	minuto	_	S	_	67	dobj	_	_
71	,	[PUNCT]	_	FF	_	67	punct	_	_
72	prima	prima	_	B	_	74	mark	_	_
73	di	di	_	E	_	72	mwe	_	_
74	tirare	tirare	_	V	_	67	advcl	_	_
75	il	il	_	RD	_	76	det	_	_
76	filo	filo	_	S	_	74	dobj	_	_
77	e	e	_	CC	_	74	cc	_	_
78	prendeva	prendere	_	V	_	74	conj	_	_
79	molti	molto	_	DI	_	80	det	_	_
80	pesci	pesce	_	S	_	78	dobj	_	_
81	.	[PUNCT]	_	FS	_	67	punct	_	_

82	Vedendomi	Vedendomi	_	SP	_	89	nsubjpass	_	_
83	triste	triste	_	A	_	82	amod	_	_
84	venne	venire	_	VA	_	89	auxpass	_	_
85	da	da	_	E	_	86	case	_	_
86	me	me	_	PE	_	84	nmod	_	_
87	e	e	_	CC	_	84	cc	_	_
88	mi	mi	_	PC	_	89	iobj	_	_
89	disse	dire	_	V	_	0	root	_	_
90	“	“	_	FB	_	91	punct	_	_
91	Bisogna	bisognare	_	V	_	89	advcl	_	_
92	avere	avere	_	V	_	91	nsubj	_	_
93	PAZIENZA	PAZIENZA	_	SP	_	92	dobj	_	_
94	e	e	_	CC	_	92	cc	_	_
95	CALMA	CALMA	_	SP	_	92	conj	_	_
96	se	se	_	CS	_	98	mark	_	_
97	vuoi	volere	_	VM	_	98	aux	_	_
98	pescare	pescare	_	V	_	91	advcl	_	_
99	qualcosa	qualcosa	_	PI	_	98	dobj	_	_
100	”	”	_	FB	_	91	punct	_	_
101	.	[PUNCT]	_	FS	_	89	punct	_	_

102	Così	così	_	B	_	104	advmod	_	_
103	mi	mi	_	PC	_	104	expl	_	_
104	tornó	tornó	_	V	_	0	root	_	_
105	voglia	voglia	_	S	_	104	dobj	_	_
106	e	e	_	CC	_	105	cc	_	_
107	ributtai	ributtare	_	V	_	105	conj	_	_
108	il	il	_	RD	_	109	det	_	_
109	filo	filo	_	S	_	107	dobj	_	_
110	in	in	_	E	_	111	case	_	_
111	acqua	acqua	_	S	_	109	nmod	_	_
112	e	e	_	CC	_	104	cc	_	_
113	presi	prendere	_	V	_	104	conj	_	_
114	un	un	_	RI	_	115	det	_	_
115	pesciolino	pesciolino	_	S	_	113	dobj	_	_
116	.	[PUNCT]	_	FS	_	104	punct	_	_

117	Decisi	Decisi	_	SP	_	0	root	_	_
118	di	di	_	E	_	119	mark	_	_
119	darlo	dare	_	V+PC	_	117	acl	_	_
120	a	a	_	E	_	122	case	_	_
121	mio	mio	_	AP	_	122	det:poss	_	_
122	nonno	nonno	_	S	_	119	nmod	_	_
123	,	[PUNCT]	_	FF	_	117	punct	_	_
124	che	che	_	PR	_	126	nsubj	_	_
125	lo	lo	_	PC	_	126	dobj	_	_
126	usó	usó	_	V	_	117	acl:relcl	_	_
127	per	per	_	E	_	128	mark	_	_
128	prendere	prendere	_	V	_	126	advcl	_	_
129	un	un	_	RI	_	130	det	_	_
130	pesce	pesce	_	S	_	128	dobj	_	_
131	piú	più	_	A	_	130	amod	_	_
132	grande	grande	_	A	_	130	amod	_	_
133	.	[PUNCT]	_	FS	_	117	punct	_	_

134	Tornai	tornare	_	V	_	0	root	_	_
135	a	a	_	E	_	136	case	_	_
136	casa	casa	_	S	_	134	nmod	_	_
137	molto	molto	_	B	_	138	advmod	_	_
138	felice	felice	_	A	_	134	xcomp	_	_
139	perché	perché	_	CS	_	141	mark	_	_
140	avevo	avere	_	VA	_	141	aux	_	_
141	imparato	imparare	_	V	_	134	advcl	_	_
142	delle	della	_	E+RD	_	143	case	_	_
143	cose	cosa	_	S	_	141	nmod	_	_
144	che	che	_	PR	_	146	nsubj	_	_
145	non	non	_	BN	_	146	neg	_	_
146	servivano	servire	_	V	_	143	acl:relcl	_	_
147	solo	solo	_	B	_	146	advmod	_	_
148	per	per	_	E	_	151	mark	_	_
149	quando	quando	_	CS	_	148	mwe	_	_
150	si	si	_	PC	_	151	expl:impers	_	_
151	pesca	pesca	_	S	_	146	advcl	_	_
152	,	[PUNCT]	_	FF	_	141	punct	_	_
153	ma	ma	_	CC	_	141	cc	_	_
154	anche	anche	_	B	_	156	advmod	_	_
155	a	a	_	E	_	156	case	_	_
156	scuola	scuola	_	S	_	141	conj	_	_
157	.	[PUNCT]	_	FS	_	134	punct	_	_

158	Ho	avere	_	VA	_	159	aux	_	_
159	imparato	imparare	_	V	_	0	root	_	_
160	ad	ad	_	E	_	162	mark	_	_
161	:	[PUNCT]	_	FC	_	160	punct	_	_
162	avere	avere	_	V	_	159	xcomp	_	_
163	pazienza	pazienza	_	S	_	162	dobj	_	_
164	nei	nel	_	E+RD	_	165	case	_	_
165	lavori	lavoro	_	S	_	162	nmod	_	_
166	e	e	_	CC	_	159	cc	_	_
167	farli	fare	_	V+PC	_	159	conj	_	_
168	con	con	_	E	_	169	case	_	_
169	calma	calma	_	S	_	167	nmod	_	_
170	e	e	_	CC	_	169	cc	_	_
171	che	che	_	E	_	178	mark	_	_
172	da	da	_	E	_	174	case	_	_
173	una	una	_	RI	_	174	det	_	_
174	cosa	cosa	_	S	_	178	nmod	_	_
175	piccola	piccolo	_	A	_	174	amod	_	_
176	se	se	_	PC	_	178	expl	_	_
177	ne	ne	_	PC	_	178	advmod	_	_
178	puó	puó	_	V	_	169	conj	_	_
179	fare	fare	_	V	_	178	xcomp	_	_
180	una	una	_	RI	_	181	det	_	_
181	grande	grande	_	A	_	179	dobj	_	_
182	.	[PUNCT]	_	FS	_	159	punct	_	_

