1	La	la	_	RD	_	2	det	_	_
2	vincita	vincita	_	S	_	7	nmod	_	_
3	immediata	immediato	_	A	_	2	amod	_	_
4	La	la	_	RD	_	6	det	_	_
5	mia	mio	_	AP	_	6	det:poss	_	_
6	storia	storia	_	S	_	7	nsubj	_	_
7	inizia	iniziare	_	V	_	0	root	_	_
8	un	un	_	RI	_	9	det	_	_
9	giorno	giorno	_	S	_	7	nmod	_	_
10	quando	quando	_	CS	_	11	mark	_	_
11	stavo	stare	_	V	_	7	advcl	_	_
12	dormendo	dormire	_	V	_	11	xcomp	_	_
13	da	da	_	E	_	15	case	_	_
14	mio	mio	_	AP	_	15	det:poss	_	_
15	cugino	cugino	_	S	_	12	nmod	_	_
16	.	[PUNCT]	_	FS	_	7	punct	_	_

17	Eravamo	essere	_	V	_	0	root	_	_
18	nel	nel	_	E+RD	_	19	case	_	_
19	parchetto	parchetto	_	S	_	17	nmod	_	_
20	dove	dove	_	B	_	21	advmod	_	_
21	facevamo	fare	_	V	_	19	acl:relcl	_	_
22	sfide	sfida	_	S	_	21	dobj	_	_
23	di	di	_	E	_	24	case	_	_
24	parc-qur	parc-qur	_	S	_	22	nmod	_	_
25	.	[PUNCT]	_	FS	_	17	punct	_	_

26	La	la	_	RD	_	28	det	_	_
27	prima	primo	_	NO	_	28	amod	_	_
28	partita	partita	_	S	_	29	nsubj	_	_
29	consisteva	consistere	_	V	_	0	root	_	_
30	in	in	_	E	_	31	case	_	_
31	chi	chi	_	PR	_	29	nmod	_	_
32	saliva	salire	_	V	_	43	nsubj	_	_
33	piú	più	_	S	_	32	dobj	_	_
34	velocemente	velocemente	_	B	_	32	advmod	_	_
35	su	su	_	E	_	37	case	_	_
36	un	un	_	RI	_	37	det	_	_
37	albero	albero	_	S	_	32	nmod	_	_
38	e	e	_	CC	_	37	cc	_	_
39	i	il	_	RD	_	41	det	_	_
40	suoi	suo	_	AP	_	41	det:poss	_	_
41	secondi	secondo	_	S	_	37	conj	_	_
42	erano	essere	_	V	_	43	cop	_	_
43	12.56	12.56	_	N	_	31	acl:relcl	_	_
44	e	e	_	CC	_	43	cc	_	_
45	i	il	_	RD	_	48	det	_	_
46	miei	mio	_	AP	_	48	det:poss	_	_
47	erano	essere	_	VA	_	48	auxpass	_	_
48	7.02	7.02	_	N	_	43	conj	_	_
49	.	[PUNCT]	_	FS	_	29	punct	_	_

50	Poi	poi	_	B	_	52	advmod	_	_
51	mi	mi	_	PC	_	52	expl	_	_
52	sentivo	sentire	_	V	_	0	root	_	_
53	invincibile	invincibile	_	A	_	52	xcomp	_	_
54	:	[PUNCT]	_	FC	_	52	punct	_	_
55	la	la	_	RD	_	57	det	_	_
56	seconda	secondo	_	NO	_	57	amod	_	_
57	gara	gara	_	S	_	58	nsubj	_	_
58	consisteva	consistere	_	V	_	52	parataxis	_	_
59	a	a	_	E	_	60	mark	_	_
60	correre	correre	_	V	_	58	xcomp	_	_
61	10	10	_	N	_	62	nummod	_	_
62	volte	volta	_	S	_	60	nmod	_	_
63	su	su	_	E	_	65	case	_	_
64	circa	circa	_	B	_	65	advmod	_	_
65	10	10	_	N	_	60	nummod	_	_
66	m2	m2	_	N	_	65	mwe	_	_
67	;	[PUNCT]	_	FC	_	52	punct	_	_
68	e	e	_	CC	_	52	cc	_	_
69	là	là	_	B	_	71	advmod	_	_
70	era	essere	_	V	_	71	cop	_	_
71	pareggio	pareggio	_	A	_	52	conj	_	_
72	i	il	_	RD	_	73	det	_	_
73	secondi	secondo	_	S	_	71	nsubj	_	_
74	erano	essere	_	V	_	75	cop	_	_
75	35.92	35.92	_	N	_	71	nummod	_	_
76	.	[PUNCT]	_	FS	_	52	punct	_	_

77	Poi	poi	_	B	_	81	advmod	_	_
78	la	la	_	RD	_	80	det	_	_
79	terza	terzo	_	NO	_	80	amod	_	_
80	gara	gara	_	S	_	81	nsubj	_	_
81	consisteva	consistere	_	V	_	0	root	_	_
82	nel	nel	_	E+RD	_	83	case	_	_
83	salto	salto	_	S	_	81	nmod	_	_
84	in	in	_	E	_	85	case	_	_
85	lungo	lungo	_	S	_	83	nmod	_	_
86	,	[PUNCT]	_	FF	_	81	punct	_	_
87	e	e	_	CC	_	81	cc	_	_
88	lui	lui	_	PE	_	90	nsubj	_	_
89	aveva	avere	_	VA	_	90	aux	_	_
90	vinto	vincere	_	V	_	81	conj	_	_
91	con	con	_	E	_	92	case	_	_
92	1.20	1.20	_	N	_	90	nummod	_	_
93	e	e	_	CC	_	92	cc	_	_
94	io	io	_	PE	_	95	nsubj	_	_
95	perso	perdere	_	V	_	92	conj	_	_
96	con	con	_	E	_	98	case	_	_
97	1.10	1.10	_	N	_	98	nummod	_	_
98	m	m	_	S	_	95	nmod	_	_
99	.	[PUNCT]	_	FS	_	81	punct	_	_

100	Poi	poi	_	B	_	102	advmod	_	_
101	sono	essere	_	VA	_	102	aux	_	_
102	arrivati	arrivare	_	V	_	0	root	_	_
103	2	2	_	N	_	104	nummod	_	_
104	bambini	bambino	_	S	_	102	nsubj	_	_
105	a	a	_	E	_	106	mark	_	_
106	sfidarci	sfidare	_	V+PC	_	102	xcomp	_	_
107	a	a	_	E	_	108	case	_	_
108	parc-qur	parc-qur	_	S	_	106	nmod	_	_
109	.	[PUNCT]	_	FS	_	102	punct	_	_

110	Li	li	_	PC	_	112	dobj	_	_
111	avevamo	avere	_	VA	_	112	aux	_	_
112	battuti	battere	_	V	_	0	root	_	_
113	ed	ed	_	CC	_	112	cc	_	_
114	eravamo	essere	_	V	_	115	cop	_	_
115	felici	felice	_	A	_	112	conj	_	_
116	e	e	_	CC	_	112	cc	_	_
117	siamo	essere	_	VA	_	118	aux	_	_
118	tornati	tornare	_	V	_	112	conj	_	_
119	a	a	_	E	_	120	mark	_	_
120	fare	fare	_	V	_	118	xcomp	_	_
121	parc-qur	parc-qur	_	S	_	120	dobj	_	_
122	.	[PUNCT]	_	FS	_	112	punct	_	_

123	Mi	mi	_	PC	_	125	iobj	_	_
124	ha	avere	_	VA	_	125	aux	_	_
125	insegnato	insegnare	_	V	_	0	root	_	_
126	che	che	_	CS	_	134	mark	_	_
127	se	se	_	CS	_	131	mark	_	_
128	le	la	_	RD	_	129	det	_	_
129	cose	cosa	_	S	_	131	nsubj	_	_
130	si	si	_	PC	_	131	expl:impers	_	_
131	fanno	fare	_	V	_	134	advcl	_	_
132	Insieme	insieme	_	B	_	131	advmod	_	_
133	si	si	_	PC	_	134	expl:impers	_	_
134	fanno	fare	_	V	_	125	ccomp	_	_
135	meglio	meglio	_	B	_	134	advmod	_	_
136	.	[PUNCT]	_	FS	_	125	punct	_	_

