1	La	la	_	RD	_	2	det	_	_
2	gara	gara	_	S	_	11	nsubj	_	_
3	L'	l'	_	RD	_	4	det	_	_
4	anno	anno	_	S	_	2	nmod	_	_
5	scorso	scorso	_	A	_	4	amod	_	_
6	,	[PUNCT]	_	FF	_	2	punct	_	_
7	in	in	_	E	_	9	case	_	_
8	una	una	_	RI	_	9	det	_	_
9	stupenda	stupenda	_	S	_	11	nmod	_	_
10	giornata	giornata	_	S	_	9	compound	_	_
11	soleggiata	soleggiare	_	V	_	0	root	_	_
12	la	la	_	RD	_	14	det	_	_
13	mia	mio	_	AP	_	14	det:poss	_	_
14	società	società	_	S	_	11	dobj	_	_
15	di	di	_	E	_	16	case	_	_
16	atletica	atletico	_	S	_	14	nmod	_	_
17	organizzò	organizzare	_	V	_	11	advcl	_	_
18	un	un	_	RI	_	20	det	_	_
19	bellissimo	bello	_	A	_	20	amod	_	_
20	cross	cross	_	S	_	17	dobj	_	_
21	.	[PUNCT]	_	FS	_	11	punct	_	_

22	Io	io	_	PE	_	46	nmod	_	_
23	quando	quando	_	CS	_	25	mark	_	_
24	ebbi	avere	_	VA	_	25	aux	_	_
25	sentito	sentire	_	V	_	22	advcl	_	_
26	la	la	_	RD	_	28	det	_	_
27	super	super	_	A	_	28	amod	_	_
28	notizia	notizia	_	S	_	25	nsubj	_	_
29	feci	feci	_	A	_	28	amod	_	_
30	almeno	almeno	_	B	_	32	advmod	_	_
31	una	una	_	RI	_	32	det	_	_
32	dozzina	dozzina	_	S	_	25	nsubj	_	_
33	di	di	_	E	_	34	case	_	_
34	salti	salto	_	S	_	32	nmod	_	_
35	di	di	_	E	_	36	case	_	_
36	gioia	gioia	_	S	_	34	nmod	_	_
37	esclamando	esclamare	_	V	_	34	acl	_	_
38	:	[PUNCT]	_	FC	_	22	punct	_	_
39	–	–	_	FF	_	22	punct	_	_
40	Evviva	Evviva	_	SP	_	46	nsubj	_	_
41	,	[PUNCT]	_	FF	_	40	punct	_	_
42	evviva	evviva	_	A	_	40	amod	_	_
43	,	[PUNCT]	_	FF	_	40	punct	_	_
44	finalmente	finalmente	_	B	_	46	advmod	_	_
45	un	un	_	RI	_	46	det	_	_
46	cross	cross	_	S	_	0	root	_	_
47	!	[PUNCT]	_	FS	_	46	punct	_	_

48	!	[PUNCT]	_	FS	_	0	root	_	_

49	–	–	_	FF	_	52	punct	_	_
50	E	E	_	SP	_	52	nsubj	_	_
51	mi	mi	_	PC	_	52	expl	_	_
52	preparai	preparare	_	V	_	0	root	_	_
53	alla	alla	_	E+RD	_	55	case	_	_
54	magnifica	magnifico	_	A	_	55	amod	_	_
55	manifestazione	manifestazione	_	S	_	52	nmod	_	_
56	.	[PUNCT]	_	FS	_	52	punct	_	_

57	Il	il	_	RD	_	58	det	_	_
58	giorno	giorno	_	S	_	63	nmod	_	_
59	successivo	successivo	_	A	_	58	amod	_	_
60	mia	mio	_	AP	_	61	det:poss	_	_
61	mamma	mamma	_	S	_	63	nsubj	_	_
62	mi	mi	_	PC	_	63	expl	_	_
63	svegliò	svegliare	_	V	_	0	root	_	_
64	presto	presto	_	B	_	63	advmod	_	_
65	dicendo	dire	_	V	_	63	xcomp	_	_
66	:	[PUNCT]	_	FC	_	63	punct	_	_
67	–	–	_	FF	_	63	punct	_	_
68	Mila	Mila	_	SP	_	63	dobj	_	_
69	,	[PUNCT]	_	FF	_	68	punct	_	_
70	svegliati	svegliare	_	V	_	68	acl	_	_
71	!	[PUNCT]	_	FS	_	63	punct	_	_

72	Ti	ti	_	PC	_	73	expl	_	_
73	ricordo	ricordare	_	V	_	0	root	_	_
74	che	che	_	CS	_	76	mark	_	_
75	la	la	_	RD	_	76	det	_	_
76	partenza	partenza	_	S	_	73	ccomp	_	_
77	é	é	_	SP	_	76	nmod	_	_
78	alle	alla	_	E+RD	_	79	case	_	_
79	7.45	7.45	_	N	_	76	nummod	_	_
80	,	[PUNCT]	_	FF	_	76	punct	_	_
81	e	e	_	CC	_	76	cc	_	_
82	sono	essere	_	V	_	84	cop	_	_
83	le	la	_	RD	_	84	det	_	_
84	6.00	6.00	_	N	_	76	conj	_	_
85	!	[PUNCT]	_	FS	_	76	punct	_	_

86	–	–	_	FB	_	0	root	_	_
87	.	[PUNCT]	_	FS	_	86	punct	_	_

88	Io	io	_	PE	_	90	nsubj	_	_
89	mi	mi	_	PC	_	90	expl	_	_
90	svegliai	svegliare	_	V	_	0	root	_	_
91	di	di	_	E	_	92	case	_	_
92	scatto	scatto	_	S	_	90	nmod	_	_
93	,	[PUNCT]	_	FF	_	90	punct	_	_
94	feci	fece	_	S	_	90	conj	_	_
95	colazione	colazione	_	S	_	94	compound	_	_
96	e	e	_	CC	_	94	cc	_	_
97	sempre	sempre	_	B	_	99	advmod	_	_
98	di	di	_	E	_	99	case	_	_
99	fretta	fretta	_	S	_	101	nmod	_	_
100	mi	mi	_	PC	_	101	dobj	_	_
101	vestii	vestire	_	V	_	94	conj	_	_
102	.	[PUNCT]	_	FS	_	90	punct	_	_

103	Dopodiché	dopodiché	_	CS	_	105	mark	_	_
104	mi	mi	_	PC	_	105	dobj	_	_
105	portò	portare	_	V	_	0	root	_	_
106	al	al	_	E+RD	_	107	case	_	_
107	cross	cross	_	S	_	105	nmod	_	_
108	che	che	_	PR	_	109	nsubj	_	_
109	era	essere	_	V	_	107	acl:relcl	_	_
110	nel	nel	_	E+RD	_	111	case	_	_
111	prato	prato	_	S	_	109	nmod	_	_
112	davanti	davanti	_	B	_	114	case	_	_
113	alle	alla	_	E+RD	_	112	mwe	_	_
114	Scuole	Scuole	_	SP	_	111	nmod	_	_
115	Medie	Medie	_	SP	_	114	name	_	_
116	di	di	_	E	_	117	case	_	_
117	Gordola	Gordola	_	SP	_	114	nmod	_	_
118	,	[PUNCT]	_	FF	_	105	punct	_	_
119	un	un	_	RI	_	120	det	_	_
120	posto	posto	_	S	_	105	nsubj	_	_
121	simpatico	simpatico	_	A	_	120	amod	_	_
122	.	[PUNCT]	_	FS	_	105	punct	_	_

123	Alla	alla	_	E+RD	_	124	case	_	_
124	partenza	partenza	_	S	_	125	nmod	_	_
125	ero	essere	_	V	_	0	root	_	_
126	molto	molto	_	B	_	127	advmod	_	_
127	agitata	agitare	_	V	_	125	xcomp	_	_
128	e	e	_	CC	_	127	cc	_	_
129	mia	mio	_	AP	_	130	det:poss	_	_
130	mamma	mamma	_	S	_	127	conj	_	_
131	disse	dire	_	V	_	130	acl	_	_
132	:	[PUNCT]	_	FC	_	125	punct	_	_
133	–	–	_	FF	_	125	punct	_	_
134	Attenzione	attenzione	_	S	_	125	nmod	_	_
135	,	[PUNCT]	_	FF	_	134	punct	_	_
136	non	non	_	BN	_	137	neg	_	_
137	partire	partire	_	V	_	134	advcl	_	_
138	troppo	troppo	_	B	_	139	advmod	_	_
139	veloce	veloce	_	A	_	137	xcomp	_	_
140	–	–	_	FB	_	134	punct	_	_
141	e	e	_	CC	_	125	cc	_	_
142	aggiunse	aggiungere	_	V	_	125	conj	_	_
143	:	[PUNCT]	_	FC	_	125	punct	_	_
144	–	–	_	FF	_	125	punct	_	_
145	altrimenti	altrimenti	_	B	_	147	advmod	_	_
146	non	non	_	BN	_	147	neg	_	_
147	terrai	tenere	_	V	_	125	advcl	_	_
148	fino	fino	_	B	_	150	case	_	_
149	in	in	_	E	_	148	mwe	_	_
150	fondo	fondo	_	S	_	147	nmod	_	_
151	!	[PUNCT]	_	FS	_	125	punct	_	_

152	–	–	_	FF	_	154	punct	_	_
153	Io	io	_	PE	_	154	nsubj	_	_
154	annuii	annuire	_	V	_	0	root	_	_
155	.	[PUNCT]	_	FS	_	154	punct	_	_

156	Poi	poi	_	B	_	158	advmod	_	_
157	si	si	_	PC	_	158	expl	_	_
158	udì	udire	_	V	_	0	root	_	_
159	uno	un	_	RI	_	160	det	_	_
160	sparo	sparo	_	S	_	158	nsubj	_	_
161	.	[PUNCT]	_	FS	_	158	punct	_	_

162	Io	io	_	PE	_	163	nsubj	_	_
163	partii	partire	_	V	_	0	root	_	_
164	come	come	_	E	_	166	case	_	_
165	un	un	_	RI	_	166	det	_	_
166	razzo	razzo	_	S	_	163	nmod	_	_
167	con	con	_	E	_	170	case	_	_
168	tutti	tutto	_	T	_	170	det:predet	_	_
169	gli	il	_	RD	_	170	det	_	_
170	altri	altri	_	PI	_	163	nmod	_	_
171	dietro	dietro	_	B	_	173	case	_	_
172	di	di	_	E	_	171	mwe	_	_
173	me	me	_	PE	_	170	nmod	_	_
174	,	[PUNCT]	_	FF	_	163	punct	_	_
175	ma	ma	_	CC	_	163	cc	_	_
176	dopo	dopo	_	E	_	178	case	_	_
177	un	un	_	RI	_	178	det	_	_
178	po'	po'	_	B	_	179	advmod	_	_
179	cominciai	cominciare	_	V	_	163	conj	_	_
180	ad	ad	_	E	_	182	mark	_	_
181	essere	essere	_	VA	_	182	auxpass	_	_
182	superata	superare	_	V	_	179	xcomp	_	_
183	.	[PUNCT]	_	FS	_	163	punct	_	_

184	Infine	infine	_	B	_	185	advmod	_	_
185	finii	finire	_	V	_	0	root	_	_
186	la	la	_	RD	_	187	det	_	_
187	gara	gara	_	S	_	185	dobj	_	_
188	e	e	_	CC	_	187	cc	_	_
189	arrivai	arrivare	_	S	_	187	conj	_	_
190	terzultima	terzultima	_	A	_	189	amod	_	_
191	e	e	_	CC	_	190	cc	_	_
192	assetata	assetato	_	A	_	190	conj	_	_
193	come	come	_	E	_	195	case	_	_
194	un	un	_	RI	_	195	det	_	_
195	uomo	uomo	_	S	_	185	nmod	_	_
196	nel	nel	_	E+RD	_	197	case	_	_
197	deserto	deserto	_	S	_	195	nmod	_	_
198	dissi	dire	_	A	_	197	amod	_	_
199	:	[PUNCT]	_	FC	_	185	punct	_	_
200	–	–	_	FF	_	185	punct	_	_
201	Avevi	avere	_	V	_	185	advcl	_	_
202	ragione	ragione	_	S	_	201	dobj	_	_
203	mamma	mamma	_	S	_	202	compound	_	_
204	–	–	_	FB	_	201	punct	_	_
205	.	[PUNCT]	_	FS	_	185	punct	_	_

206	Questo	questo	_	DD	_	207	det	_	_
207	episodio	episodio	_	S	_	210	nsubj	_	_
208	mi	mi	_	PC	_	210	dobj	_	_
209	ha	avere	_	VA	_	210	aux	_	_
210	fatto	fare	_	V	_	0	root	_	_
211	capire	capire	_	V	_	210	ccomp	_	_
212	che	che	_	CS	_	215	mark	_	_
213	non	non	_	BN	_	215	neg	_	_
214	devo	dovere	_	VM	_	215	aux	_	_
215	partire	partire	_	V	_	211	ccomp	_	_
216	veloce	veloce	_	A	_	215	xcomp	_	_
217	perché	perché	_	CS	_	219	mark	_	_
218	non	non	_	BN	_	219	neg	_	_
219	terrò	tenere	_	V	_	215	advcl	_	_
220	mai	mai	_	B	_	219	advmod	_	_
221	fino	fino	_	B	_	223	case	_	_
222	all'	all'	_	E+RD	_	221	mwe	_	_
223	arrivo	arrivo	_	S	_	219	nmod	_	_
224	.	[PUNCT]	_	FS	_	210	punct	_	_

