1	Avere	avere	_	V	_	0	root	_	_
2	un	un	_	RI	_	4	det	_	_
3	bel	bel	_	A	_	4	amod	_	_
4	posto	posto	_	S	_	8	nsubj	_	_
5	di	di	_	E	_	6	case	_	_
6	partenza	partenza	_	S	_	4	nmod	_	_
7	è	essere	_	V	_	8	cop	_	_
8	importante	importante	_	A	_	1	xcomp	_	_
9	I	il	_	RD	_	12	det	_	_
10	primi	primo	_	NO	_	12	amod	_	_
11	due	due	_	N	_	12	nummod	_	_
12	cross	cross	_	S	_	8	nmod	_	_
13	che	che	_	PR	_	15	nsubj	_	_
14	ho	avere	_	VA	_	15	aux	_	_
15	fatto	fare	_	V	_	12	acl:relcl	_	_
16	quest'	questo	_	DD	_	17	det	_	_
17	anno	anno	_	S	_	20	nsubj	_	_
18	li	li	_	PC	_	20	dobj	_	_
19	ho	avere	_	VA	_	20	aux	_	_
20	vinti	vincere	_	V	_	15	ccomp	_	_
21	,	[PUNCT]	_	FF	_	12	punct	_	_
22	al	al	_	E+RD	_	23	case	_	_
23	terzo	terzo	_	NO	_	12	nmod	_	_
24	invece	invece	_	B	_	25	advmod	_	_
25	pensavo	pensare	_	V	_	23	acl	_	_
26	giá	giá	_	S	_	25	dobj	_	_
27	,	[PUNCT]	_	FF	_	25	punct	_	_
28	all'	all'	_	E+RD	_	29	case	_	_
29	inizio	inizio	_	S	_	25	nmod	_	_
30	,	[PUNCT]	_	FF	_	12	punct	_	_
31	di	di	_	E	_	32	mark	_	_
32	vincere	vincere	_	V	_	12	acl	_	_
33	e	e	_	CC	_	32	cc	_	_
34	mi	mi	_	PC	_	36	expl	_	_
35	ero	essere	_	VA	_	36	aux	_	_
36	messa	mettere	_	V	_	32	conj	_	_
37	ad	ad	_	E	_	39	case	_	_
38	un	un	_	RI	_	39	det	_	_
39	posto	posto	_	S	_	36	nmod	_	_
40	di	di	_	E	_	41	case	_	_
41	partenza	partenza	_	S	_	39	nmod	_	_
42	che	che	_	PR	_	44	nsubj	_	_
43	non	non	_	BN	_	44	neg	_	_
44	andava	andare	_	V	_	39	acl:relcl	_	_
45	tanto	tanto	_	B	_	44	advmod	_	_
46	bene	bene	_	B	_	44	advmod	_	_
47	,	[PUNCT]	_	FF	_	12	punct	_	_
48	perché	perché	_	CS	_	50	mark	_	_
49	si	si	_	PC	_	50	expl	_	_
50	partiva	partire	_	V	_	12	advcl	_	_
51	tutti	tutti	_	PI	_	50	nsubj	_	_
52	assieme	assieme	_	B	_	50	advmod	_	_
53	e	e	_	CC	_	50	cc	_	_
54	il	il	_	RD	_	55	det	_	_
55	passaggio	passaggio	_	S	_	57	nsubj	_	_
56	si	si	_	PC	_	57	expl	_	_
57	ristringeva	ristringere	_	V	_	50	conj	_	_
58	,	[PUNCT]	_	FF	_	50	punct	_	_
59	dopo	dopo	_	E	_	61	case	_	_
60	la	la	_	RD	_	61	det	_	_
61	partenza	partenza	_	S	_	50	nmod	_	_
62	.	[PUNCT]	_	FS	_	1	punct	_	_

63	Quando	quando	_	B	_	65	advmod	_	_
64	avevano	avere	_	VA	_	65	aux	_	_
65	dato	dare	_	V	_	73	advcl	_	_
66	il	il	_	RD	_	67	det	_	_
67	via	via	_	S	_	65	dobj	_	_
68	,	[PUNCT]	_	FF	_	65	punct	_	_
69	prima	prima	_	B	_	73	advmod	_	_
70	mi	mi	_	PC	_	73	dobj	_	_
71	dovevo	dovere	_	VM	_	73	aux	_	_
72	ancora	ancora	_	B	_	73	advmod	_	_
73	recare	recare	_	V	_	0	root	_	_
74	in	in	_	E	_	75	case	_	_
75	avanti	avanti	_	S	_	73	nmod	_	_
76	per	per	_	E	_	77	mark	_	_
77	raggiungere	raggiungere	_	V	_	73	advcl	_	_
78	il	il	_	RD	_	80	det	_	_
79	primo	primo	_	NO	_	80	amod	_	_
80	gruppetto	gruppetto	_	S	_	77	dobj	_	_
81	.	[PUNCT]	_	FS	_	73	punct	_	_

82	Quando	quando	_	CS	_	85	mark	_	_
83	lo	lo	_	PC	_	85	dobj	_	_
84	avevo	avere	_	VA	_	85	aux	_	_
85	raggiunto	raggiungere	_	V	_	89	advcl	_	_
86	ero	essere	_	VA	_	89	aux	_	_
87	già	già	_	B	_	89	advmod	_	_
88	un	un	_	RI	_	89	det	_	_
89	po'	po'	_	S	_	0	root	_	_
90	stanca	stanco	_	A	_	89	amod	_	_
91	e	e	_	CC	_	89	cc	_	_
92	il	il	_	RD	_	93	det	_	_
93	percorso	percorso	_	S	_	94	nsubj	_	_
94	era	essere	_	V	_	89	conj	_	_
95	di	di	_	E	_	97	case	_	_
96	due	due	_	N	_	97	nummod	_	_
97	chilometri	chilometro	_	S	_	94	nmod	_	_
98	.	[PUNCT]	_	FS	_	89	punct	_	_

99	Nel	nel	_	E+RD	_	101	case	_	_
100	primo	primo	_	NO	_	101	amod	_	_
101	gruppetto	gruppetto	_	S	_	103	nmod	_	_
102	c'	c'	_	PC	_	103	expl	_	_
103	erano	essere	_	V	_	118	nsubj	_	_
104	circa	circa	_	B	_	105	advmod	_	_
105	cinque	cinque	_	N	_	108	nummod	_	_
106	o	o	_	CC	_	105	cc	_	_
107	sei	sei	_	N	_	105	conj	_	_
108	ragazze	ragazza	_	S	_	103	nsubj	_	_
109	io	io	_	PE	_	108	nmod	_	_
110	ero	essere	_	V	_	118	cop	_	_
111	nelle	nella	_	E+RD	_	112	case	_	_
112	prime	primo	_	NO	_	118	nmod	_	_
113	quattro	quattro	_	N	_	118	nummod	_	_
114	,	[PUNCT]	_	FF	_	113	punct	_	_
115	poi	poi	_	B	_	118	advmod	_	_
116	peró	peró	_	BN	_	118	neg	_	_
117	ero	essere	_	VA	_	118	aux	_	_
118	caduta	cadere	_	V	_	0	root	_	_
119	e	e	_	CC	_	118	cc	_	_
120	le	la	_	RD	_	121	det	_	_
121	tre	tre	_	N	_	127	nsubj	_	_
122	davanti	davanti	_	B	_	124	case	_	_
123	a	a	_	E	_	122	mwe	_	_
124	me	me	_	PE	_	121	nmod	_	_
125	mi	mi	_	PC	_	127	dobj	_	_
126	hanno	avere	_	VA	_	127	aux	_	_
127	lasciato	lasciare	_	V	_	118	conj	_	_
128	indietro	indietro	_	B	_	127	advmod	_	_
129	un	un	_	RI	_	131	det	_	_
130	bel	bel	_	A	_	131	amod	_	_
131	po'	po'	_	S	_	127	dobj	_	_
132	.	[PUNCT]	_	FS	_	118	punct	_	_

133	Così	così	_	B	_	135	advmod	_	_
134	sono	essere	_	VA	_	135	aux	_	_
135	arrivata	arrivare	_	V	_	142	advcl	_	_
136	al	al	_	E+RD	_	137	case	_	_
137	traguardo	traguardo	_	S	_	135	nmod	_	_
138	stanca	stanco	_	A	_	137	amod	_	_
139	morta	morire	_	V	_	137	acl	_	_
140	,	[PUNCT]	_	FF	_	135	punct	_	_
141	ero	essere	_	VA	_	142	aux	_	_
142	arrivata	arrivare	_	V	_	0	root	_	_
143	quarta	quarto	_	NO	_	142	xcomp	_	_
144	.	[PUNCT]	_	FS	_	142	punct	_	_

145	Quel	quello	_	DD	_	146	det	_	_
146	giorno	giorno	_	S	_	148	nmod	_	_
147	ho	avere	_	VA	_	148	aux	_	_
148	imparato	imparare	_	V	_	0	root	_	_
149	che	che	_	CS	_	152	mark	_	_
150	non	non	_	BN	_	152	neg	_	_
151	devo	dovere	_	VM	_	152	aux	_	_
152	sottovalutare	sottovalutare	_	V	_	148	ccomp	_	_
153	gli	il	_	RD	_	154	det	_	_
154	altri	altro	_	A	_	152	xcomp	_	_
155	e	e	_	CC	_	154	cc	_	_
156	che	che	_	CS	_	160	mark	_	_
157	anche	anche	_	B	_	160	advmod	_	_
158	se	se	_	CS	_	160	mark	_	_
159	ho	avere	_	VA	_	160	aux	_	_
160	vinto	vincere	_	V	_	165	advcl	_	_
161	due	due	_	N	_	162	nummod	_	_
162	volte	volta	_	S	_	160	nmod	_	_
163	non	non	_	BN	_	165	neg	_	_
164	vuol	volere	_	VM	_	165	aux	_	_
165	dire	dire	_	V	_	154	conj	_	_
166	che	che	_	CS	_	167	mark	_	_
167	vinco	vincere	_	V	_	165	ccomp	_	_
168	anche	anche	_	B	_	169	advmod	_	_
169	lì	lì	_	B	_	167	advmod	_	_
170	.	[PUNCT]	_	FS	_	148	punct	_	_

171	L'	l'	_	RD	_	172	det	_	_
172	importante	importante	_	S	_	175	nsubj	_	_
173	non	non	_	BN	_	175	neg	_	_
174	è	essere	_	VA	_	175	aux	_	_
175	vincere	vincere	_	V	_	0	root	_	_
176	è	essere	_	VA	_	177	aux	_	_
177	partecipare	partecipare	_	V	_	175	ccomp	_	_
178	.	[PUNCT]	_	FS	_	175	punct	_	_

179	si	si	_	PC	_	181	expl:impers	_	_
180	deve	dovere	_	VM	_	181	aux	_	_
181	dare	dare	_	V	_	0	root	_	_
182	il	il	_	RD	_	183	det	_	_
183	meglio	meglio	_	A	_	181	dobj	_	_
184	di	di	_	E	_	185	case	_	_
185	sé	sé	_	PC	_	183	nmod	_	_
186	sempre	sempre	_	B	_	185	advmod	_	_
187	!	[PUNCT]	_	FS	_	181	punct	_	_

188	L'	l'	_	RD	_	190	det	_	_
189	ultimo	ultimo	_	NO	_	190	amod	_	_
190	cross	cross	_	S	_	193	nsubj	_	_
191	mi	mi	_	PC	_	193	expl	_	_
192	sono	essere	_	VA	_	193	aux	_	_
193	impegnata	impegnare	_	V	_	0	root	_	_
194	molto	molto	_	B	_	193	advmod	_	_
195	e	e	_	CC	_	193	cc	_	_
196	ho	avere	_	VA	_	197	aux	_	_
197	vinto	vincere	_	V	_	193	conj	_	_
198	.	[PUNCT]	_	FS	_	193	punct	_	_

