1	Una	una	_	RI	_	2	det	_	_
2	volta	volta	_	S	_	8	nsubj	_	_
3	,	[PUNCT]	_	FF	_	2	punct	_	_
4	a	a	_	E	_	5	case	_	_
5	scuola	scuola	_	S	_	8	nmod	_	_
6	era	essere	_	V	_	8	cop	_	_
7	molto	molto	_	B	_	8	advmod	_	_
8	caldo	caldo	_	A	_	0	root	_	_
9	,	[PUNCT]	_	FF	_	8	punct	_	_
10	perciò	perciò	_	B	_	11	advmod	_	_
11	qualcuno	qualcuno	_	PI	_	8	conj	_	_
12	porto	porto	_	A	_	11	amod	_	_
13	uno	un	_	RI	_	14	det	_	_
14	spray	spray	_	S	_	11	nmod	_	_
15	rinfrescante	rinfrescare	_	V	_	14	acl	_	_
16	(	[PUNCT]	_	FB	_	18	punct	_	_
17	io	io	_	PE	_	18	nsubj	_	_
18	ero	essere	_	V	_	11	acl:relcl	_	_
19	)	[PUNCT]	_	FB	_	18	punct	_	_
20	–	–	_	FB	_	21	punct	_	_
21	lo	lo	_	PC	_	11	advmod	_	_
22	dai	dal	_	E+RD	_	24	case	_	_
23	a	a	_	E	_	24	case	_	_
24	tutti	tutti	_	PI	_	21	nmod	_	_
25	?	[PUNCT]	_	FS	_	21	punct	_	_

26	–	–	_	FB	_	27	punct	_	_
27	Chiese	chiedere	_	V	_	0	root	_	_
28	la	la	_	RD	_	29	det	_	_
29	mamma	mamma	_	S	_	27	dobj	_	_
30	.	[PUNCT]	_	FS	_	27	punct	_	_

31	Io	io	_	PE	_	32	nsubj	_	_
32	risposi	rispondere	_	V	_	0	root	_	_
33	:	[PUNCT]	_	FC	_	32	punct	_	_
34	–	–	_	FF	_	32	punct	_	_
35	si	si	_	PC	_	36	expl:impers	_	_
36	mamma	mamma	_	S	_	32	parataxis	_	_
37	–	–	_	FB	_	36	punct	_	_
38	.	[PUNCT]	_	FS	_	32	punct	_	_

39	Quando	quando	_	CS	_	40	mark	_	_
40	arrivai	arrivare	_	V	_	0	root	_	_
41	a	a	_	E	_	42	case	_	_
42	scuola	scuola	_	S	_	40	nmod	_	_
43	lo	il	_	RD	_	44	det	_	_
44	diedi	dare	_	V	_	40	xcomp	_	_
45	a	a	_	E	_	46	case	_	_
46	tutti	tutti	_	PI	_	44	nmod	_	_
47	solo	solo	_	B	_	50	advmod	_	_
48	che	che	_	CS	_	50	mark	_	_
49	non	non	_	BN	_	50	neg	_	_
50	riscitti	riscitti	_	V	_	44	advcl	_	_
51	più	più	_	B	_	53	advmod	_	_
52	a	a	_	E	_	53	mark	_	_
53	trovarlo	trovare	_	V+PC	_	50	advcl	_	_
54	.	[PUNCT]	_	FS	_	40	punct	_	_

55	Setacciai	setacciare	_	V	_	0	root	_	_
56	tutta	tutto	_	T	_	58	det:predet	_	_
57	la	la	_	RD	_	58	det	_	_
58	scuola	scuola	_	S	_	55	dobj	_	_
59	,	[PUNCT]	_	FF	_	55	punct	_	_
60	ma	ma	_	CC	_	55	cc	_	_
61	dopo	dopo	_	B	_	63	advmod	_	_
62	mi	mi	_	PC	_	63	expl	_	_
63	ricordai	ricordare	_	V	_	55	conj	_	_
64	che	che	_	CS	_	72	mark	_	_
65	l'	l'	_	RD	_	67	det	_	_
66	ultimo	ultimo	_	A	_	67	amod	_	_
67	era	era	_	S	_	72	nsubj	_	_
68	Ermenepetugildes	Ermenepetugildes	_	SP	_	67	nmod	_	_
69	lui	lui	_	PE	_	68	name	_	_
70	era	essere	_	V	_	72	cop	_	_
71	il	il	_	RD	_	72	det	_	_
72	bullo	bullo	_	S	_	63	ccomp	_	_
73	…	…	_	FF	_	72	punct	_	_
74	Perciò	perciò	_	CS	_	72	advcl	_	_
75	,	[PUNCT]	_	FF	_	74	punct	_	_
76	glielo	glielo	_	PC+PC	_	78	dobj	_	_
77	avevo	avere	_	VA	_	78	aux	_	_
78	dato	dare	_	V	_	75	acl:relcl	_	_
79	per	per	_	E	_	80	case	_	_
80	ultimo	ultimo	_	S	_	78	nmod	_	_
81	e	e	_	CC	_	78	cc	_	_
82	lui	lui	_	PE	_	86	nsubj	_	_
83	non	non	_	BN	_	86	neg	_	_
84	me	me	_	PC	_	86	iobj	_	_
85	lo	lo	_	PC	_	86	dobj	_	_
86	voleva	volere	_	V	_	78	conj	_	_
87	più	più	_	B	_	88	advmod	_	_
88	dare	dare	_	V	_	86	ccomp	_	_
89	.	[PUNCT]	_	FS	_	55	punct	_	_

