1	La	la	_	RD	_	2	det	_	_
2	gara	gara	_	S	_	8	nmod	_	_
3	di	di	_	E	_	4	case	_	_
4	forza	forza	_	S	_	2	nmod	_	_
5	Una	una	_	RI	_	6	det	_	_
6	volta	volta	_	S	_	8	nmod	_	_
7	io	io	_	PE	_	8	nsubj	_	_
8	stavo	stare	_	V	_	0	root	_	_
9	giocando	giocare	_	V	_	8	xcomp	_	_
10	con	con	_	E	_	13	case	_	_
11	un	un	_	RI	_	13	det	_	_
12	mio	mio	_	AP	_	13	det:poss	_	_
13	amico	amico	_	S	_	9	nmod	_	_
14	.	[PUNCT]	_	FS	_	8	punct	_	_

15	Lui	lui	_	PE	_	22	nmod	_	_
16	,	[PUNCT]	_	FF	_	15	punct	_	_
17	il	il	_	RD	_	19	det	_	_
18	mio	mio	_	AP	_	19	det:poss	_	_
19	amico	amico	_	S	_	22	nsubj	_	_
20	,	[PUNCT]	_	FF	_	19	punct	_	_
21	si	si	_	PC	_	22	expl	_	_
22	credeva	credere	_	V	_	0	root	_	_
23	il	il	_	RD	_	24	det	_	_
24	piú	più	_	S	_	22	dobj	_	_
25	forte	forte	_	A	_	24	amod	_	_
26	.	[PUNCT]	_	FS	_	22	punct	_	_

27	Allora	allora	_	B	_	29	advmod	_	_
28	mi	mi	_	PC	_	29	expl	_	_
29	sfidó	sfidó	_	V	_	0	root	_	_
30	a	a	_	E	_	31	mark	_	_
31	fare	fare	_	V	_	29	xcomp	_	_
32	una	una	_	RI	_	33	det	_	_
33	gara	gara	_	S	_	31	dobj	_	_
34	di	di	_	E	_	35	case	_	_
35	spinte	spinto	_	A	_	33	nmod	_	_
36	,	[PUNCT]	_	FF	_	31	punct	_	_
37	chi	chi	_	PR	_	31	conj	_	_
38	cadeva	cadere	_	V	_	37	acl:relcl	_	_
39	piú	più	_	A	_	40	amod	_	_
40	volte	volta	_	S	_	38	dobj	_	_
41	perdeva	perdere	_	V	_	40	acl	_	_
42	.	[PUNCT]	_	FS	_	29	punct	_	_

43	Quando	quando	_	B	_	44	advmod	_	_
44	iniziò	iniziare	_	V	_	0	root	_	_
45	la	la	_	RD	_	46	det	_	_
46	gara	gara	_	S	_	44	nsubj	_	_
47	,	[PUNCT]	_	FF	_	44	punct	_	_
48	il	il	_	RD	_	50	det	_	_
49	mio	mio	_	AP	_	50	det:poss	_	_
50	amico	amico	_	S	_	44	dobj	_	_
51	cercó	cercó	_	S	_	50	nmod	_	_
52	di	di	_	E	_	53	case	_	_
53	buttarmi	buttarmi	_	S	_	51	nmod	_	_
54	a	a	_	E	_	55	case	_	_
55	terra	terra	_	S	_	51	nmod	_	_
56	ma	ma	_	CC	_	50	cc	_	_
57	senza	senza	_	E	_	58	case	_	_
58	successo	successo	_	S	_	50	conj	_	_
59	.	[PUNCT]	_	FS	_	44	punct	_	_

60	Dopo	dopo	_	E	_	62	case	_	_
61	un	un	_	RI	_	62	det	_	_
62	po'	po'	_	S	_	69	nmod	_	_
63	che	che	_	PR	_	64	nsubj	_	_
64	cadeva	cadere	_	V	_	62	acl:relcl	_	_
65	diventó	diventó	_	V	_	64	advcl	_	_
66	tutto	tutto	_	DI	_	67	det	_	_
67	rosso	rosso	_	S	_	65	dobj	_	_
68	,	[PUNCT]	_	FF	_	62	punct	_	_
69	pensai	pensare	_	V	_	0	root	_	_
70	che	che	_	CS	_	73	mark	_	_
71	si	si	_	PC	_	73	expl	_	_
72	era	essere	_	VA	_	73	aux	_	_
73	arrabbiato	arrabbiare	_	V	_	69	ccomp	_	_
74	e	e	_	CC	_	73	cc	_	_
75	mi	mi	_	PC	_	76	iobj	_	_
76	voleva	volere	_	V	_	73	conj	_	_
77	picchiare	picchiare	_	V	_	76	xcomp	_	_
78	,	[PUNCT]	_	FF	_	69	punct	_	_
79	invece	invece	_	B	_	81	advmod	_	_
80	no	no	_	BN	_	81	neg	_	_
81	prese	prendere	_	V	_	69	conj	_	_
82	uno	un	_	RI	_	83	det	_	_
83	slancio	slancio	_	S	_	81	dobj	_	_
84	e	e	_	CC	_	83	cc	_	_
85	cercó	cercó	_	S	_	83	conj	_	_
86	di	di	_	E	_	87	mark	_	_
87	farmi	fare	_	V+PC	_	85	acl	_	_
88	cadere	cadere	_	V	_	87	xcomp	_	_
89	ma	ma	_	CC	_	69	cc	_	_
90	io	io	_	PE	_	92	nsubj	_	_
91	lo	lo	_	PC	_	92	dobj	_	_
92	presi	prendere	_	V	_	69	conj	_	_
93	e	e	_	CC	_	69	cc	_	_
94	lo	lo	_	PC	_	95	dobj	_	_
95	buttai	buttare	_	V	_	69	conj	_	_
96	a	a	_	E	_	97	case	_	_
97	terra	terra	_	S	_	95	nmod	_	_
98	.	[PUNCT]	_	FS	_	69	punct	_	_

99	Il	il	_	RD	_	101	det	_	_
100	mio	mio	_	AP	_	101	det:poss	_	_
101	amico	amico	_	S	_	0	root	_	_
102	capí	capí	_	A	_	101	amod	_	_
103	che	che	_	PR	_	105	nsubj	_	_
104	non	non	_	BN	_	105	neg	_	_
105	bisognava	bisognare	_	V	_	101	acl:relcl	_	_
106	essere	essere	_	VA	_	107	auxpass	_	_
107	presuntuosi	presuntuoso	_	V	_	105	ccomp	_	_
108	per	per	_	E	_	109	mark	_	_
109	battere	battere	_	V	_	107	advcl	_	_
110	tutti	tutti	_	PI	_	109	dobj	_	_
111	,	[PUNCT]	_	FF	_	109	punct	_	_
112	bastava	bastare	_	V	_	109	advcl	_	_
113	impegnarsi	impegnare	_	V+PC	_	112	xcomp	_	_
114	anche	anche	_	B	_	113	advmod	_	_
115	se	se	_	CS	_	118	mark	_	_
116	non	non	_	BN	_	118	neg	_	_
117	si	si	_	PC	_	118	expl	_	_
118	era	essere	_	V	_	119	cop	_	_
119	forti	forte	_	A	_	113	xcomp	_	_
120	in	in	_	E	_	121	case	_	_
121	qualcosa	qualcosa	_	PI	_	119	nmod	_	_
122	e	e	_	CC	_	113	cc	_	_
123	dare	dare	_	V	_	113	conj	_	_
124	il	il	_	RD	_	125	det	_	_
125	meglio	meglio	_	A	_	123	dobj	_	_
126	.	[PUNCT]	_	FS	_	101	punct	_	_

127	Anch'	anch'	_	B	_	128	advmod	_	_
128	io	io	_	PE	_	129	nsubj	_	_
129	capii	capire	_	S	_	0	root	_	_
130	che	che	_	PR	_	136	nsubj	_	_
131	se	se	_	CS	_	133	mark	_	_
132	ero	essere	_	VA	_	133	aux	_	_
133	presuntuoso	presuntuoso	_	V	_	136	advcl	_	_
134	non	non	_	BN	_	136	neg	_	_
135	sarei	essere	_	V	_	136	cop	_	_
136	riuscito	riuscire	_	V	_	129	acl:relcl	_	_
137	bene	bene	_	B	_	136	advmod	_	_
138	a	a	_	E	_	139	mark	_	_
139	fare	fare	_	V	_	136	xcomp	_	_
140	qualcosa	qualcosa	_	PI	_	139	dobj	_	_
141	,	[PUNCT]	_	FF	_	129	punct	_	_
142	invece	invece	_	B	_	146	advmod	_	_
143	se	se	_	CS	_	146	mark	_	_
144	mi	mi	_	PC	_	146	expl	_	_
145	fossi	essere	_	VA	_	146	aux	_	_
146	impegnato	impegnare	_	V	_	129	advcl	_	_
147	a	a	_	E	_	148	mark	_	_
148	fare	fare	_	V	_	146	xcomp	_	_
149	per	per	_	E	_	150	case	_	_
150	esempio	esempio	_	S	_	148	nmod	_	_
151	una	una	_	RI	_	152	det	_	_
152	materia	materia	_	S	_	148	dobj	_	_
153	ci	ci	_	PC	_	154	expl	_	_
154	sarei	essere	_	V	_	152	acl:relcl	_	_
155	riuscito	riuscire	_	V	_	154	xcomp	_	_
156	.	[PUNCT]	_	FS	_	129	punct	_	_

157	Anche	anche	_	B	_	160	advmod	_	_
158	quando	quando	_	CS	_	160	mark	_	_
159	ero	essere	_	VA	_	160	aux	_	_
160	piú	più	_	V	_	163	advcl	_	_
161	piccolo	piccolo	_	A	_	160	xcomp	_	_
162	c'	c'	_	PC	_	163	expl	_	_
163	erano	essere	_	V	_	0	root	_	_
164	tanti	tanto	_	A	_	163	amod	_	_
165	che	che	_	CS	_	166	mark	_	_
166	pensavano	pensare	_	V	_	164	ccomp	_	_
167	di	di	_	E	_	169	mark	_	_
168	essere	essere	_	VA	_	169	aux	_	_
169	piú	più	_	V	_	166	xcomp	_	_
170	forti	forte	_	A	_	169	xcomp	_	_
171	di	di	_	E	_	172	case	_	_
172	qualcuno	qualcuno	_	PI	_	170	nmod	_	_
173	.	[PUNCT]	_	FS	_	163	punct	_	_

174	Ma	ma	_	CC	_	178	cc	_	_
175	anche	anche	_	B	_	176	advmod	_	_
176	crescendo	crescere	_	V	_	178	advcl	_	_
177	c'	c'	_	PC	_	178	expl	_	_
178	erano	essere	_	V	_	180	cop	_	_
179	tanti	tanto	_	DI	_	180	det	_	_
180	presuntuosi	presuntuoso	_	A	_	0	root	_	_
181	che	che	_	PR	_	182	nsubj	_	_
182	davano	dare	_	V	_	180	acl:relcl	_	_
183	sempre	sempre	_	B	_	182	advmod	_	_
184	fastidio	fastidio	_	S	_	182	dobj	_	_
185	a	a	_	E	_	186	case	_	_
186	tutti	tutti	_	PI	_	182	nmod	_	_
187	,	[PUNCT]	_	FF	_	182	punct	_	_
188	ma	ma	_	CC	_	182	cc	_	_
189	quando	quando	_	CS	_	192	mark	_	_
190	ci	ci	_	PC	_	192	advmod	_	_
191	si	si	_	PC	_	192	expl:impers	_	_
192	crede	credere	_	V	_	182	conj	_	_
193	piú	più	_	B	_	194	advmod	_	_
194	forti	forte	_	A	_	192	nsubj	_	_
195	degli	del	_	E+RD	_	197	case	_	_
196	altri	altro	_	A	_	197	amod	_	_
197	prima	prima	_	S	_	194	nmod	_	_
198	o	o	_	CC	_	192	cc	_	_
199	poi	poi	_	B	_	201	advmod	_	_
200	si	si	_	PC	_	201	expl:impers	_	_
201	perde	perdere	_	V	_	192	conj	_	_
202	.	[PUNCT]	_	FS	_	180	punct	_	_

