1	Una	una	_	RI	_	2	det	_	_
2	volta	volta	_	S	_	4	nmod	_	_
3	sono	essere	_	VA	_	4	aux	_	_
4	andato	andare	_	V	_	10	advcl	_	_
5	all'	all'	_	E+RD	_	6	case	_	_
6	allenamento	allenamento	_	S	_	4	nmod	_	_
7	di	di	_	E	_	8	case	_	_
8	calcio	calcio	_	S	_	6	nmod	_	_
9	mi	mi	_	PC	_	10	iobj	_	_
10	stavo	stare	_	V	_	0	root	_	_
11	allenando	allenare	_	V	_	10	advcl	_	_
12	con	con	_	E	_	15	case	_	_
13	il	il	_	RD	_	15	det	_	_
14	mio	mio	_	AP	_	15	det:poss	_	_
15	allenatore	allenatore	_	S	_	11	nmod	_	_
16	dei	del	_	E+RD	_	17	case	_	_
17	portieri	portiere	_	S	_	15	nmod	_	_
18	.	[PUNCT]	_	FS	_	10	punct	_	_

19	L'	l'	_	RD	_	20	det	_	_
20	allenatore	allenatore	_	S	_	24	nsubj	_	_
21	dei	del	_	E+RD	_	22	case	_	_
22	portieri	portiere	_	S	_	20	nmod	_	_
23	mi	mi	_	PC	_	24	dobj	_	_
24	disse	dire	_	V	_	0	root	_	_
25	:	[PUNCT]	_	FC	_	24	punct	_	_
26	–	–	_	FF	_	24	punct	_	_
27	Nico	Nico	_	SP	_	24	nmod	_	_
28	bravo	bravo	_	A	_	27	amod	_	_
29	oggi	oggi	_	B	_	31	advmod	_	_
30	con	con	_	E	_	31	case	_	_
31	me	me	_	PE	_	27	nmod	_	_
32	e	e	_	CC	_	27	cc	_	_
33	i	il	_	RD	_	35	det	_	_
34	tuoi	tuo	_	AP	_	35	det:poss	_	_
35	portieri	portiere	_	S	_	38	nsubj	_	_
36	compagni	compagno	_	S	_	35	compound	_	_
37	ti	ti	_	PC	_	38	expl	_	_
38	sei	essere	_	V	_	27	conj	_	_
39	comportato	comportare	_	V	_	38	advcl	_	_
40	molto	molto	_	B	_	41	advmod	_	_
41	bene	bene	_	B	_	39	advmod	_	_
42	–	–	_	FF	_	24	punct	_	_
43	.	[PUNCT]	_	FS	_	24	punct	_	_

44	Poi	poi	_	B	_	47	advmod	_	_
45	dopo	dopo	_	E	_	47	mark	_	_
46	ero	essere	_	VA	_	47	aux	_	_
47	salito	salire	_	V	_	67	advcl	_	_
48	su	su	_	E	_	51	case	_	_
49	dai	dal	_	E+RD	_	51	case	_	_
50	miei	mio	_	AP	_	51	det:poss	_	_
51	compagni	compagno	_	S	_	47	nmod	_	_
52	e	e	_	CC	_	47	cc	_	_
53	dall'	dall'	_	E+RD	_	54	case	_	_
54	allenatore	allenatore	_	S	_	47	conj	_	_
55	,	[PUNCT]	_	FF	_	47	punct	_	_
56	io	io	_	PE	_	60	nsubj	_	_
57	all'	all'	_	E+RD	_	58	case	_	_
58	allenatore	allenatore	_	S	_	56	nmod	_	_
59	gli	il	_	RD	_	60	det	_	_
60	chiesi	chiedere	_	S	_	47	conj	_	_
61	:	[PUNCT]	_	FC	_	47	punct	_	_
62	–	–	_	FF	_	47	punct	_	_
63	Mister	Mister	_	SP	_	67	nsubj	_	_
64	,	[PUNCT]	_	FF	_	63	punct	_	_
65	adesso	adesso	_	B	_	67	advmod	_	_
66	posso	potere	_	VM	_	67	aux	_	_
67	andare	andare	_	V	_	0	root	_	_
68	giù	giù	_	B	_	67	advmod	_	_
69	a	a	_	E	_	70	mark	_	_
70	giocare	giocare	_	V	_	67	xcomp	_	_
71	la	la	_	RD	_	72	det	_	_
72	partita	partita	_	S	_	70	dobj	_	_
73	tra	tra	_	E	_	74	case	_	_
74	E1	E1	_	SP	_	72	nmod	_	_
75	e	e	_	CC	_	74	cc	_	_
76	under	under	_	S	_	74	conj	_	_
77	11	11	_	N	_	76	nummod	_	_
78	?	[PUNCT]	_	FS	_	67	punct	_	_

79	E	e	_	CC	_	82	cc	_	_
80	lui	lui	_	PE	_	82	nsubj	_	_
81	mi	mi	_	PC	_	82	dobj	_	_
82	disse	dire	_	V	_	0	root	_	_
83	:	[PUNCT]	_	FC	_	82	punct	_	_
84	«	[PUNCT]	_	FB	_	85	punct	_	_
85	Ok	Ok	_	SP	_	82	nmod	_	_
86	!	[PUNCT]	_	FS	_	82	punct	_	_

87	Dopo	dopo	_	CS	_	89	mark	_	_
88	aver	avere	_	VA	_	89	aux	_	_
89	chiesto	chiedere	_	V	_	104	advcl	_	_
90	al	al	_	E+RD	_	91	case	_	_
91	mister	mister	_	S	_	89	nmod	_	_
92	se	se	_	CS	_	94	mark	_	_
93	potevo	potere	_	VM	_	94	aux	_	_
94	scendere	scendere	_	V	_	104	advcl	_	_
95	a	a	_	E	_	96	mark	_	_
96	giocare	giocare	_	V	_	94	xcomp	_	_
97	la	la	_	RD	_	98	det	_	_
98	partita	partita	_	S	_	96	dobj	_	_
99	fra	fra	_	E	_	100	case	_	_
100	E1	E1	_	SP	_	98	nmod	_	_
101	e	e	_	CC	_	100	cc	_	_
102	under	under	_	S	_	100	conj	_	_
103	11	11	_	N	_	102	nummod	_	_
104	scesi	scendere	_	V	_	0	root	_	_
105	.	[PUNCT]	_	FS	_	104	punct	_	_

106	Io	io	_	PE	_	107	nsubj	_	_
107	giocai	giocare	_	V	_	0	root	_	_
108	,	[PUNCT]	_	FF	_	107	punct	_	_
109	le	la	_	RD	_	110	det	_	_
110	squadre	squadra	_	S	_	112	nsubj	_	_
111	erano	essere	_	V	_	112	cop	_	_
112	miste	misto	_	A	_	107	conj	_	_
113	,	[PUNCT]	_	FF	_	107	punct	_	_
114	io	io	_	PE	_	118	nsubj	_	_
115	come	come	_	E	_	116	case	_	_
116	portiere	portiera	_	S	_	114	nmod	_	_
117	ho	avere	_	VA	_	118	aux	_	_
118	parato	parare	_	V	_	107	conj	_	_
119	bene	bene	_	B	_	118	advmod	_	_
120	.	[PUNCT]	_	FS	_	107	punct	_	_

121	Dopo	dopo	_	E	_	123	case	_	_
122	la	la	_	RD	_	123	det	_	_
123	partita	partita	_	S	_	125	nmod	_	_
124	ero	essere	_	VA	_	125	aux	_	_
125	andato	andare	_	V	_	0	root	_	_
126	in	in	_	E	_	127	case	_	_
127	spogliatoio	spogliatoio	_	S	_	125	nmod	_	_
128	e	e	_	CC	_	125	cc	_	_
129	dopo	dopo	_	CS	_	131	mark	_	_
130	aver	avere	_	VA	_	131	aux	_	_
131	fatto	fare	_	V	_	125	advcl	_	_
132	la	la	_	RD	_	133	det	_	_
133	doccia	doccia	_	S	_	131	dobj	_	_
134	vidi	vedere	_	A	_	133	amod	_	_
135	un	un	_	RI	_	137	det	_	_
136	mio	mio	_	AP	_	137	det:poss	_	_
137	compagno	compagno	_	S	_	131	dobj	_	_
138	di	di	_	E	_	139	case	_	_
139	squadra	squadra	_	S	_	137	nmod	_	_
140	che	che	_	PR	_	148	dobj	_	_
141	:	[PUNCT]	_	FC	_	140	punct	_	_
142	picchiava	picchiare	_	V	_	148	advcl	_	_
143	,	[PUNCT]	_	FF	_	142	punct	_	_
144	insultava	insultare	_	V	_	142	conj	_	_
145	ecc.	[ABL]	_	B	_	146	advmod	_	_
146	Dopo	dopo	_	B	_	144	advmod	_	_
147	io	io	_	PE	_	148	nsubj	_	_
148	intervenni	intervenire	_	V	_	139	acl:relcl	_	_
149	e	e	_	CC	_	148	cc	_	_
150	a	a	_	E	_	152	case	_	_
151	questo	questo	_	DD	_	152	det	_	_
152	punto	punto	_	S	_	154	nmod	_	_
153	gli	il	_	RD	_	154	det	_	_
154	dissi	dire	_	S	_	148	conj	_	_
155	:	[PUNCT]	_	FC	_	125	punct	_	_
156	–	–	_	FF	_	125	punct	_	_
157	Christian	Christian	_	SP	_	125	nsubj	_	_
158	,	[PUNCT]	_	FF	_	157	punct	_	_
159	perché	perché	_	CS	_	160	mark	_	_
160	stai	stare	_	V	_	157	advcl	_	_
161	insultando	insultare	_	V	_	160	xcomp	_	_
162	picchiando	picchiare	_	V	_	161	xcomp	_	_
163	Zaccaria	Zaccaria	_	SP	_	162	dobj	_	_
164	?	[PUNCT]	_	FS	_	125	punct	_	_

165	E	e	_	CC	_	166	cc	_	_
166	lui	lui	_	PE	_	173	nsubjpass	_	_
167	:	[PUNCT]	_	FC	_	166	punct	_	_
168	–	–	_	FF	_	166	punct	_	_
169	Perché	perché	_	B	_	173	advmod	_	_
170	Zaccaria	Zaccaria	_	SP	_	173	nsubj	_	_
171	mi	mi	_	PC	_	173	dobj	_	_
172	ha	avere	_	VA	_	173	aux	_	_
173	insultato	insultare	_	V	_	0	root	_	_
174	.	[PUNCT]	_	FS	_	173	punct	_	_

175	E	e	_	CC	_	177	cc	_	_
176	io	io	_	PE	_	177	nsubj	_	_
177	dissi	dire	_	V	_	0	root	_	_
178	a	a	_	E	_	179	case	_	_
179	tutti	tutti	_	PI	_	177	nmod	_	_
180	e	e	_	CC	_	179	cc	_	_
181	due	due	_	N	_	179	conj	_	_
182	:	[PUNCT]	_	FC	_	177	punct	_	_
183	–	–	_	FF	_	177	punct	_	_
184	Ragazzi	Ragazzi	_	SP	_	186	nsubj	_	_
185	adesso	adesso	_	B	_	186	advmod	_	_
186	fate	fare	_	V	_	177	conj	_	_
187	la	la	_	RD	_	188	det	_	_
188	pace	pace	_	S	_	186	dobj	_	_
189	e	e	_	CC	_	177	cc	_	_
190	la	la	_	RD	_	191	det	_	_
191	fecero	fare	_	V	_	177	conj	_	_
192	.	[PUNCT]	_	FS	_	177	punct	_	_

193	Questo	questo	_	DD	_	194	det	_	_
194	episodio	episodio	_	S	_	197	nsubj	_	_
195	mi	mi	_	PC	_	197	dobj	_	_
196	ha	avere	_	VA	_	197	aux	_	_
197	fatto	fare	_	V	_	0	root	_	_
198	capire	capire	_	V	_	197	ccomp	_	_
199	che	che	_	CS	_	208	mark	_	_
200	quando	quando	_	CS	_	203	mark	_	_
201	qualcuno	qualcuno	_	PI	_	203	nsubj	_	_
202	sta	stare	_	VA	_	203	aux	_	_
203	insultando	insultare	_	V	_	208	advcl	_	_
204	un'	un'	_	RI	_	205	det	_	_
205	altro	altro	_	PI	_	208	nsubj	_	_
206	si	si	_	PC	_	208	expl	_	_
207	deve	dovere	_	VM	_	208	aux	_	_
208	difendere	difendere	_	V	_	198	ccomp	_	_
209	e	e	_	CC	_	208	cc	_	_
210	riflettere	riflettere	_	V	_	208	conj	_	_
211	su	su	_	E	_	212	case	_	_
212	quello	quello	_	PD	_	210	nmod	_	_
213	che	che	_	PR	_	214	dobj	_	_
214	stai	stare	_	V	_	212	acl:relcl	_	_
215	facendo	fare	_	V	_	214	advcl	_	_
216	.	[PUNCT]	_	FS	_	197	punct	_	_

