1	Riflessione	riflessione	_	S	_	10	nsubj	_	_
2	Io	io	_	PE	_	1	nmod	_	_
3	e	e	_	CC	_	2	cc	_	_
4	mio	mio	_	AP	_	5	det:poss	_	_
5	fratello	fratello	_	S	_	2	conj	_	_
6	a	a	_	E	_	7	case	_	_
7	casa	casa	_	S	_	5	nmod	_	_
8	nostra	nostro	_	AP	_	7	det:poss	_	_
9	abbiamo	avere	_	VA	_	10	aux	_	_
10	giocato	giocare	_	V	_	0	root	_	_
11	a	a	_	E	_	12	case	_	_
12	calcio	calcio	_	S	_	10	nmod	_	_
13	.	[PUNCT]	_	FS	_	10	punct	_	_

14	Si	si	_	PC	_	16	expl	_	_
15	è	essere	_	VA	_	16	aux	_	_
16	spaccato	spaccare	_	V	_	0	root	_	_
17	l'	l'	_	RD	_	18	det	_	_
18	armado	armado	_	S	_	16	nsubj	_	_
19	di	di	_	E	_	20	case	_	_
20	vetro	vetro	_	S	_	18	nmod	_	_
21	.	[PUNCT]	_	FS	_	16	punct	_	_

22	Perché	perché	_	B	_	28	advmod	_	_
23	a	a	_	E	_	24	case	_	_
24	casa	casa	_	S	_	28	nmod	_	_
25	nostra	nostro	_	AP	_	24	det:poss	_	_
26	non	non	_	BN	_	28	neg	_	_
27	avevamo	avere	_	VA	_	28	aux	_	_
28	niente	niente	_	PI	_	0	root	_	_
29	da	da	_	E	_	30	mark	_	_
30	fare	fare	_	V	_	28	acl	_	_
31	allora	allora	_	B	_	30	advmod	_	_
32	ho	avere	_	VA	_	33	aux	_	_
33	chiesto	chiedere	_	V	_	30	advcl	_	_
34	se	se	_	CS	_	35	mark	_	_
35	giocare	giocare	_	V	_	33	ccomp	_	_
36	a	a	_	E	_	37	case	_	_
37	calcio	calcio	_	S	_	35	nmod	_	_
38	.	[PUNCT]	_	FS	_	28	punct	_	_

39	Dopo	dopo	_	E	_	40	case	_	_
40	10	10	_	N	_	41	nummod	_	_
41	min	min	_	S	_	43	nsubj	_	_
42	ho	avere	_	VA	_	43	aux	_	_
43	tirato	tirare	_	V	_	0	root	_	_
44	sulla	sulla	_	E+RD	_	45	case	_	_
45	finestra	finestra	_	S	_	43	nmod	_	_
46	peró	peró	_	A	_	45	amod	_	_
47	è	essere	_	VA	_	48	aux	_	_
48	successo	succedere	_	V	_	43	advcl	_	_
49	niente	niente	_	PI	_	48	nsubj	_	_
50	.	[PUNCT]	_	FS	_	43	punct	_	_

51	Per	per	_	E	_	52	case	_	_
52	fortuna	fortuna	_	S	_	58	nmod	_	_
53	se	se	_	CS	_	58	mark	_	_
54	no	no	_	BN	_	58	neg	_	_
55	la	la	_	RD	_	56	det	_	_
56	mamma	mamma	_	S	_	58	nsubj	_	_
57	si	si	_	PC	_	58	expl	_	_
58	arrabbia	arrabbiare	_	V	_	0	root	_	_
59	.	[PUNCT]	_	FS	_	58	punct	_	_

60	Ma	ma	_	CC	_	70	cc	_	_
61	alla	alla	_	E+RD	_	62	case	_	_
62	fine	fine	_	S	_	70	nmod	_	_
63	quando	quando	_	CS	_	65	mark	_	_
64	é	essere	_	VA	_	65	aux	_	_
65	finita	finire	_	V	_	70	advcl	_	_
66	la	la	_	RD	_	67	det	_	_
67	partita	partita	_	S	_	70	nsubj	_	_
68	mi	mi	_	PC	_	70	expl	_	_
69	sono	essere	_	VA	_	70	aux	_	_
70	arrabbiato	arrabbiare	_	V	_	0	root	_	_
71	ho	avere	_	VA	_	72	aux	_	_
72	tirato	tirare	_	V	_	70	advcl	_	_
73	tutto	tutto	_	PI	_	72	dobj	_	_
74	per	per	_	E	_	75	case	_	_
75	terra	terra	_	S	_	72	nmod	_	_
76	,	[PUNCT]	_	FF	_	70	punct	_	_
77	ho	avere	_	VA	_	78	aux	_	_
78	tirato	tirare	_	V	_	70	parataxis	_	_
79	un	un	_	RI	_	80	det	_	_
80	calcio	calcio	_	S	_	78	dobj	_	_
81	sulla	sulla	_	E+RD	_	82	case	_	_
82	palla	palla	_	S	_	78	nmod	_	_
83	di	di	_	E	_	84	case	_	_
84	calcio	calcio	_	S	_	82	nmod	_	_
85	e	e	_	CC	_	78	cc	_	_
86	ho	avere	_	VA	_	87	aux	_	_
87	colpito	colpire	_	V	_	78	conj	_	_
88	l'	l'	_	RD	_	89	det	_	_
89	armadio	armadio	_	S	_	87	dobj	_	_
90	.	[PUNCT]	_	FS	_	70	punct	_	_

91	Per	per	_	E	_	93	mark	_	_
92	non	non	_	BN	_	93	neg	_	_
93	farlo	fare	_	V+PC	_	0	root	_	_
94	vedere	vedere	_	V	_	93	ccomp	_	_
95	alla	alla	_	E+RD	_	96	case	_	_
96	mamma	mamma	_	S	_	94	nmod	_	_
97	ho	avere	_	VA	_	98	aux	_	_
98	preso	prendere	_	V	_	94	advcl	_	_
99	un	un	_	RI	_	100	det	_	_
100	sacco	sacco	_	S	_	98	dobj	_	_
101	da	da	_	E	_	102	case	_	_
102	rifiuti	rifiuto	_	S	_	100	nmod	_	_
103	per	per	_	E	_	104	mark	_	_
104	mettere	mettere	_	V	_	98	advcl	_	_
105	dentro	dentro	_	B	_	104	advmod	_	_
106	i	il	_	RD	_	107	det	_	_
107	pezzi	pezzo	_	S	_	104	dobj	_	_
108	di	di	_	E	_	109	case	_	_
109	vetro	vetro	_	S	_	107	nmod	_	_
110	poi	poi	_	B	_	104	advmod	_	_
111	e	e	_	CC	_	110	cc	_	_
112	arrivata	arrivare	_	V	_	110	conj	_	_
113	la	la	_	RD	_	114	det	_	_
114	mamma	mamma	_	S	_	119	nmod	_	_
115	La	la	_	RD	_	116	det	_	_
116	mamma	mamma	_	S	_	119	nsubj	_	_
117	m'	mi	_	PC	_	119	dobj	_	_
118	ha	avere	_	VA	_	119	aux	_	_
119	sgridato	sgridare	_	V	_	112	csubj	_	_
120	tanto	tanto	_	B	_	119	advmod	_	_
121	.	[PUNCT]	_	FS	_	93	punct	_	_

122	Io	io	_	PE	_	125	nsubj	_	_
123	mi	mi	_	PC	_	125	expl	_	_
124	sono	essere	_	VA	_	125	aux	_	_
125	messo	mettere	_	V	_	0	root	_	_
126	a	a	_	E	_	127	mark	_	_
127	piangere	piangere	_	V	_	125	xcomp	_	_
128	perché	perché	_	CS	_	131	mark	_	_
129	non	non	_	BN	_	131	neg	_	_
130	volevo	volere	_	VM	_	131	aux	_	_
131	romperlo	rompere	_	V+PC	_	127	advcl	_	_
132	.	[PUNCT]	_	FS	_	125	punct	_	_

133	Alla	alla	_	E+RD	_	134	case	_	_
134	fine	fine	_	S	_	137	nmod	_	_
135	sono	essere	_	VA	_	137	aux	_	_
136	stato	essere	_	VA	_	137	auxpass	_	_
137	punito	punire	_	V	_	0	root	_	_
138	.	[PUNCT]	_	FS	_	137	punct	_	_

139	Da	da	_	E	_	141	case	_	_
140	quel	quello	_	DD	_	141	det	_	_
141	giorno	giorno	_	S	_	143	nmod	_	_
142	ho	avere	_	VA	_	143	aux	_	_
143	imparato	imparare	_	V	_	0	root	_	_
144	che	che	_	CS	_	147	mark	_	_
145	non	non	_	BN	_	147	neg	_	_
146	si	si	_	PC	_	147	expl:impers	_	_
147	gioca	giocare	_	V	_	143	ccomp	_	_
148	a	a	_	E	_	149	case	_	_
149	calcio	calcio	_	S	_	147	nmod	_	_
150	in	in	_	E	_	151	case	_	_
151	casa	casa	_	S	_	147	nmod	_	_
152	.	[PUNCT]	_	FS	_	143	punct	_	_

