1	Il	il	_	RD	_	3	det	_	_
2	mio	mio	_	AP	_	3	det:poss	_	_
3	assalto	assalto	_	S	_	0	root	_	_
4	di	di	_	E	_	5	case	_	_
5	scherma	scherma	_	S	_	10	nmod	_	_
6	Questa	questo	_	DD	_	7	det	_	_
7	favola	favola	_	S	_	10	nsubj	_	_
8	mi	mi	_	PC	_	10	dobj	_	_
9	ha	avere	_	VA	_	10	aux	_	_
10	ricordato	ricordare	_	V	_	3	acl	_	_
11	di	di	_	E	_	14	case	_	_
12	un	un	_	RI	_	14	det	_	_
13	mio	mio	_	AP	_	14	det:poss	_	_
14	assalto	assalto	_	S	_	10	nmod	_	_
15	di	di	_	E	_	16	case	_	_
16	scherma	scherma	_	S	_	14	nmod	_	_
17	:	[PUNCT]	_	FC	_	3	punct	_	_
18	l'	l'	_	RD	_	19	det	_	_
19	avversario	avversario	_	S	_	21	nsubj	_	_
20	mi	mi	_	PC	_	21	dobj	_	_
21	attaccava	attaccare	_	V	_	3	acl	_	_
22	a	a	_	E	_	23	case	_	_
23	caso	caso	_	S	_	21	nmod	_	_
24	,	[PUNCT]	_	FF	_	21	punct	_	_
25	quindi	quindi	_	B	_	21	advmod	_	_
26	io	io	_	PE	_	27	nsubj	_	_
27	riuscivo	riuscire	_	V	_	21	advcl	_	_
28	a	a	_	E	_	29	mark	_	_
29	parare	parare	_	V	_	27	xcomp	_	_
30	e	e	_	CC	_	29	cc	_	_
31	impedivo	impedire	_	V	_	29	conj	_	_
32	all'	all'	_	E+RD	_	33	case	_	_
33	avversario	avversario	_	S	_	31	nmod	_	_
34	di	di	_	E	_	35	mark	_	_
35	fare	fare	_	V	_	31	xcomp	_	_
36	punto	punto	_	S	_	35	dobj	_	_
37	.	[PUNCT]	_	FS	_	3	punct	_	_

38	Io	io	_	PE	_	41	nsubj	_	_
39	invece	invece	_	B	_	40	advmod	_	_
40	prima	prima	_	B	_	41	advmod	_	_
41	pensavo	pensare	_	V	_	0	root	_	_
42	alla	alla	_	E+RD	_	43	case	_	_
43	strategia	strategia	_	S	_	41	nmod	_	_
44	da	da	_	E	_	45	mark	_	_
45	fare	fare	_	V	_	41	xcomp	_	_
46	,	[PUNCT]	_	FF	_	45	punct	_	_
47	poi	poi	_	B	_	48	advmod	_	_
48	colpivo	colpire	_	V	_	45	conj	_	_
49	l'	l'	_	RD	_	50	det	_	_
50	avversario	avversario	_	S	_	48	dobj	_	_
51	facendo	fare	_	V	_	48	advcl	_	_
52	punto	punto	_	S	_	51	dobj	_	_
53	.	[PUNCT]	_	FS	_	41	punct	_	_

54	Alla	alla	_	E+RD	_	55	case	_	_
55	fine	fine	_	S	_	58	nmod	_	_
56	ho	avere	_	VA	_	58	aux	_	_
57	difatti	difatti	_	CC	_	56	cc	_	_
58	vinto	vincere	_	V	_	0	root	_	_
59	:	[PUNCT]	_	FC	_	58	punct	_	_
60	5	5	_	N	_	58	nummod	_	_
61	a	a	_	E	_	62	case	_	_
62	2	2	_	N	_	60	nummod	_	_
63	!	[PUNCT]	_	FS	_	58	punct	_	_

64	Quell'	quello	_	DD	_	65	det	_	_
65	assalto	assalto	_	S	_	68	nsubj	_	_
66	mi	mi	_	PC	_	68	dobj	_	_
67	ho	avere	_	VA	_	68	aux	_	_
68	fatto	fare	_	V	_	0	root	_	_
69	capire	capire	_	V	_	68	ccomp	_	_
70	quindi	quindi	_	B	_	69	advmod	_	_
71	,	[PUNCT]	_	FF	_	69	punct	_	_
72	che	che	_	PR	_	74	nsubj	_	_
73	non	non	_	BN	_	74	neg	_	_
74	bisogna	bisognare	_	V	_	69	acl:relcl	_	_
75	ne	ne	_	E	_	76	mark	_	_
76	avere	avere	_	V	_	74	xcomp	_	_
77	troppa	troppo	_	PI	_	76	dobj	_	_
78	fretta	fretta	_	S	_	77	mwe	_	_
79	nelle	nella	_	E+RD	_	80	case	_	_
80	cose	cosa	_	S	_	76	nmod	_	_
81	,	[PUNCT]	_	FF	_	74	punct	_	_
82	ma	ma	_	CC	_	74	cc	_	_
83	non	non	_	BN	_	84	neg	_	_
84	bisogna	bisognare	_	V	_	74	conj	_	_
85	neanche	neanche	_	BN	_	88	neg	_	_
86	essere	essere	_	V	_	88	cop	_	_
87	troppo	troppo	_	B	_	88	advmod	_	_
88	lenti	lento	_	A	_	84	csubj	_	_
89	nelle	nella	_	E+RD	_	90	case	_	_
90	cose	cosa	_	S	_	88	nmod	_	_
91	.	[PUNCT]	_	FS	_	68	punct	_	_

92	Non	non	_	BN	_	93	neg	_	_
93	bisogna	bisognare	_	V	_	0	root	_	_
94	fare	fare	_	V	_	93	csubj	_	_
95	le	la	_	RD	_	96	det	_	_
96	cose	cosa	_	S	_	94	dobj	_	_
97	male	male	_	B	_	94	advmod	_	_
98	ma	ma	_	CC	_	97	cc	_	_
99	bene	bene	_	B	_	97	conj	_	_
100	,	[PUNCT]	_	FF	_	94	punct	_	_
101	quindi	quindi	_	B	_	103	advmod	_	_
102	c'	c'	_	PC	_	103	expl	_	_
103	è	essere	_	V	_	94	conj	_	_
104	infatti	infatti	_	B	_	105	advmod	_	_
105	chi	chi	_	PR	_	107	nsubj	_	_
106	è	essere	_	V	_	107	cop	_	_
107	veloce	veloce	_	A	_	103	ccomp	_	_
108	a	a	_	E	_	109	mark	_	_
109	fare	fare	_	V	_	107	xcomp	_	_
110	le	la	_	RD	_	111	det	_	_
111	cose	cosa	_	S	_	109	dobj	_	_
112	,	[PUNCT]	_	FF	_	107	punct	_	_
113	e	e	_	CC	_	107	cc	_	_
114	le	la	_	RD	_	115	det	_	_
115	fa	fare	_	V	_	107	conj	_	_
116	bene	bene	_	B	_	115	advmod	_	_
117	,	[PUNCT]	_	FF	_	107	punct	_	_
118	e	e	_	CC	_	107	cc	_	_
119	chi	chi	_	PR	_	107	conj	_	_
120	invece	invece	_	B	_	123	advmod	_	_
121	le	la	_	RD	_	123	det	_	_
122	fa	fa	_	B	_	123	advmod	_	_
123	piano	piano	_	S	_	119	acl:relcl	_	_
124	e	e	_	CC	_	123	cc	_	_
125	anche	anche	_	B	_	126	advmod	_	_
126	male	male	_	B	_	123	conj	_	_
127	.	[PUNCT]	_	FS	_	93	punct	_	_

128	Chi	chi	_	PR	_	131	nsubj	_	_
129	però	però	_	B	_	131	advmod	_	_
130	le	le	_	PC	_	131	iobj	_	_
131	fa	fare	_	V	_	0	root	_	_
132	veloci	veloce	_	A	_	131	xcomp	_	_
133	e	e	_	CC	_	131	cc	_	_
134	bene	bene	_	B	_	138	advmod	_	_
135	non	non	_	BN	_	138	neg	_	_
136	si	si	_	PC	_	138	expl	_	_
137	deve	dovere	_	VM	_	138	aux	_	_
138	vantare	vantare	_	V	_	131	conj	_	_
139	troppo	troppo	_	B	_	138	advmod	_	_
140	,	[PUNCT]	_	FF	_	131	punct	_	_
141	perché	perché	_	CS	_	143	mark	_	_
142	potrebbe	potere	_	VM	_	143	aux	_	_
143	offendere	offendere	_	V	_	131	advcl	_	_
144	chi	chi	_	PR	_	143	dobj	_	_
145	magari	magari	_	B	_	147	advmod	_	_
146	le	la	_	RD	_	147	det	_	_
147	cose	cosa	_	S	_	151	nmod	_	_
148	le	la	_	RD	_	149	det	_	_
149	cose	cosa	_	S	_	151	nsubj	_	_
150	le	le	_	PC	_	151	dobj	_	_
151	fa	fare	_	V	_	144	acl:relcl	_	_
152	piano	piano	_	B	_	151	advmod	_	_
153	e	e	_	CC	_	151	cc	_	_
154	male	male	_	B	_	151	conj	_	_
155	ma	ma	_	CC	_	154	cc	_	_
156	perché	perché	_	CS	_	158	mark	_	_
157	fa	fa	_	B	_	158	advmod	_	_
158	fatica	fatica	_	S	_	154	conj	_	_
159	e	e	_	CC	_	158	cc	_	_
160	non	non	_	BN	_	161	neg	_	_
161	riesce	riuscire	_	V	_	158	conj	_	_
162	a	a	_	E	_	163	mark	_	_
163	farle	fare	_	V+PC	_	161	xcomp	_	_
164	bene	bene	_	B	_	163	advmod	_	_
165	.	[PUNCT]	_	FS	_	131	punct	_	_

