1	La	la	_	RD	_	2	det	_	_
2	storia	storia	_	S	_	7	nsubj	_	_
3	degli	del	_	E+RD	_	4	case	_	_
4	insegnamenti	insegnamento	_	S	_	7	nmod	_	_
5	Qualche	qualche	_	DI	_	6	det	_	_
6	sera	sera	_	S	_	7	nsubj	_	_
7	fa	fare	_	V	_	0	root	_	_
8	,	[PUNCT]	_	FF	_	7	punct	_	_
9	ero	essere	_	V	_	7	conj	_	_
10	a	a	_	E	_	11	case	_	_
11	casa	casa	_	S	_	9	nmod	_	_
12	avevo	avere	_	V	_	9	xcomp	_	_
13	una	una	_	RI	_	14	det	_	_
14	fame	fame	_	S	_	12	dobj	_	_
15	incredibile	incredibile	_	A	_	14	amod	_	_
16	.	[PUNCT]	_	FS	_	7	punct	_	_

17	Aspettavo	aspettare	_	V	_	23	advcl	_	_
18	con	con	_	E	_	19	case	_	_
19	ansia	ansia	_	S	_	17	nmod	_	_
20	la	la	_	RD	_	21	det	_	_
21	cena	cena	_	S	_	23	nsubj	_	_
22	non	non	_	BN	_	23	neg	_	_
23	vedevo	vedere	_	V	_	0	root	_	_
24	l'	l'	_	RD	_	25	det	_	_
25	ora	ora	_	S	_	23	dobj	_	_
26	di	di	_	E	_	27	mark	_	_
27	addentare	addentare	_	V	_	25	acl	_	_
28	il	il	_	RD	_	30	det	_	_
29	mio	mio	_	AP	_	30	det:poss	_	_
30	pasto	pasto	_	S	_	27	dobj	_	_
31	.	[PUNCT]	_	FS	_	23	punct	_	_

32	In	in	_	E	_	33	case	_	_
33	seguito	seguito	_	S	_	35	nmod	_	_
34	mia	mio	_	AP	_	35	det:poss	_	_
35	mamma	mamma	_	S	_	36	nsubj	_	_
36	finì	finire	_	V	_	0	root	_	_
37	di	di	_	E	_	38	mark	_	_
38	cucinare	cucinare	_	V	_	36	xcomp	_	_
39	e	e	_	CC	_	36	cc	_	_
40	ci	ci	_	PC	_	41	dobj	_	_
41	chiamò	chiamare	_	V	_	36	conj	_	_
42	a	a	_	E	_	43	case	_	_
43	tavola	tavola	_	S	_	41	nmod	_	_
44	,	[PUNCT]	_	FF	_	36	punct	_	_
45	tutti	tutti	_	PI	_	47	nsubj	_	_
46	si	si	_	PC	_	47	expl	_	_
47	sedettero	sedere	_	V	_	36	conj	_	_
48	al	al	_	E+RD	_	49	case	_	_
49	tavolo	tavolo	_	S	_	47	nmod	_	_
50	e	e	_	CC	_	49	cc	_	_
51	mangiammo	mangiare	_	S	_	49	conj	_	_
52	.	[PUNCT]	_	FS	_	36	punct	_	_

53	A	a	_	E	_	54	case	_	_
54	cena	cena	_	S	_	56	nmod	_	_
55	c'	c'	_	PC	_	56	expl	_	_
56	erano	essere	_	V	_	0	root	_	_
57	le	la	_	RD	_	58	det	_	_
58	crêpes	crêpes	_	S	_	56	nsubj	_	_
59	dolci	dolce	_	A	_	58	amod	_	_
60	.	[PUNCT]	_	FS	_	56	punct	_	_

61	Ero	essere	_	V	_	63	cop	_	_
62	il	il	_	RD	_	63	det	_	_
63	primo	primo	_	NO	_	0	root	_	_
64	a	a	_	E	_	65	mark	_	_
65	finire	finire	_	V	_	63	acl	_	_
66	di	di	_	E	_	67	mark	_	_
67	mangiare	mangiare	_	V	_	65	xcomp	_	_
68	,	[PUNCT]	_	FF	_	63	punct	_	_
69	e	e	_	CC	_	63	cc	_	_
70	mio	mio	_	PP	_	75	mark	_	_
71	papà	papà	_	S	_	75	nsubj	_	_
72	non	non	_	BN	_	75	neg	_	_
73	aveva	avere	_	VA	_	75	aux	_	_
74	ancora	ancora	_	B	_	75	advmod	_	_
75	finito	finire	_	V	_	63	conj	_	_
76	la	la	_	RD	_	77	det	_	_
77	sua	suo	_	AP	_	75	det:poss	_	_
78	.	[PUNCT]	_	FS	_	77	punct	_	_

79	Allora	allora	_	B	_	82	advmod	_	_
80	me	me	_	PC	_	82	iobj	_	_
81	ne	ne	_	PC	_	82	advmod	_	_
82	diede	dare	_	V	_	0	root	_	_
83	metà	metà	_	S	_	82	dobj	_	_
84	.	[PUNCT]	_	FS	_	82	punct	_	_

85	Mia	Mia	_	CC	_	88	cc	_	_
86	mamma	mamma	_	S	_	88	nsubj	_	_
87	mi	mi	_	PC	_	88	iobj	_	_
88	ripeteva	ripetere	_	V	_	0	root	_	_
89	che	che	_	CS	_	92	mark	_	_
90	non	non	_	BN	_	92	neg	_	_
91	dovevo	dovere	_	VM	_	92	aux	_	_
92	mangiare	mangiare	_	V	_	88	ccomp	_	_
93	troppo	troppo	_	B	_	94	advmod	_	_
94	veloce	veloce	_	A	_	92	xcomp	_	_
95	.	[PUNCT]	_	FS	_	88	punct	_	_

96	Io	io	_	PE	_	98	nsubj	_	_
97	invece	invece	_	B	_	98	advmod	_	_
98	continuavo	continuare	_	V	_	0	root	_	_
99	a	a	_	E	_	100	mark	_	_
100	mangiare	mangiare	_	V	_	98	xcomp	_	_
101	.	[PUNCT]	_	FS	_	98	punct	_	_

102	Mia	Mia	_	CC	_	105	cc	_	_
103	mamma	mamma	_	S	_	105	nsubj	_	_
104	mi	mi	_	PC	_	105	iobj	_	_
105	chiese	chiedere	_	V	_	0	root	_	_
106	se	se	_	CS	_	109	mark	_	_
107	volevo	volere	_	VM	_	109	aux	_	_
108	anche	anche	_	B	_	109	advmod	_	_
109	quella	quella	_	PD	_	118	dobj	_	_
110	di	di	_	E	_	112	case	_	_
111	mia	mio	_	AP	_	112	det:poss	_	_
112	sorella	sorella	_	S	_	109	nmod	_	_
113	e	e	_	CC	_	109	cc	_	_
114	solo	solo	_	B	_	116	advmod	_	_
115	per	per	_	E	_	116	case	_	_
116	gola	gola	_	S	_	109	conj	_	_
117	io	io	_	PE	_	118	nsubj	_	_
118	risposi	rispondere	_	V	_	105	ccomp	_	_
119	di	di	_	E	_	120	case	_	_
120	sí	sí	_	S	_	118	nmod	_	_
121	.	[PUNCT]	_	FS	_	105	punct	_	_

122	Poi	poi	_	B	_	123	advmod	_	_
123	ero	essere	_	V	_	0	root	_	_
124	pienissimo	pieno	_	A	_	123	xcomp	_	_
125	,	[PUNCT]	_	FF	_	123	punct	_	_
126	ed	ed	_	CC	_	123	cc	_	_
127	era	essere	_	VA	_	130	aux	_	_
128	ora	ora	_	B	_	130	advmod	_	_
129	di	di	_	E	_	130	mark	_	_
130	dormire	dormire	_	V	_	123	conj	_	_
131	.	[PUNCT]	_	FS	_	123	punct	_	_

132	Mi	mi	_	PC	_	133	dobj	_	_
133	buttai	buttare	_	V	_	0	root	_	_
134	nel	nel	_	E+RD	_	136	case	_	_
135	mio	mio	_	AP	_	136	det:poss	_	_
136	caldo	caldo	_	S	_	137	nmod	_	_
137	letto	leggere	_	V	_	133	xcomp	_	_
138	e	e	_	CC	_	137	cc	_	_
139	cercai	cercare	_	V	_	137	conj	_	_
140	di	di	_	E	_	141	mark	_	_
141	dormire	dormire	_	V	_	139	xcomp	_	_
142	ma	ma	_	CC	_	137	cc	_	_
143	mi	mi	_	PC	_	144	dobj	_	_
144	faceva	fare	_	V	_	137	conj	_	_
145	male	male	_	B	_	144	advmod	_	_
146	la	la	_	RD	_	147	det	_	_
147	pancia	pancia	_	S	_	144	nsubj	_	_
148	,	[PUNCT]	_	FF	_	137	punct	_	_
149	anzi	anzi	_	B	_	151	advmod	_	_
150	molto	molto	_	B	_	151	advmod	_	_
151	male	male	_	B	_	137	advmod	_	_
152	e	e	_	CC	_	137	cc	_	_
153	non	non	_	BN	_	154	neg	_	_
154	riuscivo	riuscire	_	V	_	137	conj	_	_
155	a	a	_	E	_	156	mark	_	_
156	dormire	dormire	_	V	_	154	xcomp	_	_
157	.	[PUNCT]	_	FS	_	133	punct	_	_

158	Mi	mi	_	PC	_	159	expl	_	_
159	addormentai	addormentare	_	V	_	0	root	_	_
160	piú	più	_	S	_	159	xcomp	_	_
161	tardi	tardi	_	B	_	160	advmod	_	_
162	;	[PUNCT]	_	FC	_	159	punct	_	_
163	il	il	_	RD	_	164	det	_	_
164	giorno	giorno	_	S	_	167	nmod	_	_
165	dopo	dopo	_	B	_	167	advmod	_	_
166	mi	mi	_	PC	_	167	dobj	_	_
167	svegliai	svegliare	_	V	_	159	advcl	_	_
168	,	[PUNCT]	_	FF	_	167	punct	_	_
169	ma	ma	_	CC	_	167	cc	_	_
170	ero	essere	_	V	_	172	cop	_	_
171	ancora	ancora	_	B	_	172	advmod	_	_
172	stanchissimo	stanco	_	A	_	167	conj	_	_
173	.	[PUNCT]	_	FS	_	159	punct	_	_

174	Da	da	_	E	_	176	case	_	_
175	quella	quello	_	DD	_	176	det	_	_
176	sera	sera	_	S	_	178	nmod	_	_
177	ho	avere	_	VA	_	178	aux	_	_
178	imparato	imparare	_	V	_	0	root	_	_
179	di	di	_	E	_	182	mark	_	_
180	:	[PUNCT]	_	FC	_	179	punct	_	_
181	non	non	_	BN	_	182	neg	_	_
182	mangiare	mangiare	_	V	_	178	xcomp	_	_
183	veloce	veloce	_	A	_	182	xcomp	_	_
184	,	[PUNCT]	_	FF	_	178	punct	_	_
185	o	o	_	CC	_	178	cc	_	_
186	per	per	_	E	_	187	case	_	_
187	gola	gola	_	S	_	178	conj	_	_
188	e	e	_	CC	_	187	cc	_	_
189	andare	andare	_	V	_	187	conj	_	_
190	presto	presto	_	B	_	189	advmod	_	_
191	a	a	_	E	_	192	mark	_	_
192	letto	leggere	_	V	_	189	xcomp	_	_
193	se	se	_	CS	_	198	mark	_	_
194	il	il	_	RD	_	195	det	_	_
195	giorno	giorno	_	S	_	198	nsubj	_	_
196	seguente	seguente	_	A	_	195	amod	_	_
197	c'	c'	_	PC	_	198	expl	_	_
198	é	essere	_	V	_	192	advcl	_	_
199	scuola	scuola	_	S	_	198	dobj	_	_
200	,	[PUNCT]	_	FF	_	192	punct	_	_
201	per	per	_	E	_	202	mark	_	_
202	evitare	evitare	_	V	_	192	advcl	_	_
203	di	di	_	E	_	204	mark	_	_
204	arrivare	arrivare	_	V	_	202	xcomp	_	_
205	in	in	_	E	_	206	case	_	_
206	ritardo	ritardo	_	S	_	204	nmod	_	_
207	e	e	_	CC	_	204	cc	_	_
208	essere	essere	_	V	_	209	cop	_	_
209	stanchi	stanco	_	A	_	204	conj	_	_
210	.	[PUNCT]	_	FS	_	178	punct	_	_

