1	Una	una	_	RI	_	3	det	_	_
2	brutta	brutto	_	A	_	3	amod	_	_
3	storia	storia	_	S	_	6	nmod	_	_
4	Un	un	_	RI	_	5	det	_	_
5	giorno	giorno	_	S	_	6	nmod	_	_
6	ero	essere	_	V	_	0	root	_	_
7	a	a	_	E	_	8	case	_	_
8	casa	casa	_	S	_	6	nmod	_	_
9	mia	mio	_	AP	_	8	det:poss	_	_
10	con	con	_	E	_	12	case	_	_
11	mio	mio	_	AP	_	12	det:poss	_	_
12	papá	papá	_	S	_	6	nmod	_	_
13	e	e	_	CC	_	12	cc	_	_
14	mia	mio	_	AP	_	15	det:poss	_	_
15	mamma	mamma	_	S	_	12	conj	_	_
16	e	e	_	CC	_	6	cc	_	_
17	non	non	_	BN	_	18	neg	_	_
18	sapevamo	sapere	_	V	_	6	conj	_	_
19	cosa	cosa	_	PQ	_	20	dobj	_	_
20	fare	fare	_	V	_	18	ccomp	_	_
21	,	[PUNCT]	_	FF	_	20	punct	_	_
22	dopo	dopo	_	E	_	24	case	_	_
23	un	un	_	RI	_	24	det	_	_
24	po'	po'	_	B	_	28	advmod	_	_
25	mio	mio	_	AP	_	26	det:poss	_	_
26	papá	papá	_	S	_	28	nsubj	_	_
27	ha	avere	_	VA	_	28	aux	_	_
28	detto	dire	_	V	_	20	advcl	_	_
29	:	[PUNCT]	_	FC	_	28	punct	_	_
30	–	–	_	FF	_	28	punct	_	_
31	Ma	ma	_	CC	_	28	cc	_	_
32	possiam	possiam	_	V	_	28	conj	_	_
33	beh	beh	_	B	_	32	advmod	_	_
34	andare	andare	_	V	_	32	xcomp	_	_
35	a	a	_	E	_	36	mark	_	_
36	fare	fare	_	V	_	34	xcomp	_	_
37	un	un	_	RI	_	38	det	_	_
38	giro	giro	_	S	_	36	dobj	_	_
39	in	in	_	E	_	40	case	_	_
40	bici	bici	_	S	_	36	nmod	_	_
41	a	a	_	E	_	42	case	_	_
42	Malvaglia	Malvaglia	_	SP	_	36	nmod	_	_
43	.	[PUNCT]	_	FS	_	6	punct	_	_

44	Allora	allora	_	B	_	45	advmod	_	_
45	io	io	_	PE	_	0	root	_	_
46	e	e	_	CC	_	45	cc	_	_
47	mio	mio	_	PP	_	51	advmod	_	_
48	papá	papá	_	SW	_	47	compound	_	_
49	ci	ci	_	PC	_	51	advmod	_	_
50	siamo	essere	_	VA	_	51	aux	_	_
51	messi	mettere	_	V	_	45	conj	_	_
52	a	a	_	E	_	53	case	_	_
53	lavoro	lavoro	_	S	_	51	nmod	_	_
54	e	e	_	CC	_	45	cc	_	_
55	abbiamo	avere	_	VA	_	56	aux	_	_
56	iniziato	iniziare	_	V	_	45	conj	_	_
57	a	a	_	E	_	58	mark	_	_
58	pulir	pulire	_	V	_	56	xcomp	_	_
59	le	la	_	RD	_	60	det	_	_
60	bici	bici	_	S	_	58	dobj	_	_
61	.	[PUNCT]	_	FS	_	45	punct	_	_

62	E	e	_	CC	_	67	cc	_	_
63	dopo	dopo	_	E	_	64	case	_	_
64	mez'	mez'	_	S	_	67	nmod	_	_
65	ora	ora	_	B	_	67	advmod	_	_
66	siamo	essere	_	VA	_	67	aux	_	_
67	partiti	partire	_	V	_	0	root	_	_
68	per	per	_	E	_	69	mark	_	_
69	andare	andare	_	V	_	67	advcl	_	_
70	a	a	_	E	_	71	case	_	_
71	Malvaglia	Malvaglia	_	SP	_	69	nmod	_	_
72	.	[PUNCT]	_	FS	_	67	punct	_	_

73	Quando	quando	_	CS	_	75	mark	_	_
74	siamo	essere	_	VA	_	75	aux	_	_
75	arrivati	arrivare	_	V	_	80	advcl	_	_
76	circa	circa	_	B	_	75	advmod	_	_
77	a	a	_	E	_	78	case	_	_
78	metá	metá	_	S	_	76	nmod	_	_
79	abbiamo	avere	_	VA	_	80	aux	_	_
80	visto	vistare	_	V	_	0	root	_	_
81	che	che	_	CS	_	83	mark	_	_
82	stava	stare	_	VA	_	83	aux	_	_
83	arrivando	arrivare	_	V	_	80	ccomp	_	_
84	il	il	_	RD	_	85	det	_	_
85	bus	bus	_	S	_	83	nsubj	_	_
86	con	con	_	E	_	90	case	_	_
87	sopra	sopra	_	E	_	90	case	_	_
88	tutti	tutto	_	T	_	90	det:predet	_	_
89	i	il	_	RD	_	90	det	_	_
90	bambini	bambino	_	S	_	83	nmod	_	_
91	,	[PUNCT]	_	FF	_	83	punct	_	_
92	dopo	dopo	_	E	_	94	case	_	_
93	un	un	_	RI	_	94	det	_	_
94	po'	po'	_	B	_	98	advmod	_	_
95	i	il	_	RD	_	96	det	_	_
96	bambini	bambino	_	S	_	98	nsubjpass	_	_
97	sono	essere	_	VA	_	98	auxpass	_	_
98	scesi	scendere	_	V	_	83	conj	_	_
99	dal	dal	_	E+RD	_	100	case	_	_
100	bus	bus	_	S	_	98	nmod	_	_
101	sono	essere	_	VA	_	105	aux	_	_
102	stati	stare	_	VA	_	105	cop	_	_
103	li	li	_	PC	_	105	advmod	_	_
104	un	un	_	RI	_	105	det	_	_
105	po'	po'	_	B	_	107	mark	_	_
106	a	a	_	E	_	105	mwe	_	_
107	giocare	giocare	_	V	_	98	xcomp	_	_
108	a	a	_	E	_	109	mark	_	_
109	buttarsi	buttare	_	V+PC	_	107	xcomp	_	_
110	addosso	addossare	_	B	_	109	advmod	_	_
111	le	la	_	RD	_	112	det	_	_
112	palle	palla	_	S	_	109	dobj	_	_
113	di	di	_	E	_	114	case	_	_
114	neve	neve	_	S	_	112	nmod	_	_
115	,	[PUNCT]	_	FF	_	109	punct	_	_
116	dopo	dopo	_	E	_	118	case	_	_
117	un	un	_	RI	_	118	det	_	_
118	po'	po'	_	B	_	141	advmod	_	_
119	una	una	_	RI	_	120	det	_	_
120	bambina	bambina	_	S	_	141	nsubj	_	_
121	di	di	_	E	_	122	case	_	_
122	nome	nome	_	S	_	120	nmod	_	_
123	Lisa	Lisa	_	SP	_	122	nmod	_	_
124	é	essere	_	E	_	125	mark	_	_
125	scappata	scappare	_	V	_	120	acl	_	_
126	dai	dal	_	E+RD	_	128	case	_	_
127	suoi	suo	_	AP	_	128	det:poss	_	_
128	amici	amico	_	S	_	125	nmod	_	_
129	,	[PUNCT]	_	FF	_	120	punct	_	_
130	e	e	_	CC	_	120	cc	_	_
131	voleva	volere	_	VM	_	132	aux	_	_
132	attraversare	attraversare	_	V	_	120	conj	_	_
133	la	la	_	RD	_	134	det	_	_
134	strada	strada	_	S	_	132	dobj	_	_
135	,	[PUNCT]	_	FF	_	120	punct	_	_
136	ma	ma	_	CC	_	120	cc	_	_
137	per	per	_	E	_	138	case	_	_
138	sbaglio	sbaglio	_	S	_	120	conj	_	_
139	non	non	_	BN	_	141	neg	_	_
140	ha	avere	_	VA	_	141	aux	_	_
141	guardato	guardare	_	V	_	109	advcl	_	_
142	la	la	_	RD	_	143	det	_	_
143	strada	strada	_	S	_	141	dobj	_	_
144	e	e	_	CC	_	141	cc	_	_
145	l'	l'	_	PC	_	147	dobj	_	_
146	hanno	avere	_	VA	_	147	aux	_	_
147	schiacciata	schiacciare	_	V	_	141	conj	_	_
148	.	[PUNCT]	_	FS	_	80	punct	_	_

149	Il	il	_	RD	_	151	det	_	_
150	mio	mio	_	AP	_	151	det:poss	_	_
151	insegnamento	insegnamento	_	S	_	0	root	_	_
152	é	é	_	SP	_	151	nmod	_	_
153	che	che	_	PR	_	162	nsubj	_	_
154	quando	quando	_	CS	_	155	mark	_	_
155	vuoi	volere	_	V	_	162	advcl	_	_
156	attraversare	attraversare	_	V	_	155	ccomp	_	_
157	la	la	_	RD	_	158	det	_	_
158	strada	strada	_	S	_	156	dobj	_	_
159	,	[PUNCT]	_	FF	_	155	punct	_	_
160	devi	deviare	_	VM	_	162	aux	_	_
161	sempre	sempre	_	B	_	162	advmod	_	_
162	guardare	guardare	_	V	_	151	acl:relcl	_	_
163	anche	anche	_	B	_	162	advmod	_	_
164	se	se	_	CS	_	166	mark	_	_
165	si	si	_	PC	_	166	expl	_	_
166	é	essere	_	V	_	162	advcl	_	_
167	di	di	_	E	_	168	case	_	_
168	fretta	fretta	_	S	_	166	nmod	_	_
169	.	[PUNCT]	_	FS	_	151	punct	_	_

