1	In	in	_	E	_	2	case	_	_
2	piscina	piscina	_	S	_	6	nmod	_	_
3	Un	un	_	RI	_	4	det	_	_
4	giorno	giorno	_	S	_	6	nsubj	_	_
5	sono	essere	_	VA	_	6	aux	_	_
6	andato	andare	_	V	_	0	root	_	_
7	in	in	_	E	_	8	case	_	_
8	piscina	piscina	_	S	_	6	nmod	_	_
9	,	[PUNCT]	_	FF	_	6	punct	_	_
10	saltavo	saltare	_	V	_	6	advcl	_	_
11	dai	dal	_	E+RD	_	12	case	_	_
12	trampolino	trampolino	_	S	_	10	nmod	_	_
13	di	di	_	E	_	17	case	_	_
14	2	2	_	N	_	17	nummod	_	_
15	o	o	_	CC	_	14	cc	_	_
16	3	3	_	N	_	14	conj	_	_
17	metri	metro	_	S	_	12	nmod	_	_
18	.	[PUNCT]	_	FS	_	6	punct	_	_

19	C'	c'	_	PC	_	20	expl	_	_
20	era	essere	_	V	_	0	root	_	_
21	invece	invece	_	B	_	20	advmod	_	_
22	un	un	_	RI	_	23	det	_	_
23	ragazzino	ragazzino	_	S	_	20	nsubj	_	_
24	che	che	_	PR	_	25	nsubj	_	_
25	saltava	saltare	_	V	_	23	acl:relcl	_	_
26	dai	dal	_	E+RD	_	27	case	_	_
27	trampolini	trampolino	_	S	_	25	nmod	_	_
28	di	di	_	E	_	32	case	_	_
29	7	7	_	N	_	32	nummod	_	_
30	o	o	_	CC	_	29	cc	_	_
31	10	10	_	N	_	29	conj	_	_
32	metri	metro	_	S	_	27	nmod	_	_
33	.	[PUNCT]	_	FS	_	20	punct	_	_

34	Credendosi	credere	_	V+PC	_	0	root	_	_
35	super	super	_	A	_	36	amod	_	_
36	faceva	fare	_	V	_	34	xcomp	_	_
37	tuffi	tuffo	_	S	_	36	dobj	_	_
38	a	a	_	E	_	39	case	_	_
39	capriola	capriola	_	S	_	37	nmod	_	_
40	e	e	_	CC	_	37	cc	_	_
41	anche	anche	_	B	_	43	advmod	_	_
42	a	a	_	E	_	43	case	_	_
43	testa	testa	_	S	_	37	conj	_	_
44	,	[PUNCT]	_	FF	_	36	punct	_	_
45	oppure	oppure	_	CC	_	36	cc	_	_
46	ad	ad	_	E	_	47	case	_	_
47	angelo	angelo	_	S	_	36	conj	_	_
48	.	[PUNCT]	_	FS	_	34	punct	_	_

49	Aveva	avere	_	VA	_	0	root	_	_
50	tutto	tutto	_	T	_	52	det:predet	_	_
51	il	il	_	RD	_	52	det	_	_
52	corpo	corpo	_	S	_	49	dobj	_	_
53	rosso	rosso	_	A	_	52	amod	_	_
54	e	e	_	CC	_	49	cc	_	_
55	si	si	_	PC	_	56	expl:impers	_	_
56	vedeva	vedere	_	V	_	49	conj	_	_
57	che	che	_	CS	_	58	mark	_	_
58	aveva	avere	_	V	_	56	ccomp	_	_
59	dolore	dolore	_	S	_	58	dobj	_	_
60	:	[PUNCT]	_	FC	_	49	punct	_	_
61	stava	stare	_	VA	_	62	aux	_	_
62	esagerando	esagerare	_	V	_	49	parataxis	_	_
63	,	[PUNCT]	_	FF	_	62	punct	_	_
64	si	si	_	PC	_	66	expl	_	_
65	stava	stare	_	VA	_	66	aux	_	_
66	sopravalutando	sopravalutare	_	V	_	62	conj	_	_
67	!	[PUNCT]	_	FS	_	49	punct	_	_

68	Dopo	dopo	_	B	_	73	advmod	_	_
69	non	non	_	BN	_	73	neg	_	_
70	l'	l'	_	PC	_	73	dobj	_	_
71	ho	avere	_	VA	_	73	aux	_	_
72	più	più	_	B	_	73	advmod	_	_
73	visto	vistare	_	V	_	76	advcl	_	_
74	,	[PUNCT]	_	FF	_	73	punct	_	_
75	si	si	_	PC	_	76	expl:impers	_	_
76	vede	vedere	_	V	_	0	root	_	_
77	che	che	_	CS	_	80	mark	_	_
78	si	si	_	PC	_	80	expl:impers	_	_
79	era	essere	_	VA	_	80	aux	_	_
80	fatto	fare	_	V	_	76	ccomp	_	_
81	male	male	_	B	_	80	advmod	_	_
82	.	[PUNCT]	_	FS	_	76	punct	_	_

83	Meglio	meglio	_	B	_	85	advmod	_	_
84	non	non	_	BN	_	85	neg	_	_
85	rischiare	rischiare	_	V	_	0	root	_	_
86	di	di	_	E	_	87	mark	_	_
87	farsi	fare	_	V+PC	_	85	xcomp	_	_
88	male	male	_	B	_	87	advmod	_	_
89	facendo	fare	_	V	_	87	advcl	_	_
90	scemate	scemare	_	V	_	89	ccomp	_	_
91	ed	ed	_	CC	_	90	cc	_	_
92	esagerando	esagerare	_	V	_	90	conj	_	_
93	,	[PUNCT]	_	FF	_	89	punct	_	_
94	come	come	_	E	_	96	case	_	_
95	il	il	_	RD	_	96	det	_	_
96	ragazzino	ragazzino	_	S	_	89	nmod	_	_
97	che	che	_	PR	_	99	nsubj	_	_
98	si	si	_	PC	_	99	expl	_	_
99	sentiva	sentire	_	V	_	96	acl:relcl	_	_
100	super	super	_	A	_	99	xcomp	_	_
101	e	e	_	CC	_	100	cc	_	_
102	che	che	_	PR	_	106	dobj	_	_
103	poi	poi	_	B	_	106	advmod	_	_
104	si	si	_	PC	_	106	expl:impers	_	_
105	é	essere	_	VA	_	106	aux	_	_
106	fatto	fare	_	V	_	100	conj	_	_
107	male	male	_	B	_	106	advmod	_	_
108	!	[PUNCT]	_	FS	_	85	punct	_	_

