1	Il	il	_	RD	_	3	det	_	_
2	mio	mio	_	AP	_	3	det:poss	_	_
3	errore	errore	_	S	_	11	nsubj	_	_
4	Era	essere	_	V	_	3	acl	_	_
5	ormai	ormai	_	B	_	6	advmod	_	_
6	sera	sera	_	S	_	3	nmod	_	_
7	quando	quando	_	CS	_	8	mark	_	_
8	successe	succedere	_	V	_	11	advcl	_	_
9	avevo	avere	_	VA	_	11	aux	_	_
10	appena	appena	_	B	_	11	advmod	_	_
11	finito	finire	_	V	_	0	root	_	_
12	l'	l'	_	RD	_	13	det	_	_
13	allenamento	allenamento	_	S	_	11	dobj	_	_
14	di	di	_	E	_	15	case	_	_
15	corsa	corsa	_	S	_	13	nmod	_	_
16	e	e	_	CC	_	13	cc	_	_
17	la	la	_	RD	_	19	det	_	_
18	mia	mio	_	AP	_	19	det:poss	_	_
19	mamma	mamma	_	S	_	13	conj	_	_
20	mi	mi	_	PC	_	22	dobj	_	_
21	era	essere	_	VA	_	22	aux	_	_
22	venuta	venire	_	V	_	11	conj	_	_
23	a	a	_	E	_	24	mark	_	_
24	prendere	prendere	_	V	_	22	xcomp	_	_
25	in	in	_	E	_	26	case	_	_
26	auto	auto	_	S	_	24	nmod	_	_
27	,	[PUNCT]	_	FF	_	11	punct	_	_
28	eravamo	essere	_	V	_	11	conj	_	_
29	lí	lí	_	RD	_	53	det	_	_
30	dentro	dentro	_	B	_	32	advmod	_	_
31	a	a	_	E	_	32	mark	_	_
32	ascoltare	ascoltare	_	V	_	53	advcl	_	_
33	della	della	_	RI	_	34	det	_	_
34	musica	musica	_	S	_	32	dobj	_	_
35	quando	quando	_	CS	_	40	mark	_	_
36	a	a	_	E	_	38	case	_	_
37	mia	mio	_	AP	_	38	det:poss	_	_
38	mamma	mamma	_	S	_	40	nmod	_	_
39	gli	gli	_	PC	_	40	iobj	_	_
40	arriva	arrivare	_	V	_	53	advcl	_	_
41	un	un	_	RI	_	42	det	_	_
42	messaggio	messaggio	_	S	_	40	nsubj	_	_
43	sul	sul	_	E+RD	_	44	case	_	_
44	telefonino	telefonino	_	S	_	42	nmod	_	_
45	,	[PUNCT]	_	FF	_	40	punct	_	_
46	quando	quando	_	CS	_	49	mark	_	_
47	ci	ci	_	PC	_	49	iobj	_	_
48	ha	avere	_	VA	_	49	aux	_	_
49	detto	dire	_	V	_	53	advcl	_	_
50	di	di	_	E	_	51	case	_	_
51	cosa	cosa	_	S	_	49	nmod	_	_
52	si	si	_	PC	_	53	expl	_	_
53	trattava	trattare	_	V	_	28	advcl	_	_
54	sono	essere	_	VA	_	56	aux	_	_
55	stato	essere	_	V	_	56	cop	_	_
56	felicissimo	felice	_	A	_	53	xcomp	_	_
57	,	[PUNCT]	_	FF	_	53	punct	_	_
58	la	la	_	RD	_	59	det	_	_
59	nonna	nonna	_	S	_	62	nsubj	_	_
60	ci	ci	_	PC	_	62	iobj	_	_
61	aveva	avere	_	VA	_	62	aux	_	_
62	invitato	invitare	_	V	_	53	conj	_	_
63	a	a	_	E	_	64	case	_	_
64	cena	cena	_	S	_	62	nmod	_	_
65	.	[PUNCT]	_	FS	_	11	punct	_	_

66	Quando	quando	_	B	_	68	advmod	_	_
67	sono	essere	_	VA	_	68	aux	_	_
68	arrivato	arrivare	_	V	_	0	root	_	_
69	lá	lá	_	PC	_	71	advmod	_	_
70	ho	avere	_	VA	_	71	aux	_	_
71	trovato	trovare	_	V	_	68	ccomp	_	_
72	una	una	_	RI	_	73	det	_	_
73	sorpresa	sorpresa	_	S	_	71	dobj	_	_
74	,	[PUNCT]	_	FF	_	71	punct	_	_
75	c'	c'	_	PC	_	76	expl	_	_
76	era	essere	_	V	_	71	parataxis	_	_
77	il	il	_	RD	_	79	det	_	_
78	mio	mio	_	AP	_	79	det:poss	_	_
79	cugino	cugino	_	S	_	76	nsubj	_	_
80	maggiore	grande	_	A	_	79	amod	_	_
81	che	che	_	PR	_	83	nsubj	_	_
82	era	essere	_	VA	_	83	aux	_	_
83	stato	essere	_	V	_	79	acl:relcl	_	_
84	a	a	_	E	_	85	mark	_	_
85	fare	fare	_	V	_	83	xcomp	_	_
86	il	il	_	RD	_	87	det	_	_
87	militare	militare	_	S	_	85	dobj	_	_
88	per	per	_	E	_	90	case	_	_
89	sei	sei	_	N	_	90	nummod	_	_
90	mesi	mese	_	S	_	85	nmod	_	_
91	quel	quello	_	DD	_	92	det	_	_
92	giorno	giorno	_	S	_	94	nmod	_	_
93	era	essere	_	VA	_	94	aux	_	_
94	tornato	tornare	_	V	_	85	advcl	_	_
95	dal	dal	_	E+RD	_	97	case	_	_
96	suo	suo	_	AP	_	97	det:poss	_	_
97	corso	corso	_	S	_	94	nmod	_	_
98	e	e	_	CC	_	94	cc	_	_
99	quindi	quindi	_	B	_	100	advmod	_	_
100	significava	significare	_	V	_	94	conj	_	_
101	che	che	_	CS	_	103	mark	_	_
102	sarebbe	essere	_	VA	_	103	aux	_	_
103	stato	essere	_	V	_	100	ccomp	_	_
104	con	con	_	E	_	105	case	_	_
105	noi	noi	_	PE	_	103	nmod	_	_
106	per	per	_	E	_	108	case	_	_
107	la	la	_	RD	_	108	det	_	_
108	sera	sera	_	S	_	103	nmod	_	_
109	,	[PUNCT]	_	FF	_	103	punct	_	_
110	dopo	dopo	_	E	_	112	case	_	_
111	un	un	_	RI	_	112	det	_	_
112	attimo	attimo	_	S	_	115	nmod	_	_
113	lui	lui	_	PE	_	115	nsubj	_	_
114	si	si	_	PC	_	115	expl	_	_
115	mise	mettere	_	V	_	103	conj	_	_
116	a	a	_	E	_	117	mark	_	_
117	giocare	giocare	_	V	_	115	xcomp	_	_
118	con	con	_	E	_	120	case	_	_
119	il	il	_	RD	_	120	det	_	_
120	computer	computer	_	S	_	117	nmod	_	_
121	,	[PUNCT]	_	FF	_	115	punct	_	_
122	anche	anche	_	B	_	123	advmod	_	_
123	noi	noi	_	PE	_	115	nmod	_	_
124	volevamo	volere	_	V	_	123	acl	_	_
125	giocare	giocare	_	V	_	124	ccomp	_	_
126	quindi	quindi	_	B	_	125	advmod	_	_
127	siamo	essere	_	VA	_	128	aux	_	_
128	andati	andare	_	V	_	125	xcomp	_	_
129	a	a	_	E	_	130	mark	_	_
130	chiedere	chiedere	_	V	_	128	xcomp	_	_
131	a	a	_	E	_	133	case	_	_
132	nostra	nostro	_	AP	_	133	det:poss	_	_
133	mamma	mamma	_	S	_	130	nmod	_	_
134	,	[PUNCT]	_	FF	_	128	punct	_	_
135	lei	lei	_	PE	_	128	nmod	_	_
136	a	a	_	E	_	137	case	_	_
137	detto	detto	_	A	_	135	nmod	_	_
138	giustamente	giustamente	_	B	_	137	advmod	_	_
139	di	di	_	E	_	140	case	_	_
140	no	no	_	SW	_	138	nmod	_	_
141	!	[PUNCT]	_	FS	_	68	punct	_	_

142	Perche	perché	_	A	_	144	amod	_	_
143	il	il	_	RD	_	144	det	_	_
144	giorno	giorno	_	S	_	146	nmod	_	_
145	seguente	seguente	_	A	_	144	amod	_	_
146	avevamo	avere	_	V	_	0	root	_	_
147	scuola	scuola	_	S	_	146	dobj	_	_
148	,	[PUNCT]	_	FF	_	146	punct	_	_
149	io	io	_	PE	_	152	nsubj	_	_
150	non	non	_	BN	_	152	neg	_	_
151	ho	avere	_	VA	_	152	aux	_	_
152	accettato	accettare	_	V	_	146	conj	_	_
153	questa	questo	_	DD	_	154	det	_	_
154	idea	idea	_	S	_	152	dobj	_	_
155	e	e	_	CC	_	146	cc	_	_
156	quindi	quindi	_	B	_	158	advmod	_	_
157	sono	essere	_	VA	_	158	aux	_	_
158	andato	andare	_	V	_	146	conj	_	_
159	di	di	_	E	_	160	case	_	_
160	nascosto	nascosto	_	A	_	158	nmod	_	_
161	in	in	_	E	_	162	case	_	_
162	camera	camera	_	S	_	160	nmod	_	_
163	e	e	_	CC	_	146	cc	_	_
164	ho	avere	_	VA	_	165	aux	_	_
165	cominciato	cominciare	_	V	_	146	conj	_	_
166	a	a	_	E	_	167	mark	_	_
167	giocare	giocare	_	V	_	165	xcomp	_	_
168	,	[PUNCT]	_	FF	_	165	punct	_	_
169	a	a	_	E	_	172	case	_	_
170	un	un	_	RI	_	172	det	_	_
171	certo	certo	_	A	_	172	amod	_	_
172	punto	punto	_	S	_	177	nmod	_	_
173	la	la	_	RD	_	174	det	_	_
174	porta	porta	_	S	_	177	nsubj	_	_
175	si	si	_	PC	_	177	expl	_	_
176	è	essere	_	VA	_	177	aux	_	_
177	aperta	aprire	_	V	_	165	conj	_	_
178	era	essere	_	VA	_	180	cop	_	_
179	mia	mio	_	AP	_	180	det:poss	_	_
180	mamma	mamma	_	S	_	177	nsubjpass	_	_
181	,	[PUNCT]	_	FF	_	180	punct	_	_
182	ha	avere	_	VA	_	183	aux	_	_
183	detto	dire	_	V	_	180	conj	_	_
184	che	che	_	CS	_	186	mark	_	_
185	avevo	avere	_	VA	_	186	aux	_	_
186	tradito	tradire	_	V	_	183	ccomp	_	_
187	la	la	_	RD	_	189	det	_	_
188	sua	suo	_	AP	_	189	det:poss	_	_
189	fiducia	fiducia	_	S	_	186	dobj	_	_
190	per	per	_	E	_	191	case	_	_
191	colpa	colpa	_	S	_	186	nmod	_	_
192	di	di	_	E	_	195	case	_	_
193	uno	un	_	RI	_	195	det	_	_
194	stupido	stupido	_	A	_	195	amod	_	_
195	gioco	gioco	_	S	_	191	nmod	_	_
196	elettronico	elettronico	_	A	_	195	amod	_	_
197	.	[PUNCT]	_	FS	_	146	punct	_	_

198	Quando	quando	_	CS	_	200	mark	_	_
199	siamo	essere	_	VA	_	200	aux	_	_
200	tornati	tornare	_	V	_	205	advcl	_	_
201	a	a	_	E	_	202	case	_	_
202	casa	casa	_	S	_	200	nmod	_	_
203	mi	mi	_	PC	_	205	iobj	_	_
204	hanno	avere	_	VA	_	205	aux	_	_
205	detto	dire	_	V	_	0	root	_	_
206	di	di	_	E	_	207	mark	_	_
207	andare	andare	_	V	_	205	xcomp	_	_
208	subito	subito	_	B	_	207	advmod	_	_
209	a	a	_	E	_	210	case	_	_
210	letto	letto	_	S	_	207	nmod	_	_
211	,	[PUNCT]	_	FF	_	205	punct	_	_
212	mi	mi	_	PC	_	213	dobj	_	_
213	hanno	avere	_	V	_	205	parataxis	_	_
214	anche	anche	_	B	_	215	advmod	_	_
215	detto	detto	_	A	_	213	amod	_	_
216	che	che	_	PR	_	217	nsubj	_	_
217	ero	essere	_	V	_	215	acl:relcl	_	_
218	in	in	_	E	_	219	case	_	_
219	castigo	castigo	_	S	_	217	nmod	_	_
220	e	e	_	CC	_	219	cc	_	_
221	che	che	_	PR	_	224	nsubj	_	_
222	non	non	_	BN	_	224	neg	_	_
223	saremmo	essere	_	V	_	224	cop	_	_
224	piú	più	_	S	_	219	conj	_	_
225	andati	andare	_	V	_	224	acl	_	_
226	dalla	dalla	_	E+RD	_	227	case	_	_
227	nonna	nonna	_	S	_	225	nmod	_	_
228	per	per	_	E	_	230	case	_	_
229	un	un	_	RI	_	230	det	_	_
230	mese	mese	_	S	_	225	nmod	_	_
231	.	[PUNCT]	_	FS	_	205	punct	_	_

232	Io	io	_	PE	_	237	nsubj	_	_
233	quella	quello	_	DD	_	234	det	_	_
234	notte	notte	_	S	_	237	nsubj	_	_
235	non	non	_	BN	_	237	neg	_	_
236	ho	avere	_	VA	_	237	aux	_	_
237	dormito	dormire	_	V	_	0	root	_	_
238	infatti	infatti	_	B	_	240	advmod	_	_
239	ho	avere	_	VA	_	240	aux	_	_
240	pianto	piangere	_	V	_	237	ccomp	_	_
241	e	e	_	CC	_	240	cc	_	_
242	pensato	pensare	_	V	_	240	conj	_	_
243	a	a	_	E	_	244	case	_	_
244	quello	quello	_	PD	_	242	nmod	_	_
245	che	che	_	PR	_	247	dobj	_	_
246	avevo	avere	_	VA	_	247	aux	_	_
247	fatto	fare	_	V	_	244	acl:relcl	_	_
248	mi	mi	_	PC	_	249	expl	_	_
249	sentivo	sentire	_	V	_	240	conj	_	_
250	in	in	_	E	_	251	case	_	_
251	colpa	colpa	_	S	_	249	nmod	_	_
252	anche	anche	_	B	_	255	advmod	_	_
253	verso	verso	_	E	_	255	case	_	_
254	mia	mio	_	AP	_	255	det:poss	_	_
255	nonna	nonna	_	S	_	249	nmod	_	_
256	e	e	_	CC	_	240	cc	_	_
257	quindi	quindi	_	B	_	259	advmod	_	_
258	via	via	_	B	_	259	advmod	_	_
259	telefono	telefono	_	S	_	262	nsubj	_	_
260	le	le	_	PC	_	262	iobj	_	_
261	ho	avere	_	VA	_	262	aux	_	_
262	chiesto	chiedere	_	V	_	240	conj	_	_
263	scusa	scusare	_	V	_	262	xcomp	_	_
264	per	per	_	E	_	265	case	_	_
265	quello	quello	_	PD	_	263	nmod	_	_
266	che	che	_	PR	_	268	dobj	_	_
267	ho	avere	_	VA	_	268	aux	_	_
268	fatto	fare	_	V	_	265	acl:relcl	_	_
269	.	[PUNCT]	_	FS	_	237	punct	_	_

270	Da	da	_	E	_	272	case	_	_
271	questo	questo	_	DD	_	272	det	_	_
272	episodio	episodio	_	S	_	274	nmod	_	_
273	ho	avere	_	VA	_	274	aux	_	_
274	imparato	imparare	_	V	_	0	root	_	_
275	che	che	_	CS	_	274	advmod	_	_
276	quando	quando	_	CS	_	286	mark	_	_
277	una	una	_	RI	_	278	det	_	_
278	persona	persona	_	S	_	286	nsubj	_	_
279	ti	ti	_	PC	_	286	dobj	_	_
280	da	da	_	E	_	283	case	_	_
281	la	la	_	RD	_	283	det	_	_
282	sua	suo	_	AP	_	283	det:poss	_	_
283	fiducia	fiducia	_	S	_	286	nmod	_	_
284	tu	tu	_	PE	_	286	nsubj	_	_
285	devi	deviare	_	VM	_	286	aux	_	_
286	trattarla	trattare	_	V+PC	_	275	advcl	_	_
287	come	come	_	E	_	289	case	_	_
288	un	un	_	RI	_	289	det	_	_
289	tesoro	tesoro	_	S	_	286	nmod	_	_
290	inestimabile	inestimabile	_	A	_	289	amod	_	_
291	e	e	_	CC	_	286	cc	_	_
292	non	non	_	BN	_	293	neg	_	_
293	bisogna	bisognare	_	V	_	286	conj	_	_
294	buttarla	buttare	_	V+PC	_	293	xcomp	_	_
295	via	via	_	B	_	294	advmod	_	_
296	alla	alla	_	E+RD	_	298	case	_	_
297	prima	primo	_	NO	_	298	amod	_	_
298	possibilita	possibilita	_	S	_	294	nmod	_	_
299	,	[PUNCT]	_	FF	_	286	punct	_	_
300	senza	senza	_	E	_	302	case	_	_
301	la	la	_	RD	_	302	det	_	_
302	fiducia	fiducia	_	S	_	286	nmod	_	_
303	non	non	_	BN	_	304	neg	_	_
304	avrai	avere	_	VA	_	302	amod	_	_
305	mai	mai	_	B	_	307	advmod	_	_
306	le	la	_	RD	_	307	det	_	_
307	cose	cosa	_	S	_	304	dobj	_	_
308	piú	più	_	A	_	307	amod	_	_
309	importanti	importante	_	A	_	307	amod	_	_
310	cioè	cioè	_	B	_	307	advmod	_	_
311	:	[PUNCT]	_	FC	_	304	punct	_	_
312	l'	l'	_	RD	_	313	det	_	_
313	amore	amore	_	S	_	304	nsubj	_	_
314	di	di	_	E	_	316	case	_	_
315	una	una	_	RI	_	316	det	_	_
316	persona	persona	_	S	_	313	nmod	_	_
317	o	o	_	CC	_	313	cc	_	_
318	la	la	_	RD	_	319	det	_	_
319	amicizia	amicizia	_	S	_	313	conj	_	_
320	.	[PUNCT]	_	FS	_	274	punct	_	_

