1	La	la	_	RD	_	2	det	_	_
2	lepre	lepre	_	S	_	19	nsubj	_	_
3	e	e	_	CC	_	2	cc	_	_
4	la	la	_	RD	_	5	det	_	_
5	tartaruga	tartaruga	_	S	_	2	conj	_	_
6	Quando	quando	_	CS	_	8	mark	_	_
7	ho	avere	_	VA	_	8	aux	_	_
8	cominciato	cominciare	_	V	_	19	advcl	_	_
9	a	a	_	E	_	10	mark	_	_
10	sentire	sentire	_	V	_	8	xcomp	_	_
11	la	la	_	RD	_	12	det	_	_
12	favola	favola	_	S	_	10	dobj	_	_
13	della	della	_	E+RD	_	14	case	_	_
14	lepre	lepre	_	S	_	12	nmod	_	_
15	e	e	_	CC	_	14	cc	_	_
16	della	della	_	E+RD	_	17	case	_	_
17	tartaruga	tartaruga	_	S	_	14	conj	_	_
18	ho	avere	_	VA	_	19	aux	_	_
19	imparato	imparare	_	V	_	0	root	_	_
20	che	che	_	CS	_	26	mark	_	_
21	non	non	_	BN	_	26	neg	_	_
22	si	si	_	PC	_	26	expl:impers	_	_
23	deve	dovere	_	VM	_	26	aux	_	_
24	sempre	sempre	_	B	_	26	advmod	_	_
25	essere	essere	_	VA	_	26	cop	_	_
26	sicuri	sicuro	_	A	_	19	xcomp	_	_
27	di	di	_	E	_	28	case	_	_
28	sé	sé	_	PC	_	26	nmod	_	_
29	ma	ma	_	CC	_	28	cc	_	_
30	avere	avere	_	V	_	28	conj	_	_
31	fede	fede	_	S	_	30	dobj	_	_
32	è	essere	_	VA	_	33	aux	_	_
33	successo	succedere	_	V	_	19	advcl	_	_
34	proprio	proprio	_	B	_	33	advmod	_	_
35	così	così	_	B	_	37	advmod	_	_
36	la	la	_	RD	_	37	det	_	_
37	lepre	lepre	_	S	_	38	nsubj	_	_
38	prendeva	prendere	_	V	_	33	csubj	_	_
39	in	in	_	E	_	40	case	_	_
40	giro	giro	_	S	_	38	nmod	_	_
41	la	la	_	RD	_	42	det	_	_
42	tartaruga	tartaruga	_	S	_	38	dobj	_	_
43	perchè	perché	_	CS	_	45	mark	_	_
44	era	essere	_	V	_	45	cop	_	_
45	lenta	lento	_	A	_	38	advcl	_	_
46	e	e	_	CC	_	45	cc	_	_
47	questa	questa	_	PD	_	50	nsubj	_	_
48	lepre	lepre	_	V	_	50	acl	_	_
49	era	essere	_	V	_	50	cop	_	_
50	sicura	sicuro	_	A	_	45	conj	_	_
51	di	di	_	E	_	52	case	_	_
52	sé	sé	_	PC	_	50	nmod	_	_
53	mentre	mentre	_	CS	_	57	mark	_	_
54	la	la	_	RD	_	55	det	_	_
55	tartaruga	tartaruga	_	S	_	57	nsubj	_	_
56	era	essere	_	V	_	57	cop	_	_
57	fedele	fedele	_	A	_	52	advcl	_	_
58	ed	ed	_	CC	_	57	cc	_	_
59	ha	avere	_	VA	_	60	aux	_	_
60	avuto	avere	_	V	_	57	conj	_	_
61	la	la	_	RD	_	62	det	_	_
62	vittoria	vittoria	_	S	_	60	dobj	_	_
63	.	[PUNCT]	_	FS	_	19	punct	_	_

64	Ad	ad	_	E	_	67	case	_	_
65	un	un	_	RI	_	67	det	_	_
66	certo	certo	_	A	_	67	amod	_	_
67	punto	punto	_	S	_	72	nmod	_	_
68	la	la	_	RD	_	69	det	_	_
69	lepre	lepre	_	S	_	72	nsubj	_	_
70	era	essere	_	V	_	72	cop	_	_
71	così	così	_	B	_	72	advmod	_	_
72	sicura	sicuro	_	A	_	81	nsubj	_	_
73	della	della	_	E+RD	_	74	case	_	_
74	vittoria	vittoria	_	S	_	81	nmod	_	_
75	che	che	_	PR	_	77	nsubj	_	_
76	si	si	_	PC	_	77	expl	_	_
77	addormentò	addormentare	_	V	_	81	dobj	_	_
78	la	la	_	RD	_	79	det	_	_
79	tartaruga	tartaruga	_	S	_	81	nsubj	_	_
80	la	la	_	PC	_	81	dobj	_	_
81	raggiunse	raggiungere	_	V	_	0	root	_	_
82	,	[PUNCT]	_	FF	_	81	punct	_	_
83	la	la	_	RD	_	84	det	_	_
84	superò	superare	_	A	_	81	dobj	_	_
85	e	e	_	CC	_	84	cc	_	_
86	arrivò	arrivare	_	V	_	84	conj	_	_
87	al	al	_	E+RD	_	88	case	_	_
88	traguardo	traguardo	_	S	_	86	nmod	_	_
89	.	[PUNCT]	_	FS	_	81	punct	_	_

90	Invece	invece	_	B	_	93	advmod	_	_
91	la	la	_	RD	_	92	det	_	_
92	lepre	lepre	_	S	_	93	nsubj	_	_
93	caduta	cadere	_	V	_	0	root	_	_
94	nel	nel	_	E+RD	_	95	case	_	_
95	sonno	sonno	_	S	_	93	nmod	_	_
96	si	si	_	PC	_	97	dobj	_	_
97	svegliò	svegliare	_	V	_	93	advcl	_	_
98	troppo	troppo	_	B	_	99	advmod	_	_
99	tardi	tardi	_	B	_	97	advmod	_	_
100	.	[PUNCT]	_	FS	_	93	punct	_	_

