1	La	la	_	RD	_	2	det	_	_
2	corsa	corsa	_	S	_	8	nmod	_	_
3	d'	da	_	E	_	4	case	_	_
4	orientamento	orientamento	_	S	_	2	nmod	_	_
5	Un	un	_	RI	_	6	det	_	_
6	Lunedì	Lunedì	_	SP	_	8	nsubj	_	_
7	pomeriggio	pomeriggio	_	S	_	6	nmod	_	_
8	stavo	stare	_	V	_	0	root	_	_
9	andando	andare	_	V	_	8	advcl	_	_
10	a	a	_	E	_	11	case	_	_
11	ginnastica	ginnastica	_	S	_	9	nmod	_	_
12	con	con	_	E	_	14	case	_	_
13	la	la	_	RD	_	14	det	_	_
14	scuola	scuola	_	S	_	9	nmod	_	_
15	a	a	_	E	_	16	mark	_	_
16	fare	fare	_	V	_	9	xcomp	_	_
17	la	la	_	RD	_	18	det	_	_
18	corsa	corsa	_	S	_	16	dobj	_	_
19	d'	da	_	E	_	20	case	_	_
20	orientameno	orientameno	_	S	_	18	nmod	_	_
21	.	[PUNCT]	_	FS	_	8	punct	_	_

22	Sfortunatamente	sfortunatamente	_	B	_	24	advmod	_	_
23	c'	c'	_	PC	_	24	expl	_	_
24	era	essere	_	V	_	27	cop	_	_
25	anche	anche	_	B	_	27	advmod	_	_
26	la	la	_	RD	_	27	det	_	_
27	seconda	secondo	_	NO	_	0	root	_	_
28	a	a	_	E	_	29	mark	_	_
29	fare	fare	_	V	_	27	acl	_	_
30	ginnastica	ginnastica	_	S	_	29	dobj	_	_
31	con	con	_	E	_	32	case	_	_
32	noi	noi	_	PE	_	29	nmod	_	_
33	.	[PUNCT]	_	FS	_	27	punct	_	_

34	Il	il	_	RD	_	35	det	_	_
35	maestro	maestro	_	S	_	38	nsubj	_	_
36	Max	Max	_	SP	_	35	nmod	_	_
37	aveva	avere	_	VA	_	38	aux	_	_
38	formato	formare	_	V	_	0	root	_	_
39	i	il	_	RD	_	40	det	_	_
40	gruppi	gruppo	_	S	_	38	dobj	_	_
41	,	[PUNCT]	_	FF	_	40	punct	_	_
42	io	io	_	PE	_	40	conj	_	_
43	e	e	_	CC	_	40	cc	_	_
44	la	la	_	RD	_	46	det	_	_
45	mia	mio	_	AP	_	46	det:poss	_	_
46	amica	amica	_	S	_	48	nsubj	_	_
47	jennifer	jennifer	_	A	_	46	amod	_	_
48	eravamo	essere	_	V	_	40	conj	_	_
49	in	in	_	E	_	50	case	_	_
50	gruppo	gruppo	_	S	_	48	nmod	_	_
51	con	con	_	E	_	54	case	_	_
52	due	due	_	N	_	54	nummod	_	_
53	bambine	bambina	_	A	_	54	amod	_	_
54	noiose	noioso	_	S	_	48	nmod	_	_
55	come	come	_	E	_	57	case	_	_
56	un	un	_	RI	_	57	det	_	_
57	lama	lama	_	S	_	48	nmod	_	_
58	,	[PUNCT]	_	FF	_	38	punct	_	_
59	testarde	testarde	_	V	_	38	advcl	_	_
60	come	come	_	E	_	62	case	_	_
61	un	un	_	RI	_	62	det	_	_
62	lama	lama	_	S	_	59	nmod	_	_
63	,	[PUNCT]	_	FF	_	59	punct	_	_
64	antipatiche	antipatico	_	A	_	59	amod	_	_
65	come	come	_	E	_	67	case	_	_
66	un	un	_	RI	_	67	det	_	_
67	lama	lama	_	S	_	64	nmod	_	_
68	e	e	_	CC	_	67	cc	_	_
69	brutte	brutto	_	A	_	67	conj	_	_
70	come	come	_	E	_	72	case	_	_
71	un	un	_	RI	_	72	det	_	_
72	lama	lama	_	S	_	69	nmod	_	_
73	.	[PUNCT]	_	FS	_	38	punct	_	_

74	Insomma	insomma	_	B	_	77	advmod	_	_
75	:	[PUNCT]	_	FC	_	74	punct	_	_
76	una	una	_	RI	_	77	det	_	_
77	retava	retava	_	V	_	0	root	_	_
78	sempre	sempre	_	B	_	77	advmod	_	_
79	indietro	indietro	_	B	_	77	advmod	_	_
80	,	[PUNCT]	_	FF	_	77	punct	_	_
81	dio	dio	_	S	_	84	nsubj	_	_
82	le	le	_	PC	_	84	iobj	_	_
83	aveva	avere	_	VA	_	84	aux	_	_
84	dato	dare	_	V	_	77	advcl	_	_
85	le	la	_	RD	_	86	det	_	_
86	gambe	gamba	_	S	_	84	dobj	_	_
87	,	[PUNCT]	_	FF	_	77	punct	_	_
88	ma	ma	_	CC	_	77	cc	_	_
89	non	non	_	BN	_	90	neg	_	_
90	so	sapere	_	V	_	77	conj	_	_
91	perché	perché	_	CS	_	94	mark	_	_
92	non	non	_	BN	_	94	neg	_	_
93	le	le	_	PC	_	94	dobj	_	_
94	usava	usare	_	V	_	90	advcl	_	_
95	e	e	_	CC	_	94	cc	_	_
96	si	si	_	PC	_	97	dobj	_	_
97	metteva	mettere	_	V	_	94	conj	_	_
98	sempre	sempre	_	B	_	97	advmod	_	_
99	a	a	_	E	_	100	mark	_	_
100	canticchiare	canticchiare	_	V	_	97	xcomp	_	_
101	,	[PUNCT]	_	FF	_	77	punct	_	_
102	e	e	_	CC	_	77	cc	_	_
103	invece	invece	_	B	_	106	advmod	_	_
104	l'	l'	_	RD	_	106	det	_	_
105	altra	altro	_	A	_	106	amod	_	_
106	bambina	bambina	_	S	_	107	nsubj	_	_
107	andava	andare	_	V	_	77	conj	_	_
108	sempre	sempre	_	B	_	107	advmod	_	_
109	d'	da	_	E	_	110	case	_	_
110	avanti	avanti	_	B	_	107	advmod	_	_
111	a	a	_	E	_	112	case	_	_
112	noi	noi	_	PE	_	107	nmod	_	_
113	per	per	_	E	_	114	mark	_	_
114	pescare	pescare	_	V	_	107	advcl	_	_
115	la	la	_	RD	_	116	det	_	_
116	foto	foto	_	S	_	114	dobj	_	_
117	che	che	_	PR	_	119	dobj	_	_
118	dovevamo	dovere	_	VM	_	119	aux	_	_
119	trovare	trovare	_	V	_	116	acl:relcl	_	_
120	,	[PUNCT]	_	FF	_	119	punct	_	_
121	poi	poi	_	B	_	122	advmod	_	_
122	diceva	dire	_	V	_	119	advcl	_	_
123	sempre	sempre	_	B	_	122	advmod	_	_
124	:	[PUNCT]	_	FC	_	77	punct	_	_
125	io	io	_	PE	_	126	nsubj	_	_
126	so	sapere	_	V	_	77	parataxis	_	_
127	dove	dove	_	B	_	128	advmod	_	_
128	andare	andare	_	V	_	131	parataxis	_	_
129	,	[PUNCT]	_	FF	_	128	punct	_	_
130	io	io	_	PE	_	131	nsubj	_	_
131	so	sapere	_	V	_	126	ccomp	_	_
132	dove	dove	_	B	_	131	advmod	_	_
133	quello	quello	_	PD	_	131	xcomp	_	_
134	.	[PUNCT]	_	FS	_	77	punct	_	_

135	Ma	ma	_	CC	_	139	cc	_	_
136	alla	alla	_	E+RD	_	137	case	_	_
137	fine	fine	_	S	_	139	nmod	_	_
138	non	non	_	BN	_	139	neg	_	_
139	trovava	trovare	_	V	_	0	root	_	_
140	mai	mai	_	B	_	139	advmod	_	_
141	niente	niente	_	PI	_	139	dobj	_	_
142	.	[PUNCT]	_	FS	_	139	punct	_	_

143	Pensava	pensare	_	V	_	0	root	_	_
144	di	di	_	E	_	147	mark	_	_
145	essere	essere	_	V	_	147	cop	_	_
146	più	più	_	B	_	147	advmod	_	_
147	grande	grande	_	A	_	143	ccomp	_	_
148	di	di	_	E	_	149	case	_	_
149	noi	noi	_	PE	_	147	nmod	_	_
150	.	[PUNCT]	_	FS	_	143	punct	_	_

151	da	da	_	E	_	153	case	_	_
152	quel	quello	_	DD	_	153	det	_	_
153	giorno	giorno	_	S	_	155	nmod	_	_
154	ho	avere	_	VA	_	155	aux	_	_
155	capito	capire	_	V	_	0	root	_	_
156	che	che	_	CS	_	161	mark	_	_
157	i	il	_	RD	_	158	det	_	_
158	piccoli	piccolo	_	S	_	161	nsubj	_	_
159	non	non	_	BN	_	161	neg	_	_
160	devono	dovere	_	VM	_	161	aux	_	_
161	credersi	credere	_	V+PC	_	155	ccomp	_	_
162	grandi	grande	_	A	_	161	xcomp	_	_
163	.	[PUNCT]	_	FS	_	155	punct	_	_

164	E	e	_	CC	_	0	root	_	_
165	o	o	_	CC	_	164	cc	_	_
166	capito	capire	_	V	_	164	conj	_	_
167	perché	perché	_	CS	_	173	mark	_	_
168	le	la	_	RD	_	170	det	_	_
169	mie	mio	_	AP	_	170	det:poss	_	_
170	sorelle	sorella	_	S	_	173	nsubj	_	_
171	non	non	_	BN	_	173	neg	_	_
172	mi	mi	_	PC	_	173	dobj	_	_
173	sopportano	sopportare	_	V	_	166	ccomp	_	_
174	.	[PUNCT]	_	FS	_	164	punct	_	_

