1	La	la	_	RD	_	2	det	_	_
2	partita	partita	_	S	_	6	nsubj	_	_
3	di	di	_	E	_	4	case	_	_
4	ping-pong	ping-pong	_	S	_	6	nmod	_	_
5	Era	essere	_	V	_	6	cop	_	_
6	estate	estate	_	S	_	0	root	_	_
7	,	[PUNCT]	_	FF	_	6	punct	_	_
8	fuori	fuori	_	B	_	9	advmod	_	_
9	faceva	fare	_	V	_	6	conj	_	_
10	molto	molto	_	B	_	11	advmod	_	_
11	caldo	caldo	_	A	_	9	xcomp	_	_
12	.	[PUNCT]	_	FS	_	6	punct	_	_

13	Prima	prima	_	B	_	15	mark	_	_
14	di	di	_	E	_	13	mwe	_	_
15	uscire	uscire	_	V	_	18	advcl	_	_
16	peró	peró	_	S	_	15	nsubj	_	_
17	abbiamo	avere	_	VA	_	18	aux	_	_
18	giocato	giocare	_	V	_	0	root	_	_
19	tutta	tutto	_	T	_	21	det:predet	_	_
20	la	la	_	RD	_	21	det	_	_
21	famiglia	famiglia	_	S	_	18	dobj	_	_
22	a	a	_	E	_	23	case	_	_
23	Uno	uno	_	PI	_	18	nmod	_	_
24	.	[PUNCT]	_	FS	_	18	punct	_	_

25	Dopo	dopo	_	E	_	28	mark	_	_
26	ci	ci	_	PC	_	28	expl	_	_
27	siamo	essere	_	VA	_	28	aux	_	_
28	messi	mettere	_	V	_	0	root	_	_
29	tutti	tutti	_	PI	_	28	nsubj	_	_
30	il	il	_	RD	_	31	det	_	_
31	costume	costume	_	S	_	29	dobj	_	_
32	e	e	_	CC	_	28	cc	_	_
33	siamo	essere	_	VA	_	34	aux	_	_
34	andati	andare	_	V	_	28	conj	_	_
35	a	a	_	E	_	36	mark	_	_
36	fare	fare	_	V	_	34	xcomp	_	_
37	un	un	_	RI	_	38	det	_	_
38	bagno	bagno	_	S	_	36	dobj	_	_
39	in	in	_	E	_	40	case	_	_
40	piscina	piscina	_	S	_	36	nmod	_	_
41	,	[PUNCT]	_	FF	_	28	punct	_	_
42	dietro	dietro	_	E	_	45	case	_	_
43	la	la	_	RD	_	45	det	_	_
44	nostra	nostro	_	AP	_	45	det:poss	_	_
45	casa	casa	_	S	_	28	nmod	_	_
46	.	[PUNCT]	_	FS	_	28	punct	_	_

47	Erano	essere	_	V	_	50	cop	_	_
48	già	già	_	B	_	50	advmod	_	_
49	le	la	_	RD	_	50	det	_	_
50	16	16	_	N	_	0	root	_	_
51	:	[PUNCT]	_	FC	_	50	punct	_	_
52	30	30	_	N	_	55	nummod	_	_
53	e	e	_	CC	_	52	cc	_	_
54	allora	allora	_	B	_	52	conj	_	_
55	siamo	essere	_	V	_	50	conj	_	_
56	usciti	uscire	_	V	_	55	xcomp	_	_
57	dalla	dalla	_	E+RD	_	58	case	_	_
58	piscina	piscina	_	S	_	56	nmod	_	_
59	e	e	_	CC	_	50	cc	_	_
60	ci	ci	_	PC	_	61	expl	_	_
61	siamo	essere	_	V	_	64	cop	_	_
62	un	un	_	RI	_	63	det	_	_
63	po'	po'	_	B	_	64	advmod	_	_
64	asciugati	asciugare	_	A	_	50	conj	_	_
65	.	[PUNCT]	_	FS	_	50	punct	_	_

66	Abbiamo	avere	_	VA	_	68	aux	_	_
67	poi	poi	_	B	_	68	advmod	_	_
68	mangiato	mangiare	_	V	_	0	root	_	_
69	tutti	tutti	_	PI	_	68	dobj	_	_
70	un	un	_	RI	_	71	det	_	_
71	gelato	gelato	_	A	_	69	amod	_	_
72	alla	alla	_	E+RD	_	73	case	_	_
73	vaniglia	vaniglia	_	S	_	71	nmod	_	_
74	,	[PUNCT]	_	FF	_	71	punct	_	_
75	per	per	_	E	_	76	case	_	_
76	poi	poi	_	B	_	77	advmod	_	_
77	andare	andare	_	V	_	71	acl	_	_
78	davanti	davanti	_	B	_	80	case	_	_
79	a	a	_	E	_	78	mwe	_	_
80	casa	casa	_	S	_	77	nmod	_	_
81	per	per	_	E	_	82	mark	_	_
82	giocare	giocare	_	V	_	77	advcl	_	_
83	.	[PUNCT]	_	FS	_	68	punct	_	_

84	Quando	quando	_	CS	_	86	mark	_	_
85	siamo	essere	_	VA	_	86	aux	_	_
86	andati	andare	_	V	_	0	root	_	_
87	davanti	davanti	_	B	_	94	advmod	_	_
88	il	il	_	RD	_	90	det	_	_
89	mio	mio	_	AP	_	90	det:poss	_	_
90	fratellino	fratellino	_	S	_	94	nsubj	_	_
91	minore	minore	_	A	_	90	amod	_	_
92	mi	mi	_	PC	_	94	iobj	_	_
93	aveva	avere	_	VA	_	94	aux	_	_
94	chiesto	chiedere	_	V	_	86	advcl	_	_
95	se	se	_	CS	_	98	mark	_	_
96	io	io	_	PE	_	98	nsubj	_	_
97	volevo	volere	_	VM	_	98	aux	_	_
98	giocare	giocare	_	V	_	94	ccomp	_	_
99	con	con	_	E	_	100	case	_	_
100	lui	lui	_	PE	_	98	nmod	_	_
101	a	a	_	E	_	102	case	_	_
102	ping-pong	ping-pong	_	S	_	98	nmod	_	_
103	,	[PUNCT]	_	FF	_	98	punct	_	_
104	io	io	_	PE	_	107	nsubj	_	_
105	gli	gli	_	PC	_	107	iobj	_	_
106	ho	avere	_	VA	_	107	aux	_	_
107	risposto	rispondere	_	V	_	98	advcl	_	_
108	di	di	_	E	_	109	case	_	_
109	no	no	_	I	_	107	advmod	_	_
110	perché	perché	_	CS	_	113	mark	_	_
111	gli	gli	_	PC	_	113	iobj	_	_
112	ho	avere	_	VA	_	113	aux	_	_
113	detto	dire	_	V	_	109	acl	_	_
114	che	che	_	CS	_	116	mark	_	_
115	tanto	tanto	_	B	_	116	advmod	_	_
116	vincevo	vincere	_	V	_	113	ccomp	_	_
117	io	io	_	PE	_	116	nsubj	_	_
118	ed	ed	_	CC	_	116	cc	_	_
119	era	essere	_	V	_	120	cop	_	_
120	inutile	inutile	_	A	_	116	conj	_	_
121	giocare	giocare	_	V	_	120	csubj	_	_
122	.	[PUNCT]	_	FS	_	86	punct	_	_

123	Allora	allora	_	B	_	126	advmod	_	_
124	ci	ci	_	PC	_	126	expl	_	_
125	siamo	essere	_	VA	_	126	aux	_	_
126	messi	mettere	_	V	_	0	root	_	_
127	a	a	_	E	_	128	mark	_	_
128	giocare	giocare	_	V	_	126	xcomp	_	_
129	a	a	_	E	_	130	mark	_	_
130	volano	volare	_	V	_	128	xcomp	_	_
131	,	[PUNCT]	_	FF	_	130	punct	_	_
132	una	una	_	RI	_	133	det	_	_
133	partita	partita	_	S	_	136	nsubj	_	_
134	l'	l'	_	PC	_	136	dobj	_	_
135	ho	avere	_	VA	_	136	aux	_	_
136	vinta	vincere	_	V	_	130	conj	_	_
137	io	io	_	PE	_	130	punct	_	_
138	,	[PUNCT]	_	FF	_	130	punct	_	_
139	mentre	mentre	_	CS	_	144	mark	_	_
140	l'	l'	_	RD	_	141	det	_	_
141	altra	altra	_	PI	_	144	nsubj	_	_
142	l'	l'	_	PC	_	144	dobj	_	_
143	ha	avere	_	VA	_	144	aux	_	_
144	vinta	vincere	_	V	_	130	advcl	_	_
145	il	il	_	RD	_	147	det	_	_
146	mio	mio	_	AP	_	147	det:poss	_	_
147	fratellino	fratellino	_	S	_	144	dobj	_	_
148	minore	minore	_	A	_	147	amod	_	_
149	.	[PUNCT]	_	FS	_	126	punct	_	_

150	Dopo	dopo	_	E	_	152	case	_	_
151	queste	questo	_	DD	_	152	det	_	_
152	due	due	_	N	_	156	nummod	_	_
153	belle	bello	_	A	_	156	amod	_	_
154	e	e	_	CC	_	153	cc	_	_
155	divertenti	divertente	_	A	_	153	conj	_	_
156	partite	partita	_	S	_	166	nmod	_	_
157	a	a	_	E	_	158	mark	_	_
158	volano	volare	_	V	_	156	acl	_	_
159	,	[PUNCT]	_	FF	_	156	punct	_	_
160	il	il	_	RD	_	162	det	_	_
161	mio	mio	_	AP	_	162	det:poss	_	_
162	fratellino	fratellino	_	S	_	166	nsubj	_	_
163	mi	mi	_	PC	_	166	iobj	_	_
164	ha	avere	_	VA	_	166	aux	_	_
165	ancora	ancora	_	B	_	166	advmod	_	_
166	chiesto	chiedere	_	V	_	0	root	_	_
167	se	se	_	CS	_	169	mark	_	_
168	volevo	volere	_	VM	_	169	aux	_	_
169	giocare	giocare	_	V	_	166	advcl	_	_
170	con	con	_	E	_	171	case	_	_
171	lui	lui	_	PE	_	169	nmod	_	_
172	a	a	_	E	_	173	case	_	_
173	ping-pong	ping-pong	_	S	_	169	nmod	_	_
174	e	e	_	CC	_	169	cc	_	_
175	io	io	_	S	_	169	conj	_	_
176	a	a	_	E	_	178	case	_	_
177	quel	quello	_	DD	_	178	det	_	_
178	punto	punto	_	S	_	180	nmod	_	_
179	ho	avere	_	VA	_	180	aux	_	_
180	ceduto	cedere	_	V	_	175	acl	_	_
181	e	e	_	CC	_	175	cc	_	_
182	gli	gli	_	PC	_	184	iobj	_	_
183	ho	avere	_	VA	_	184	aux	_	_
184	detto	dire	_	V	_	175	conj	_	_
185	di	di	_	E	_	186	case	_	_
186	sì	sì	_	B	_	184	advmod	_	_
187	.	[PUNCT]	_	FS	_	166	punct	_	_

188	Abbiamo	avere	_	VA	_	191	aux	_	_
189	così	così	_	B	_	191	advmod	_	_
190	dovuto	dovere	_	VM	_	191	aux	_	_
191	prendere	prendere	_	V	_	0	root	_	_
192	l'	l'	_	RD	_	193	det	_	_
193	occorrente	occorrere	_	V	_	191	dobj	_	_
194	per	per	_	E	_	195	mark	_	_
195	giocare	giocare	_	V	_	193	advcl	_	_
196	e	e	_	CC	_	195	cc	_	_
197	poi	poi	_	B	_	199	advmod	_	_
198	abbiamo	avere	_	VA	_	199	aux	_	_
199	preparato	preparare	_	V	_	195	conj	_	_
200	il	il	_	RD	_	201	det	_	_
201	tavolo	tavolo	_	S	_	199	dobj	_	_
202	.	[PUNCT]	_	FS	_	191	punct	_	_

203	Abbiamo	avere	_	VA	_	204	aux	_	_
204	incominciato	incominciare	_	V	_	0	root	_	_
205	a	a	_	E	_	206	mark	_	_
206	giocare	giocare	_	V	_	204	xcomp	_	_
207	e	e	_	CC	_	206	cc	_	_
208	alla	alla	_	E+RD	_	209	case	_	_
209	fine	fine	_	S	_	206	conj	_	_
210	ha	avere	_	VA	_	211	aux	_	_
211	vinto	vincere	_	V	_	204	parataxis	_	_
212	il	il	_	RD	_	214	det	_	_
213	mio	mio	_	AP	_	214	det:poss	_	_
214	fratellino	fratellino	_	S	_	211	dobj	_	_
215	minore	minore	_	A	_	214	amod	_	_
216	battendomi	battendomi	_	S	_	214	nmod	_	_
217	21-15	21-15	_	N	_	216	nummod	_	_
218	.	[PUNCT]	_	FS	_	204	punct	_	_

219	allora	allora	_	B	_	221	advmod	_	_
220	mi	mi	_	PC	_	221	iobj	_	_
221	toccava	toccare	_	V	_	0	root	_	_
222	proprio	proprio	_	B	_	223	advmod	_	_
223	fargli	fare	_	V+PC	_	221	advcl	_	_
224	tanti	tanto	_	DI	_	225	det	_	_
225	complimenti	complimento	_	S	_	223	dobj	_	_
226	.	[PUNCT]	_	FS	_	221	punct	_	_

227	Dopo	dopo	_	E	_	230	mark	_	_
228	mi	mi	_	PC	_	230	iobj	_	_
229	aveva	avere	_	VA	_	230	aux	_	_
230	fatto	fare	_	V	_	0	root	_	_
231	anche	anche	_	B	_	232	advmod	_	_
232	lui	lui	_	PE	_	230	nmod	_	_
233	i	il	_	RD	_	234	det	_	_
234	complimenti	complimento	_	S	_	230	dobj	_	_
235	ed	ed	_	CC	_	230	cc	_	_
236	ero	essere	_	V	_	237	cop	_	_
237	contenta	contento	_	A	_	230	conj	_	_
238	di	di	_	E	_	239	case	_	_
239	come	come	_	PR	_	241	nmod	_	_
240	avevo	avere	_	VA	_	241	aux	_	_
241	passato	passare	_	V	_	237	acl:relcl	_	_
242	la	la	_	RD	_	243	det	_	_
243	giornata	giornata	_	S	_	241	dobj	_	_
244	.	[PUNCT]	_	FS	_	230	punct	_	_

245	Insegnamento	insegnamento	_	S	_	251	nmod	_	_
246	:	[PUNCT]	_	FC	_	245	punct	_	_
247	Da	da	_	E	_	249	case	_	_
248	quel	quello	_	DD	_	249	det	_	_
249	momento	momento	_	S	_	251	nmod	_	_
250	ho	avere	_	VA	_	251	aux	_	_
251	imparato	imparare	_	V	_	0	root	_	_
252	che	che	_	CS	_	254	mark	_	_
253	non	non	_	BN	_	254	neg	_	_
254	bisogna	bisognare	_	V	_	251	ccomp	_	_
255	mai	mai	_	B	_	254	advmod	_	_
256	sottovalutare	sottovalutare	_	V	_	254	xcomp	_	_
257	le	la	_	RD	_	258	det	_	_
258	persone	persona	_	S	_	256	dobj	_	_
259	perché	perché	_	CS	_	261	mark	_	_
260	possono	potere	_	VM	_	261	aux	_	_
261	avere	avere	_	V	_	256	advcl	_	_
262	delle	della	_	E+RD	_	263	case	_	_
263	capacità	capacità	_	S	_	261	nmod	_	_
264	che	che	_	PR	_	267	dobj	_	_
265	tu	tu	_	PE	_	267	nsubj	_	_
266	non	non	_	BN	_	267	neg	_	_
267	sai	sapere	_	V	_	263	acl:relcl	_	_
268	.	[PUNCT]	_	FS	_	251	punct	_	_

