1	Un	un	_	RI	_	2	det	_	_
2	giorno	giorno	_	S	_	7	nmod	_	_
3	,	[PUNCT]	_	FF	_	2	punct	_	_
4	durante	durante	_	E	_	5	case	_	_
5	ginnastica	ginnastica	_	S	_	7	nmod	_	_
6	abbiamo	avere	_	VA	_	7	aux	_	_
7	percorso	percorrere	_	V	_	0	root	_	_
8	sessanta	sessanta	_	N	_	9	nummod	_	_
9	metri	metro	_	S	_	7	dobj	_	_
10	a	a	_	E	_	11	case	_	_
11	corsa	corsa	_	S	_	9	nmod	_	_
12	contro	contro	_	E	_	15	case	_	_
13	un	un	_	RI	_	15	det	_	_
14	nostro	nostro	_	AP	_	15	det:poss	_	_
15	compagno	compagno	_	S	_	9	nmod	_	_
16	/	/	_	X	_	15	punct	_	_
17	a	a	_	SP	_	15	nmod	_	_
18	.	[PUNCT]	_	FS	_	7	punct	_	_

19	Io	io	_	PE	_	20	nsubj	_	_
20	pensavo	pensare	_	V	_	0	root	_	_
21	di	di	_	E	_	22	mark	_	_
22	batterlo	battere	_	V+PC	_	20	xcomp	_	_
23	perché	perché	_	CS	_	29	mark	_	_
24	l'	l'	_	RD	_	25	det	_	_
25	anno	anno	_	S	_	29	nsubj	_	_
26	scorso	scorso	_	A	_	25	amod	_	_
27	l'	l'	_	PC	_	29	dobj	_	_
28	ho	avere	_	VA	_	29	aux	_	_
29	battuto	battere	_	V	_	22	advcl	_	_
30	e	e	_	CC	_	29	cc	_	_
31	quest'	questo	_	DD	_	32	det	_	_
32	anno	anno	_	S	_	33	nmod	_	_
33	pensavo	pensare	_	V	_	29	conj	_	_
34	di	di	_	E	_	35	mark	_	_
35	batterlo	battere	_	V+PC	_	33	xcomp	_	_
36	,	[PUNCT]	_	FF	_	20	punct	_	_
37	però	però	_	B	_	38	advmod	_	_
38	ero	essere	_	V	_	41	cop	_	_
39	un	un	_	RI	_	40	det	_	_
40	po'	po'	_	B	_	41	advmod	_	_
41	teso	teso	_	A	_	20	conj	_	_
42	.	[PUNCT]	_	FS	_	20	punct	_	_

43	Alla	alla	_	E+RD	_	44	case	_	_
44	partenza	partenza	_	S	_	46	nmod	_	_
45	siamo	essere	_	VA	_	46	aux	_	_
46	partiti	partire	_	V	_	0	root	_	_
47	uguali	uguale	_	A	_	46	xcomp	_	_
48	ma	ma	_	CC	_	47	cc	_	_
49	poi	poi	_	B	_	52	advmod	_	_
50	lui	lui	_	PE	_	52	nsubj	_	_
51	è	essere	_	VA	_	52	aux	_	_
52	passato	passare	_	V	_	47	conj	_	_
53	in	in	_	E	_	54	case	_	_
54	testa	testa	_	S	_	52	nmod	_	_
55	,	[PUNCT]	_	FF	_	46	punct	_	_
56	alla	alla	_	E+RD	_	57	case	_	_
57	fine	fine	_	S	_	60	nmod	_	_
58	mi	mi	_	PC	_	60	dobj	_	_
59	ha	avere	_	VA	_	60	aux	_	_
60	battuto	battere	_	V	_	46	conj	_	_
61	,	[PUNCT]	_	FF	_	60	punct	_	_
62	ma	ma	_	CC	_	60	cc	_	_
63	io	io	_	PE	_	67	nsubj	_	_
64	non	non	_	BN	_	67	neg	_	_
65	mi	mi	_	PC	_	67	expl	_	_
66	sono	essere	_	VA	_	67	aux	_	_
67	arrabbiato	arrabbiare	_	V	_	60	conj	_	_
68	perché	perché	_	CS	_	71	mark	_	_
69	è	essere	_	V	_	71	cop	_	_
70	mio	mio	_	AP	_	71	det:poss	_	_
71	amico	amico	_	S	_	76	advcl	_	_
72	e	e	_	CC	_	71	cc	_	_
73	a	a	_	E	_	74	case	_	_
74	me	me	_	PE	_	71	conj	_	_
75	non	non	_	BN	_	76	neg	_	_
76	faceva	fare	_	V	_	67	ccomp	_	_
77	niente	niente	_	PI	_	76	dobj	_	_
78	,	[PUNCT]	_	FF	_	46	punct	_	_
79	tanto	tanto	_	B	_	82	advmod	_	_
80	non	non	_	BN	_	82	neg	_	_
81	si	si	_	PC	_	82	expl	_	_
82	vinceva	vincere	_	V	_	46	conj	_	_
83	qualcosa	qualcosa	_	PI	_	82	dobj	_	_
84	.	[PUNCT]	_	FS	_	46	punct	_	_

85	Quel	quello	_	DD	_	86	det	_	_
86	giorno	giorno	_	S	_	88	nmod	_	_
87	ho	avere	_	VA	_	88	aux	_	_
88	imparato	imparare	_	V	_	0	root	_	_
89	che	che	_	CS	_	92	mark	_	_
90	non	non	_	BN	_	92	neg	_	_
91	devo	dovere	_	VM	_	92	aux	_	_
92	sottovalutare	sottovalutare	_	V	_	88	ccomp	_	_
93	l'	l'	_	RD	_	94	det	_	_
94	avversario	avversario	_	S	_	92	dobj	_	_
95	e	e	_	CC	_	92	cc	_	_
96	ho	avere	_	VA	_	97	aux	_	_
97	imparato	imparare	_	V	_	92	conj	_	_
98	la	la	_	RD	_	99	det	_	_
99	lezione	lezione	_	S	_	97	dobj	_	_

