1	Il	il	_	RD	_	2	det	_	_
2	litigio	litigio	_	S	_	9	nsubj	_	_
3	tra	tra	_	E	_	5	case	_	_
4	mia	mio	_	AP	_	5	det:poss	_	_
5	mamma	mamma	_	S	_	2	nmod	_	_
6	e	e	_	CC	_	5	cc	_	_
7	mio	mio	_	AP	_	8	det:poss	_	_
8	fratello	fratello	_	S	_	5	conj	_	_
9	Era	essere	_	V	_	0	root	_	_
10	una	una	_	RI	_	11	det	_	_
11	sera	sera	_	S	_	31	nsubj	_	_
12	come	come	_	E	_	16	case	_	_
13	tutte	tutto	_	T	_	16	det:predet	_	_
14	le	la	_	RD	_	16	det	_	_
15	altre	altro	_	A	_	16	amod	_	_
16	io	io	_	S	_	11	nmod	_	_
17	e	e	_	CC	_	16	cc	_	_
18	mio	mio	_	PP	_	21	nmod	_	_
19	fratellino	fratellino	_	S	_	21	nsubj	_	_
20	stavamo	stare	_	VA	_	21	aux	_	_
21	andando	andare	_	V	_	16	conj	_	_
22	a	a	_	E	_	23	case	_	_
23	letto	letto	_	S	_	21	nmod	_	_
24	normalmente	normalmente	_	B	_	31	advmod	_	_
25	ma	ma	_	CC	_	24	cc	_	_
26	mio	mio	_	AP	_	27	det:poss	_	_
27	fratello	fratello	_	S	_	24	conj	_	_
28	maggiore	grande	_	A	_	27	amod	_	_
29	,	[PUNCT]	_	FF	_	24	punct	_	_
30	non	non	_	BN	_	31	neg	_	_
31	aveva	avere	_	V	_	9	advcl	_	_
32	sonno	sonno	_	S	_	31	dobj	_	_
33	e	e	_	CC	_	31	cc	_	_
34	aveva	avere	_	VA	_	35	aux	_	_
35	disobbedito	disobbedire	_	V	_	31	conj	_	_
36	alla	alla	_	E+RD	_	37	case	_	_
37	mamma	mamma	_	S	_	35	nmod	_	_
38	che	che	_	PR	_	41	nsubj	_	_
39	gli	gli	_	PC	_	41	iobj	_	_
40	aveva	avere	_	VA	_	41	aux	_	_
41	detto	dire	_	V	_	35	ccomp	_	_
42	di	di	_	E	_	43	mark	_	_
43	andare	andare	_	V	_	41	xcomp	_	_
44	a	a	_	E	_	45	case	_	_
45	letto	letto	_	S	_	43	nmod	_	_
46	,	[PUNCT]	_	FF	_	43	punct	_	_
47	allora	allora	_	CS	_	50	mark	_	_
48	si	si	_	PC	_	50	expl	_	_
49	era	essere	_	VA	_	50	aux	_	_
50	messo	mettere	_	V	_	43	advcl	_	_
51	a	a	_	E	_	52	mark	_	_
52	giocare	giocare	_	V	_	50	xcomp	_	_
53	al	al	_	E+RD	_	54	case	_	_
54	computer	computer	_	S	_	52	nmod	_	_
55	.	[PUNCT]	_	FS	_	9	punct	_	_

56	La	la	_	RD	_	57	det	_	_
57	mamma	mamma	_	S	_	61	nsubj	_	_
58	dopo	dopo	_	E	_	59	case	_	_
59	mezzoretta	mezzoretta	_	S	_	57	nmod	_	_
60	aveva	avere	_	VA	_	61	aux	_	_
61	incominciato	incominciare	_	V	_	0	root	_	_
62	a	a	_	E	_	63	mark	_	_
63	dirgli	dire	_	V+PC	_	61	xcomp	_	_
64	di	di	_	E	_	65	mark	_	_
65	spegnere	spegnere	_	V	_	63	xcomp	_	_
66	il	il	_	RD	_	67	det	_	_
67	computer	computer	_	S	_	65	dobj	_	_
68	,	[PUNCT]	_	FF	_	61	punct	_	_
69	ma	ma	_	CC	_	61	cc	_	_
70	lui	lui	_	PE	_	71	nsubj	_	_
71	faceva	fare	_	V	_	61	conj	_	_
72	finta	finta	_	S	_	71	dobj	_	_
73	di	di	_	E	_	75	mark	_	_
74	non	non	_	BN	_	75	neg	_	_
75	sentire	sentire	_	V	_	72	acl	_	_
76	.	[PUNCT]	_	FS	_	61	punct	_	_

77	La	la	_	RD	_	79	det	_	_
78	seconda	secondo	_	NO	_	79	amod	_	_
79	volta	volta	_	S	_	84	nmod	_	_
80	la	la	_	RD	_	81	det	_	_
81	mamma	mamma	_	S	_	84	nsubj	_	_
82	gli	gli	_	PC	_	84	iobj	_	_
83	aveva	avere	_	VA	_	84	aux	_	_
84	detto	dire	_	V	_	0	root	_	_
85	di	di	_	E	_	86	mark	_	_
86	smetterla	smettere	_	V+PC	_	84	xcomp	_	_
87	,	[PUNCT]	_	FF	_	84	punct	_	_
88	ma	ma	_	CC	_	84	cc	_	_
89	stavolta	stavolta	_	B	_	90	advmod	_	_
90	lui	lui	_	PE	_	91	nsubj	_	_
91	canticchiava	canticchiare	_	V	_	84	conj	_	_
92	.	[PUNCT]	_	FS	_	84	punct	_	_

93	Alla	alla	_	E+RD	_	95	case	_	_
94	terza	terzo	_	NO	_	95	amod	_	_
95	volta	volta	_	S	_	100	nmod	_	_
96	la	la	_	RD	_	97	det	_	_
97	mamma	mamma	_	S	_	100	nsubj	_	_
98	si	si	_	PC	_	100	dobj	_	_
99	é	essere	_	VA	_	100	aux	_	_
100	alzata	alzare	_	V	_	0	root	_	_
101	dal	dal	_	E+RD	_	102	case	_	_
102	letto	letto	_	S	_	100	nmod	_	_
103	ed	ed	_	CC	_	102	cc	_	_
104	é	essere	_	E	_	105	case	_	_
105	andata	andata	_	S	_	102	conj	_	_
106	in	in	_	E	_	107	case	_	_
107	camera	camera	_	S	_	105	nmod	_	_
108	sua	suo	_	AP	_	107	det:poss	_	_
109	dicendogli	dire	_	V+PC	_	105	acl	_	_
110	ancora	ancora	_	B	_	109	advmod	_	_
111	una	una	_	RI	_	112	det	_	_
112	volta	volta	_	S	_	109	dobj	_	_
113	di	di	_	E	_	114	mark	_	_
114	spegnere	spegnere	_	V	_	112	acl	_	_
115	il	il	_	RD	_	116	det	_	_
116	computer	computer	_	S	_	114	dobj	_	_
117	,	[PUNCT]	_	FF	_	100	punct	_	_
118	ma	ma	_	CC	_	100	cc	_	_
119	lui	lui	_	PE	_	120	nsubj	_	_
120	facendo	fare	_	V	_	100	conj	_	_
121	di	di	_	E	_	123	case	_	_
122	nuovo	nuovo	_	A	_	123	amod	_	_
123	finta	finta	_	S	_	120	nmod	_	_
124	di	di	_	E	_	125	case	_	_
125	niente	niente	_	PI	_	123	nmod	_	_
126	aveva	avere	_	VA	_	127	aux	_	_
127	alzato	alzare	_	V	_	120	ccomp	_	_
128	il	il	_	RD	_	129	det	_	_
129	volume	volume	_	S	_	127	dobj	_	_
130	della	della	_	E+RD	_	131	case	_	_
131	musica	musica	_	S	_	129	nmod	_	_
132	quasi	quasi	_	B	_	134	advmod	_	_
133	al	al	_	E+RD	_	134	case	_	_
134	massimo	massimo	_	S	_	127	nmod	_	_
135	,	[PUNCT]	_	FF	_	127	punct	_	_
136	a	a	_	E	_	138	case	_	_
137	quel	quello	_	DD	_	138	det	_	_
138	punto	punto	_	S	_	127	nmod	_	_
139	la	la	_	RD	_	140	det	_	_
140	mamma	mamma	_	S	_	138	nmod	_	_
141	che	che	_	PR	_	143	nsubj	_	_
142	era	essere	_	VA	_	143	aux	_	_
143	stufa	stufare	_	V	_	140	acl:relcl	_	_
144	di	di	_	E	_	145	mark	_	_
145	continuare	continuare	_	V	_	143	xcomp	_	_
146	a	a	_	E	_	147	mark	_	_
147	ripeterglielo	ripetere	_	V	_	145	xcomp	_	_
148	gli	il	_	RD	_	149	det	_	_
149	era	era	_	S	_	127	dobj	_	_
150	andata	andare	_	VA	_	155	aux	_	_
151	vicino	vicino	_	B	_	155	advmod	_	_
152	e	e	_	CC	_	151	cc	_	_
153	gli	gli	_	PC	_	155	iobj	_	_
154	aveva	avere	_	VA	_	155	aux	_	_
155	spento	spegnere	_	V	_	149	acl	_	_
156	il	il	_	RD	_	157	det	_	_
157	computer	computer	_	S	_	155	dobj	_	_
158	.	[PUNCT]	_	FS	_	100	punct	_	_

159	Così	così	_	B	_	161	advmod	_	_
160	é	essere	_	CC	_	161	cc	_	_
161	restato	restare	_	V	_	0	root	_	_
162	senza	senza	_	E	_	163	case	_	_
163	computer	computer	_	S	_	161	nmod	_	_
164	per	per	_	E	_	167	case	_	_
165	ben	ben	_	B	_	167	advmod	_	_
166	due	due	_	N	_	167	nummod	_	_
167	settimane	settimana	_	S	_	161	nmod	_	_
168	!	[PUNCT]	_	FS	_	161	punct	_	_

169	Riflessione	riflessione	_	S	_	179	nmod	_	_
170	:	[PUNCT]	_	FC	_	169	punct	_	_
171	Da	da	_	E	_	173	case	_	_
172	questa	questo	_	DD	_	173	det	_	_
173	scena	scena	_	S	_	179	nmod	_	_
174	a	a	_	E	_	175	case	_	_
175	cui	cui	_	PR	_	177	nmod	_	_
176	ho	avere	_	VA	_	177	aux	_	_
177	assistito	assistere	_	V	_	173	acl:relcl	_	_
178	ho	avere	_	VA	_	179	aux	_	_
179	imparato	imparare	_	V	_	0	root	_	_
180	che	che	_	CS	_	179	advmod	_	_
181	quando	quando	_	CS	_	185	mark	_	_
182	la	la	_	RD	_	183	det	_	_
183	mamma	mamma	_	S	_	185	nsubj	_	_
184	ti	ti	_	PC	_	185	iobj	_	_
185	dice	dire	_	V	_	180	advcl	_	_
186	di	di	_	E	_	187	mark	_	_
187	fare	fare	_	V	_	185	xcomp	_	_
188	qualcosa	qualcosa	_	PI	_	187	dobj	_	_
189	é	essere	_	E	_	190	case	_	_
190	sempre	sempre	_	B	_	187	advmod	_	_
191	meglio	meglio	_	B	_	192	advmod	_	_
192	farla	fare	_	V+PC	_	187	advcl	_	_
193	se	se	_	CS	_	198	mark	_	_
194	no	no	_	BN	_	198	neg	_	_
195	va	andare	_	VM	_	198	aux	_	_
196	sempre	sempre	_	B	_	198	advmod	_	_
197	a	a	_	E	_	198	mark	_	_
198	finire	finire	_	V	_	192	ccomp	_	_
199	male	male	_	B	_	198	advmod	_	_
200	.	[PUNCT]	_	FS	_	179	punct	_	_

